mot,8004,8005,8006,8007,8001,8002,8003
vanois,0.0,0.0,0.0,0.0,0.0,0.0,1.0
premi,0.0,0.0,0.0,0.0,0.4692810457518009,0.5307189542481991,0.0
schengen,0.0,0.0,0.8105161910872297,0.1894838089127703,0.0,0.0,0.0
aéroport,0.0,0.4072164948451967,0.0,0.5927835051548034,0.0,0.0,0.0
candidatur,0.0,0.0,1.0,0.0,0.0,0.0,0.0
vieil,0.0,0.0,0.0,0.0,0.0,1.0,0.0
vill,0.281593703732228,0.0,0.0,0.1000599688668981,0.5451543131371112,0.0,0.0731920142637627
décentralis,1.0,0.0,0.0,0.0,0.0,0.0,0.0
luxembourg,0.0,0.0,1.0,0.0,0.0,0.0,0.0
désign,0.0,0.0,0.0,0.0,0.0,0.0,1.0
mill,0.0,0.0,0.0,1.0,0.0,0.0,0.0
dynamis,0.0,0.0,1.0,0.0,0.0,0.0,0.0
intègrent,0.0,0.0,1.0,0.0,0.0,0.0,0.0
mondialisation renforc,1.0,0.0,0.0,0.0,0.0,0.0,0.0
souverainet,0.0,0.0,0.0,1.0,0.0,0.0,0.0
pouvoir,0.6077844311379438,0.0,0.0,0.0,0.39221556886205616,0.0,0.0
paris,0.19335535862514328,0.16519273030388545,0.0,0.3607056452836659,0.28074626578730544,0.0,0.0
proxim,0.3883952408991052,0.0,0.2582729774508445,0.0,0.0,0.0,0.3533317816500503
archipel,0.0,1.0,0.0,0.0,0.0,0.0,0.0
rénov,1.0,0.0,0.0,0.0,0.0,0.0,0.0
distingu,0.0,0.0,0.0,1.0,0.0,0.0,0.0
nord,0.0,0.0,0.0,0.36226034308775545,0.0,0.6377396569122447,0.0
fronti,0.0,0.0,1.0,0.0,0.0,0.0,0.0
larg,0.0,0.0,0.0,1.0,0.0,0.0,0.0
te,0.0,0.0,0.0,0.0,0.4692810457518009,0.5307189542481991,0.0
spec,0.0,1.0,0.0,0.0,0.0,0.0,0.0
sent,0.0,0.0,1.0,0.0,0.0,0.0,0.0
valeur,0.0,0.0,0.267657992565438,0.0,0.0,0.0,0.732342007434562
monnai,0.0,0.0,0.5167620605078765,0.4832379394921234,0.0,0.0,0.0
objet,0.0,0.48430493273614533,0.0,0.0,0.0,0.0,0.5156950672638547
vert,0.0,0.0,0.0,0.0,0.0,0.0,1.0
prendr,1.0,0.0,0.0,0.0,0.0,0.0,0.0
agriculteur,0.0,0.0,0.0,0.0,0.0,0.5461441213654966,0.4538558786345034
productiv,0.0,0.0,0.0,0.0,0.0,0.0,1.0
néorural,0.0,0.0,0.0,0.0,0.0,0.0,1.0
projet,0.0,0.0,1.0,0.0,0.0,0.0,0.0
élect,0.0,0.0,1.0,0.0,0.0,0.0,0.0
mouv,0.0,0.0,1.0,0.0,0.0,0.0,0.0
«,0.0,0.0,1.0,0.0,0.0,0.0,0.0
fac,0.3140410519789602,0.2683002900601326,0.4176586579609073,0.0,0.0,0.0,0.0
région,0.20461004611748546,0.37458888877761515,0.15549770002247554,0.03635250819363294,0.0,0.09599492414345831,0.13295593274533263
renouveau,0.0,0.0,0.0,0.0,0.0,0.0,1.0
administr,1.0,0.0,0.0,0.0,0.0,0.0,0.0
dif,0.29162641404180506,0.2491503928660088,0.19392416365229276,0.0,0.0,0.0,0.2652990294398935
kourou,0.0,1.0,0.0,0.0,0.0,0.0,0.0
mati,0.0,0.438339438340012,0.0,0.0,0.0,0.5616605616599881,0.0
insular,0.0,1.0,0.0,0.0,0.0,0.0,0.0
enti,0.0,0.0,0.0,1.0,0.0,0.0,0.0
natur,0.0,0.0,0.267657992565438,0.0,0.0,0.0,0.732342007434562
compens,0.0,1.0,0.0,0.0,0.0,0.0,0.0
subventions fed,0.0,0.0,1.0,0.0,0.0,0.0,0.0
budget,1.0,0.0,0.0,0.0,0.0,0.0,0.0
échang,0.0,0.0,0.0,1.0,0.0,0.0,0.0
biolog,0.0,0.0,0.0,0.0,0.0,1.0,0.0
droit,0.0,0.0,1.0,0.0,0.0,0.0,0.0
géometr,0.0,0.0,1.0,0.0,0.0,0.0,0.0
attir,0.3227869464035469,0.27577232594896,0.0,0.4014407276474933,0.0,0.0,0.0
air,0.15813047711780504,0.0,0.0,0.0,0.841869522882195,0.0,0.0
port,0.0,0.21555252387469404,0.0,0.784447476125306,0.0,0.0,0.0
fonction,0.0,0.0,0.0,0.0,0.0,0.0,1.0
accueil,0.0,0.3092109620247949,0.2406718147742481,0.450117223200957,0.0,0.0,0.0
hymn,0.0,0.0,1.0,0.0,0.0,0.0,0.0
sud,0.0,0.0,0.0,0.0,0.0,1.0,0.0
maritim,0.0,0.0,0.0,1.0,0.0,0.0,0.0
des ménag,0.0,0.0,0.0,0.0,1.0,0.0,0.0
+,0.0,0.4688221709011062,0.0,0.0,0.5311778290988938,0.0,0.0
habitat,0.0,0.0,0.0,0.0,0.5155131264919516,0.0,0.48448687350804853
capital,0.4291938997826973,0.0,0.5708061002173026,0.0,0.0,0.0,0.0
international,0.16737288135613707,0.0,0.0,0.8326271186438629,0.0,0.0,0.0
impuls,1.0,0.0,0.0,0.0,0.0,0.0,0.0
déconcentr,0.0,0.0,0.0,0.0,0.0,1.0,0.0
public,1.0,0.0,0.0,0.0,0.0,0.0,0.0
multinational,0.0,0.0,0.0,0.0,0.0,1.0,0.0
situat,0.0,1.0,0.0,0.0,0.0,0.0,0.0
richess,0.0,0.0,1.0,0.0,0.0,0.0,0.0
commercial,0.0,0.0,0.0,1.0,0.0,0.0,0.0
villes qu,0.0,0.0,0.0,0.0,0.0,0.0,1.0
len,1.0,0.0,0.0,0.0,0.0,0.0,0.0
pôl,0.2801794101519027,0.0,0.0,0.2323006501891986,0.18080543216682507,0.3067145074920737,0.0
met,0.0,0.0,0.0,0.0,1.0,0.0,0.0
mer,0.0,0.7673006879803811,0.0,0.23269931201961885,0.0,0.0,0.0
cult,0.39693212031485514,0.3391180940948894,0.2639497855902555,0.0,0.0,0.0,0.0
défavoris,1.0,0.0,0.0,0.0,0.0,0.0,0.0
urbain,0.06443421679079626,0.0,0.0,0.0,0.9355657832092037,0.0,0.0
gentrif,0.0,0.0,0.0,0.0,1.0,0.0,0.0
consomm,0.0,0.0,0.0,0.0,0.0,1.0,0.0
anné,0.0,0.0,0.10616407938493057,0.09927685271560313,0.15453933723229712,0.34954301346174493,0.2904767172054241
naturel,0.0,0.12244052346257327,0.0953005766376531,0.0,0.0,0.0,0.7822588998997737
dé,0.6006097560974026,0.0,0.39939024390259736,0.0,0.0,0.0,0.0
technolog,0.0,0.0,0.0,0.0,0.0,1.0,0.0
travaill,0.0,0.0,0.0,0.0,0.0,1.0,0.0
bon,0.0,0.0,1.0,0.0,0.0,0.0,0.0
social,0.0,1.0,0.0,0.0,0.0,0.0,0.0
action,1.0,0.0,0.0,0.0,0.0,0.0,0.0
voitur,0.0,0.0,0.0,0.0,1.0,0.0,0.0
diminu,1.0,0.0,0.0,0.0,0.0,0.0,0.0
multiplient,0.0,0.0,1.0,0.0,0.0,0.0,0.0
membr,0.0,0.0,0.8279475982526987,0.17205240174730135,0.0,0.0,0.0
démograph,0.0,0.0,0.0,0.18239600665536027,0.2839267886854242,0.0,0.5336772046592155
marginal,0.0,0.0,0.0,1.0,0.0,0.0,0.0
cation d,0.0,0.0,0.0,0.0,1.0,0.0,0.0
attentat,0.0,0.0,1.0,0.0,0.0,0.0,0.0
vis,0.0,0.438339438340012,0.0,0.0,0.0,0.5616605616599881,0.0
viv,0.0,0.0,0.0,0.0,0.6148007590133806,0.0,0.3851992409866194
vit,0.0,0.0,0.0,0.0,0.0,0.0,1.0
unis,0.0,0.0,0.0,1.0,0.0,0.0,0.0
produisent,0.0,0.0,0.0,0.0,0.0,1.0,0.0
heathrow,0.0,0.0,0.0,1.0,0.0,0.0,0.0
découvert,0.0,0.0,0.0,0.0,0.0,0.0,1.0
 tertiaris,0.0,0.0,0.0,0.0,0.0,1.0,0.0
migr,0.0,0.0,0.5167620605078765,0.4832379394921234,0.0,0.0,0.0
univers,0.64626462646286,0.0,0.0,0.0,0.0,0.35373537353713996,0.0
visit,0.0,0.0,0.0,1.0,0.0,0.0,0.0
soixantain,0.0,0.0,0.0,1.0,0.0,0.0,0.0
niveau,0.6165853658543796,0.0,0.0,0.38341463414562044,0.0,0.0,0.0
matériel,0.0,0.0,0.0,0.0,0.0,1.0,0.0
fer,0.0,0.0,0.0,0.0,0.0,1.0,0.0
densit,0.0,0.0,0.0,0.0,0.0,0.0,1.0
lunion,0.0,0.0,0.0,1.0,0.0,0.0,0.0
agriculture ,0.0,0.0,0.0,0.0,0.0,0.0,1.0
spécif,0.0,1.0,0.0,0.0,0.0,0.0,0.0
territoir,0.299164236431138,0.26289289546758565,0.14209758873286665,0.05315169300057715,0.20684649000258362,0.028071200537389967,0.007775895827859102
volont,0.0,0.0,0.0,1.0,0.0,0.0,0.0
sort,0.0,0.0,1.0,0.0,0.0,0.0,0.0
espace rural,0.0,0.0,0.0,0.0,0.0,0.0,1.0
trait,0.0,0.0,0.40722166499568263,0.0,0.5927783350043175,0.0,0.0
relat,0.0,0.0,0.0,0.0,1.0,0.0,0.0
ital,0.0,0.0,1.0,0.0,0.0,0.0,0.0
reconvert,0.0,0.0,0.0,0.0,0.0,1.0,0.0
le programm,0.0,0.0,1.0,0.0,0.0,0.0,0.0
voi,1.0,0.0,0.0,0.0,0.0,0.0,0.0
ne p,0.0,1.0,0.0,0.0,0.0,0.0,0.0
installent,0.0,0.0,0.0,0.0,0.0,0.0,1.0
confl,0.0,0.0,0.0,0.0,0.0,0.0,1.0
heur,0.0,0.0,0.0,0.0,1.0,0.0,0.0
augment,0.0,0.0,0.0,0.0,0.5705687365948107,0.16131678764422203,0.2681144757609673
de l,0.0,0.0,0.0,1.0,0.0,0.0,0.0
souh,0.0,0.0,1.0,0.0,0.0,0.0,0.0
uniqu,0.0,0.5623215984773376,0.4376784015226624,0.0,0.0,0.0,0.0
militair,0.0,0.0,0.2627858627861734,0.7372141372138266,0.0,0.0,0.0
install,1.0,0.0,0.0,0.0,0.0,0.0,0.0
taux,0.0,1.0,0.0,0.0,0.0,0.0,0.0
mondial,0.0,0.0,0.0,1.0,0.0,0.0,0.0
pierr,0.0,1.0,0.0,0.0,0.0,0.0,0.0
tertiair,0.0,0.0,0.0,0.27467482785039954,0.0,0.7253251721496005,0.0
févri,0.0,0.0,1.0,0.0,0.0,0.0,0.0
compétent,1.0,0.0,0.0,0.0,0.0,0.0,0.0
construir,0.0,0.0,1.0,0.0,0.0,0.0,0.0
océan,0.0,0.0,0.0,1.0,0.0,0.0,0.0
cation,0.0,0.0,0.0,0.0,1.0,0.0,0.0
minimum,0.0,0.0,0.0,1.0,0.0,0.0,0.0
chin,0.0,0.0,0.0,1.0,0.0,0.0,0.0
villes ,0.0,0.0,0.0,0.0,1.0,0.0,0.0
point,0.0,0.0,0.0,0.0,1.0,0.0,0.0
quotidien,0.0,0.0,0.0,0.0,1.0,0.0,0.0
rayon,0.0,0.0,0.0,1.0,0.0,0.0,0.0
régional,0.0,0.0,0.7451487710224922,0.0,0.0,0.0,0.25485122897750784
attract,0.0,0.0,0.5167620605078765,0.4832379394921234,0.0,0.0,0.0
occup,0.0,0.0,0.0,0.0,0.0,1.0,0.0
surfac,0.0,0.0,0.0,1.0,0.0,0.0,0.0
cours,0.0,0.0,0.0,1.0,0.0,0.0,0.0
cœur,0.0,0.0,1.0,0.0,0.0,0.0,0.0
mayott,0.0,1.0,0.0,0.0,0.0,0.0,0.0
rapport,0.0,0.5180202369324917,0.0,0.1885200229338253,0.29345974013368303,0.0,0.0
masse ,0.0,0.0,0.0,0.0,0.0,0.0,1.0
hôteli,0.0,1.0,0.0,0.0,0.0,0.0,0.0
organis,0.44569816643147153,0.0,0.0,0.5543018335685285,0.0,0.0,0.0
souvent,0.0,0.0,1.0,0.0,0.0,0.0,0.0
polit,0.41239397934653343,0.0,0.21938522353003814,0.10257647714110721,0.03991892460168134,0.22572539538063993,0.0
product,0.0,0.0,0.0,0.0,0.0,0.8783463232801999,0.12165367671980018
bourgogn,0.0,0.0,0.0,0.0,0.0,0.0,1.0
traduit,1.0,0.0,0.0,0.0,0.0,0.0,0.0
risqu,0.0,0.7198538367841611,0.2801461632158388,0.0,0.0,0.0,0.0
agricol,0.0,0.0,0.0,0.0,0.07889114519539218,0.6245365867549844,0.29657226804962344
londr,0.0,0.0,0.0,1.0,0.0,0.0,0.0
institu,0.0,0.0,0.7277752187928235,0.2722247812071765,0.0,0.0,0.0
entrer,0.0,0.0,1.0,0.0,0.0,0.0,0.0
mai,0.0,0.0,1.0,0.0,0.0,0.0,0.0
faibl,0.0,0.0,0.0,0.0,0.0,0.0,1.0
associ,0.0,0.0,0.6456834532377739,0.0,0.0,0.3543165467622262,0.0
mal,0.0,0.0,0.0,0.0,0.0,0.0,1.0
o,0.5081351689617589,0.0,0.0,0.0,0.4918648310382412,0.0,0.0
util,0.0,0.0,1.0,0.0,0.0,0.0,0.0
renforc,0.4372903620088697,0.0,0.29078699199593777,0.27192264599519245,0.0,0.0,0.0
nanci,0.0,0.0,0.37789473684294217,0.0,0.0,0.6221052631570578,0.0
uenc,0.0,0.0,0.0,0.09209133524869925,0.9079086647513008,0.0,0.0
favoris,0.0,0.48430493273614533,0.0,0.0,0.0,0.0,0.5156950672638547
européenne dan,0.0,0.0,0.0,1.0,0.0,0.0,0.0
uent,0.0,0.0,0.0,1.0,0.0,0.0,0.0
environ,0.0,0.0,0.14813923299814255,0.0,0.0,0.2438726649069375,0.6079881020949199
entrepris,0.2964187688047238,0.0,0.0,0.0921618482121282,0.28692752743897926,0.3244918555441688,0.0
exclus,0.0,0.0,0.0,1.0,0.0,0.0,0.0
croissanc,0.0,0.0,0.0,0.0,1.0,0.0,0.0
agroalimentair,0.0,0.0,0.0,0.4060150375940814,0.0,0.0,0.5939849624059186
périurbanis,0.0,0.0,0.0,0.0,1.0,0.0,0.0
constitu,0.0,0.0,0.0,0.0,1.0,0.0,0.0
redéploi,0.0,0.0,0.0,0.0,0.0,1.0,0.0
français,0.20291773711528105,0.1733623275795074,0.0,0.1261814409596146,0.1571362969192551,0.2665626875314196,0.0738395098949222
migratoir,0.0,0.0,1.0,0.0,0.0,0.0,0.0
souten,0.0,0.0,0.0,0.0,0.0,1.0,0.0
représent,0.0,0.0,0.5938144329899693,0.0,0.0,0.0,0.40618556701003067
engorg,0.0,0.0,0.0,0.0,1.0,0.0,0.0
recour,0.0,0.0,0.0,0.0,0.0,1.0,0.0
véget,0.0,1.0,0.0,0.0,0.0,0.0,0.0
pendulair,0.0,0.0,0.18632400183593742,0.0,0.8136759981640626,0.0,0.0
nombr,0.32018647709073017,0.23146590977701073,0.09826886801816023,0.19910329983697414,0.04768218472779183,0.08088704874440256,0.0224062118049304
vari,0.0,0.0,0.0,1.0,0.0,0.0,0.0
dynam,0.0,0.0,0.11740266342676627,0.21957270280120475,0.3417979018966421,0.0,0.32122673187538686
résident,0.0,0.0,0.0,0.0,0.4692810457518009,0.5307189542481991,0.0
état,0.2140869594998689,0.07316189137715753,0.512504619799335,0.10650148744766512,0.0,0.09374504187597343,0.0
extérieur,0.0,0.0,0.0,1.0,0.0,0.0,0.0
li,0.0,0.23459669998092708,0.0,0.0,0.2657992167267176,0.0,0.49960408329235534
territorial,0.3915906078598105,0.44607277938794904,0.0,0.16233661275224057,0.0,0.0,0.0
permanent,0.0,0.0,0.0,1.0,0.0,0.0,0.0
vast,0.0,0.0,0.0,1.0,0.0,0.0,0.0
francophon,0.0,0.0,0.0,1.0,0.0,0.0,0.0
mégalopol,0.0,0.0,1.0,0.0,0.0,0.0,0.0
répondr,1.0,0.0,0.0,0.0,0.0,0.0,0.0
présentent,0.0,1.0,0.0,0.0,0.0,0.0,0.0
gentr,0.0,0.0,0.0,0.0,1.0,0.0,0.0
étal,0.0,0.0,0.0,0.0,1.0,0.0,0.0
industriel,0.0,0.0,0.0,0.0,0.0,1.0,0.0
maximal,0.0,0.0,0.0,0.0,0.0,0.0,1.0
beauc,0.0,0.0,0.0,0.0,0.0,0.0,1.0
tourist,0.0,0.22586705164727655,0.0,0.3287938093600417,0.0,0.14470591052619933,0.30063322846648244
rôl,0.29534197057690464,0.2523247705144725,0.0,0.18365410512083782,0.0,0.0,0.2686791537877849
pollut,0.0,0.0,0.0,0.0,0.0,0.5461441213654966,0.4538558786345034
automobil,0.0,0.0,0.0,0.0,1.0,0.0,0.0
strateg,0.6165853658543796,0.0,0.0,0.38341463414562044,0.0,0.0,0.0
néfast,0.0,0.0,0.0,0.0,0.0,1.0,0.0
concentrent,0.37980141412919116,0.0,0.25255830076627855,0.0,0.36764028510453023,0.0,0.0
ces espac,0.0,0.0,0.0,0.0,0.0,1.0,0.0
not,0.0,0.5074946466807839,0.0,0.49250535331921613,0.0,0.0,0.0
favorisent,0.5081351689617589,0.0,0.0,0.0,0.4918648310382412,0.0,0.0
lois,1.0,0.0,0.0,0.0,0.0,0.0,0.0
tourism,0.0,0.12126974793358607,0.0,0.0,0.0,0.2330811311255698,0.6456491209408441
sentent,0.0,0.0,1.0,0.0,0.0,0.0,0.0
 les néorural,0.0,0.0,0.0,0.0,0.0,0.0,1.0
critiqu,0.0,0.0,0.0,0.0,0.0,0.0,1.0
développ,0.18590428757770727,0.23824038592835492,0.0618108164282832,0.05780093751420861,0.2699275308551175,0.10175541088853851,0.08456063080778989
caractérist,0.0,0.4688221709011062,0.0,0.0,0.5311778290988938,0.0,0.0
localis,0.0,0.6095076400684662,0.0,0.0,0.0,0.39049235993153375,0.0
drom,0.0,0.8047538200338539,0.0,0.1952461799661461,0.0,0.0,0.0
périurbain,0.0,0.0,0.0,0.0,1.0,0.0,0.0
choix,0.0,0.0,0.0,0.0,0.0,0.0,1.0
terr,0.0,0.4688221709011062,0.0,0.0,0.5311778290988938,0.0,0.0
espac,0.06506665589581286,0.011117911203104508,0.06922827957251103,0.024276451677655846,0.050386592644579065,0.34189899632906595,0.4380251126772708
dout,0.0,0.0,1.0,0.0,0.0,0.0,0.0
journ,0.0,0.0,1.0,0.0,0.0,0.0,0.0
continu,0.0,0.8047538200341047,0.0,0.1952461799658954,0.0,0.0,0.0
fractur,0.0,1.0,0.0,0.0,0.0,0.0,0.0
martinsaint,0.0,1.0,0.0,0.0,0.0,0.0,0.0
ex,0.2510076749672338,0.15317704388545467,0.1430689140863647,0.08919169643955155,0.06942013811546027,0.19627142113481313,0.09786311137112177
proteg,0.0,0.0,0.19591836734735943,0.0,0.0,0.0,0.8040816326526407
banan,0.0,1.0,0.0,0.0,0.0,0.0,0.0
commiss,0.0,0.0,1.0,0.0,0.0,0.0,0.0
orient,0.0,1.0,0.0,0.0,0.0,0.0,0.0
séism,0.0,1.0,0.0,0.0,0.0,0.0,0.0
variabl,0.0,0.0,1.0,0.0,0.0,0.0,0.0
coordon,0.0,0.0,1.0,0.0,0.0,0.0,0.0
respectu,0.0,0.0,0.0,0.0,0.0,0.0,1.0
profit,0.0,0.0,0.0,0.0,0.0,1.0,0.0
acteur,0.3658140680025844,0.07813311343792458,0.0,0.05686903826163951,0.0,0.0,0.49918378029785154
banlieu,0.0,0.0,0.0,0.0,1.0,0.0,0.0
re,0.0,0.0,0.0,1.0,0.0,0.0,0.0
adapt,0.0,0.0,0.5485103132163454,0.0,0.0,0.4514896867836546,0.0
réseau,0.283247527635759,0.0,0.18835241685436,0.528400055509881,0.0,0.0,0.0
ftn,0.0,0.0,0.0,1.0,0.0,0.0,0.0
franc,0.09468570495646224,0.020223631547873808,0.031481795302896465,0.5446300774441819,0.04582694833500744,0.1554797300057617,0.10767211240781653
appartient,0.0,1.0,0.0,0.0,0.0,0.0,0.0
migrat,0.0,0.0,0.0,0.0,1.0,0.0,0.0
pourr,0.0,0.0,1.0,0.0,0.0,0.0,0.0
million,0.0,0.0,0.11791044776141557,0.8820895522385843,0.0,0.0,0.0
essayent,1.0,0.0,0.0,0.0,0.0,0.0,0.0
ouest,0.0,0.0,0.0,0.0,0.0,1.0,0.0
que,0.0,1.0,0.0,0.0,0.0,0.0,0.0
ictuel,0.0,0.0,0.0,0.0,0.0,0.0,1.0
entrav,0.0,0.0,0.0,0.0,0.0,0.0,1.0
négat,0.0,0.0,0.0,0.0,0.0,1.0,0.0
fondateur,0.0,0.0,1.0,0.0,0.0,0.0,0.0
g,0.0,0.0,0.0,1.0,0.0,0.0,0.0
ouest ,0.0,0.0,0.0,0.0,1.0,0.0,0.0
croiss,0.6738589211618841,0.0,0.0,0.0,0.32614107883811605,0.0,0.0
loisir,0.0,0.0,0.0,0.0,0.0,1.0,0.0
mondialis,0.0,0.0,0.0,0.29985228951276255,0.7001477104872375,0.0,0.0
local,1.0,0.0,0.0,0.0,0.0,0.0,0.0
laménag,0.0,1.0,0.0,0.0,0.0,0.0,0.0
hambourg,0.0,0.0,0.0,1.0,0.0,0.0,0.0
veulent,0.0,1.0,0.0,0.0,0.0,0.0,0.0
récif,0.0,1.0,0.0,0.0,0.0,0.0,0.0
déplac,0.0,0.0,0.0,0.0,0.4692810457518009,0.5307189542481991,0.0
origin,0.0,0.0,0.0,1.0,0.0,0.0,0.0
major,1.0,0.0,0.0,0.0,0.0,0.0,0.0
réunion,0.0,0.7331786542928286,0.0,0.2668213457071715,0.0,0.0,0.0
redistribu,0.0,0.0,1.0,0.0,0.0,0.0,0.0
massif,0.0,0.0,0.0,0.0,0.0,0.0,1.0
comit,0.0,0.0,1.0,0.0,0.0,0.0,0.0
capac,0.0,0.0,0.0,1.0,0.0,0.0,0.0
agro,0.0,0.0,0.0,0.0,0.0,0.0,1.0
cris,0.0,0.0,0.7523051131603234,0.0,0.0,0.24769488683967658,0.0
lor,0.0,0.0,1.0,0.0,0.0,0.0,0.0
é,0.0,0.0,0.0,0.0,1.0,0.0,0.0
strasbourg,0.3338983050850371,0.0,0.6661016949149628,0.0,0.0,0.0,0.0
ouvr,0.0,0.0,1.0,0.0,0.0,0.0,0.0
system,0.0,0.0,0.0,0.0,0.0,0.0,1.0
construct,0.0,0.243109831345171,0.756890168654829,0.0,0.0,0.0,0.0
européen,0.02440497656942849,0.04170067735556491,0.8276631901533691,0.10623115592163741,0.0,0.0,0.0
aides pour,0.0,1.0,0.0,0.0,0.0,0.0,0.0
éven,0.0,0.0,0.5167620605078765,0.4832379394921234,0.0,0.0,0.0
saint,0.0,1.0,0.0,0.0,0.0,0.0,0.0
ze,0.0,0.0,0.0,1.0,0.0,0.0,0.0
échel,0.6165853658531679,0.0,0.0,0.38341463414683197,0.0,0.0,0.0
spécialis,0.0,0.28068803752942784,0.0,0.0,0.0,0.7193119624705723,0.0
équateur,0.0,1.0,0.0,0.0,0.0,0.0,0.0
travail,0.0,0.0,0.0,0.0,1.0,0.0,0.0
grâc,0.0,0.0,0.0,0.5462563341522679,0.0,0.32055153498995126,0.13319213085778084
provinc,1.0,0.0,0.0,0.0,0.0,0.0,0.0
parl,0.0,0.0,0.3099996925797693,0.43483342954483695,0.0,0.2551668778753939,0.0
qual,0.0,0.0,0.0,0.0,1.0,0.0,0.0
recherch,0.10947824168739079,0.0,0.0,0.0,0.21194556149285043,0.4793866181943463,0.1991895786254124
péripher,0.0,0.0,0.50750000000023,0.0,0.49249999999977007,0.0,0.0
guadeloup,0.0,1.0,0.0,0.0,0.0,0.0,0.0
 ex,0.0,1.0,0.0,0.0,0.0,0.0,0.0
miquelon,0.0,1.0,0.0,0.0,0.0,0.0,0.0
détermin,0.0,1.0,0.0,0.0,0.0,0.0,0.0
urbanis,0.0,0.0,0.40722166499568263,0.0,0.5927783350043175,0.0,0.0
ambassad,0.0,0.0,0.0,1.0,0.0,0.0,0.0
produit,0.0,0.0,0.0,0.16711636767997132,0.0,0.5883985758994278,0.24448505642060098
sert,0.0,1.0,0.0,0.0,0.0,0.0,0.0
ben,0.0,0.0,0.0,0.0,1.0,0.0,0.0
profond,0.0,0.0,1.0,0.0,0.0,0.0,0.0
en ,0.0,0.0,0.0,1.0,0.0,0.0,0.0
portuair,0.0,0.0,0.0,0.0,0.0,1.0,0.0
élément,0.0,1.0,0.0,0.0,0.0,0.0,0.0
ressourc,0.0,0.0,0.0,0.2547169811317414,0.0,0.0,0.7452830188682587
grec,0.0,0.0,1.0,0.0,0.0,0.0,0.0
danemark,0.0,0.0,0.0,1.0,0.0,0.0,0.0
nuisanc,0.0,0.0,0.0,0.0,0.0,0.0,1.0
pauvr,0.0,0.0,0.0,0.0,1.0,0.0,0.0
ultramarin,0.0,0.894938790425729,0.0,0.10506120957427098,0.0,0.0,0.0
havr,0.0,0.0,0.0,1.0,0.0,0.0,0.0
bordel,0.0,0.0,0.0,0.0,0.0,0.0,1.0
rend,0.0,0.0,0.0,0.0,0.0,0.0,1.0
pro,0.0,0.2199084481757775,0.0,0.0,0.49831471015118095,0.2817768416730417,0.0
modern,0.0,0.0,0.0,1.0,0.0,0.0,0.0
faun,0.0,0.0,1.0,0.0,0.0,0.0,0.0
individuel,0.0,0.0,0.0,0.0,1.0,0.0,0.0
exerc,0.6165853658543796,0.0,0.0,0.38341463414562044,0.0,0.0,0.0
socio,0.5081351689617589,0.0,0.0,0.0,0.4918648310382412,0.0,0.0
parc,0.0,0.0,0.0,0.0,0.0,0.1670533642688173,0.8329466357311827
eurosceptic,0.0,0.0,1.0,0.0,0.0,0.0,0.0
découpag,0.0,0.0,0.0,0.0,1.0,0.0,0.0
leçon,0.16931103853427565,0.14465051770416856,0.11258754339081276,0.07018906977222028,0.16388974912315066,0.18534606725332636,0.15402601422204573
mesur,0.7673179396096184,0.0,0.0,0.0,0.0,0.0,0.2326820603903817
rout,0.0,1.0,0.0,0.0,0.0,0.0,0.0
expos,0.0,1.0,0.0,0.0,0.0,0.0,0.0
zon,0.09169973066680999,0.07834346554790388,0.4878239479116564,0.3421328558736297,0.0,0.0,0.0
exposit,0.0,0.0,0.0,1.0,0.0,0.0,0.0
guyan,0.0,1.0,0.0,0.0,0.0,0.0,0.0
milli,0.0,0.0,1.0,0.0,0.0,0.0,0.0
transnational,0.0,0.0,0.0,1.0,0.0,0.0,0.0
mis,0.5518687177002,0.0,0.0,0.17158576428598177,0.0,0.15103370895322293,0.1255118090605954
=,0.0,0.0,0.0,0.0,1.0,0.0,0.0
divers,0.0,0.0,1.0,0.0,0.0,0.0,0.0
pratiqu,0.0,0.0,0.0,0.0,0.0,1.0,0.0
reçoivent,0.5392731535757571,0.46072684642424294,0.0,0.0,0.0,0.0,0.0
milieux,0.0,0.0,0.0,0.0,0.0,0.0,1.0
ensembl,0.20706132115336062,0.0,0.2753810464063755,0.12875806837503564,0.20043127884997353,0.0,0.18836828521525456
lyon,0.34060402684613844,0.0,0.0,0.0,0.6593959731538616,0.0,0.0
dépendent,0.0,1.0,0.0,0.0,0.0,0.0,0.0
paix,0.0,0.0,1.0,0.0,0.0,0.0,0.0
charl,0.0,0.0,0.0,1.0,0.0,0.0,0.0
compt,0.0,0.0,0.42228739002908033,0.0,0.0,0.0,0.5777126099709197
plac,0.5588625207160306,0.0,0.0,0.0,0.13524197699643165,0.3058955022875377,0.0
rom,0.0,0.0,1.0,0.0,0.0,0.0,0.0
siecl,0.0,0.0,0.0,0.0,0.0,0.0,1.0
deuxiem,0.0,0.0,0.0,0.0,1.0,0.0,0.0
montagn,0.0,0.48430493273614533,0.0,0.0,0.0,0.0,0.5156950672638547
agissent,0.0,0.0,0.0,0.0,0.0,0.0,1.0
entrain,0.0,0.0,0.0,0.0,0.49131188205091075,0.2778170252263734,0.23087109272271575
consist,1.0,0.0,0.0,0.0,0.0,0.0,0.0
dens,0.0,0.0,0.13342302431864067,0.12476741672788622,0.19421922998051416,0.0,0.547590328972959
primair,0.0,0.0,0.0,0.0,0.0,1.0,0.0
km,0.0,0.23538499737930849,0.0,0.5139735702267791,0.0,0.0,0.2506414323939122
souffrent,0.0,0.0,1.0,0.0,0.0,0.0,0.0
part,0.0,0.04983057014050905,0.0,0.07253817172357517,0.28229140720060564,0.3830985336703318,0.21224131726497833
subventions pour,1.0,0.0,0.0,0.0,0.0,0.0,0.0
corrig,1.0,0.0,0.0,0.0,0.0,0.0,0.0
nanc,0.0,0.0,0.0,0.0,0.0,1.0,0.0
prestat,0.0,1.0,0.0,0.0,0.0,0.0,0.0
puiss,0.0,0.0,0.0,1.0,0.0,0.0,0.0
vacanci,0.0,0.0,0.0,0.0,0.0,0.0,1.0
affair,0.4773936170220001,0.0,0.0,0.0,0.0,0.5226063829779999,0.0
commerc,0.0,0.0,0.0,0.0,0.0,1.0,0.0
conflictuel,0.0,0.0,0.0,0.0,0.0,0.0,1.0
présent,0.0,0.0,0.2627858627861734,0.7372141372138266,0.0,0.0,0.0
opposit,0.0,0.0,0.0,0.0,0.0,0.0,1.0
ajout,0.0,0.0,0.0,0.0,0.0,0.0,1.0
fond,0.0,0.0,1.0,0.0,0.0,0.0,0.0
façad,0.0,0.0,0.0,1.0,0.0,0.0,0.0
intensive ,0.0,0.0,0.0,0.0,0.0,1.0,0.0
prix,0.0,0.0,0.0,0.0,0.5155131264919516,0.0,0.48448687350804853
cour,0.0,0.0,1.0,0.0,0.0,0.0,0.0
intertropical,0.0,1.0,0.0,0.0,0.0,0.0,0.0
empir,0.0,0.0,0.0,1.0,0.0,0.0,0.0
économ,0.15485676180229338,0.09922615335086749,0.12871977028036455,0.26481241347817813,0.11242372054545574,0.16952286180605664,0.0704383187367842
impliqu,0.0,0.0,1.0,0.0,0.0,0.0,0.0
principal,0.0,0.0,0.40722166499568263,0.0,0.5927783350043175,0.0,0.0
consolid,0.0,0.0,1.0,0.0,0.0,0.0,0.0
northern,0.0,0.0,0.0,1.0,0.0,0.0,0.0
habiud,0.0,0.0,0.0,0.0,0.0,1.0,0.0
activ,0.08410076480488701,0.14370261116664648,0.0,0.05229683634238794,0.12211182475993805,0.3682629589791497,0.229525003946991
calédon,0.0,1.0,0.0,0.0,0.0,0.0,0.0
combl,0.0,1.0,0.0,0.0,0.0,0.0,0.0
rich,1.0,0.0,0.0,0.0,0.0,0.0,0.0
concentr,0.19497227892156113,0.0,0.06482580847409024,0.06062033672159049,0.37745864835581766,0.21343762010094544,0.08868530742599506
mangrov,0.0,1.0,0.0,0.0,0.0,0.0,0.0
sieg,0.0,0.0,0.2556675062977792,0.0,0.7443324937022208,0.0,0.0
contribu,0.0,0.0,0.0,1.0,0.0,0.0,0.0
les act,1.0,0.0,0.0,0.0,0.0,0.0,0.0
périod,0.0,0.0,1.0,0.0,0.0,0.0,0.0
hiv,0.0,0.0,0.0,0.0,0.0,0.0,1.0
valoris,0.0,0.0,1.0,0.0,0.0,0.0,0.0
sup,0.0,0.0,0.0,0.0,0.5155131264919516,0.0,0.48448687350804853
autor,0.0,1.0,0.0,0.0,0.0,0.0,0.0
acces,0.7673179396096184,0.0,0.0,0.0,0.0,0.0,0.2326820603903817
mainten,0.0,0.0,0.0,0.0,0.0,1.0,0.0
mieux,1.0,0.0,0.0,0.0,0.0,0.0,0.0
corallien,0.0,1.0,0.0,0.0,0.0,0.0,0.0
import,0.19272550609190756,0.16465461716103585,0.256315140081035,0.0,0.0,0.21097806098579394,0.1753266756802277
cultur,0.0,0.3941663410358744,0.0,0.14344661145257323,0.0,0.25252996779398296,0.20985707971756948
 ,0.0,0.0,0.0,1.0,0.0,0.0,0.0
du,0.0,0.0,0.0,0.0,1.0,0.0,0.0
poid,0.7628243814123871,0.0,0.0,0.237175618587613,0.0,0.0,0.0
nouveau,0.09716791143183724,0.04150759694865794,0.7107561440275092,0.0,0.0,0.10637044343382972,0.04419790415816588
démocrat,0.0,0.0,1.0,0.0,0.0,0.0,0.0
maintien,1.0,0.0,0.0,0.0,0.0,0.0,0.0
dexpatri,0.0,0.0,0.0,1.0,0.0,0.0,0.0
soutient,0.0,0.0,0.0,1.0,0.0,0.0,0.0
transfrontali,0.0,0.0,1.0,0.0,0.0,0.0,0.0
bas,0.0,0.39901206291702773,0.31056776470737485,0.2904201723755974,0.0,0.0,0.0
nant,0.0,0.0,0.0,0.0,1.0,0.0,0.0
mettr,0.0,0.0,1.0,0.0,0.0,0.0,0.0
integr,0.4438530410951865,0.12640162692067924,0.2951510070226875,0.0,0.0,0.0,0.13459432496144677
viennent,0.0,0.0,0.0,1.0,0.0,0.0,0.0
fait,0.0,0.0,0.0,0.0,0.0,0.0,1.0
fair,1.0,0.0,0.0,0.0,0.0,0.0,0.0
habit,0.38601041722180246,0.21985810720040672,0.0,0.16002330587382257,0.0,0.0,0.23410816970396822
national,0.3082210819720921,0.0,0.10247959832093921,0.0,0.0,0.16870596826590378,0.42059335144106497
terrain,0.0,0.0,1.0,0.0,0.0,0.0,0.0
militaire ,0.0,0.0,0.0,1.0,0.0,0.0,0.0
professionnel,0.0,0.0,0.0,0.0,0.0,0.0,1.0
répartit,0.34060402684613844,0.0,0.0,0.0,0.6593959731538616,0.0,0.0
rme,0.0,0.0,0.0,1.0,0.0,0.0,0.0
entrent,0.0,0.0,1.0,0.0,0.0,0.0,0.0
sport,0.0,0.0,0.0,0.0,0.0,0.0,1.0
concern,0.0,0.0,0.0,0.0,0.0,1.0,0.0
majeur,0.0,0.0,0.0,1.0,0.0,0.0,0.0
écol,1.0,0.0,0.0,0.0,0.0,0.0,0.0
particuli,0.0,1.0,0.0,0.0,0.0,0.0,0.0
innov,0.0,0.0,0.0,1.0,0.0,0.0,0.0
lux,0.0,0.0,1.0,0.0,0.0,0.0,0.0
révis,0.16357060425673467,0.13974619015866607,0.10877030029251354,0.10171399916618688,0.15833312185438347,0.17906197067674653,0.14880381359476877
lorganis,1.0,0.0,0.0,0.0,0.0,0.0,0.0
bien,0.0,0.0,0.0,0.0,0.0,1.0,0.0
rendu,0.0,0.0,0.0,0.0,0.0,0.0,1.0
progress,0.0,0.0,1.0,0.0,0.0,0.0,0.0
énerg,0.0,0.0,0.0,1.0,0.0,0.0,0.0
campagn,0.26403164911424737,0.0,0.0,0.0,0.2555774337479503,0.0,0.4803909171378025
secondair,0.0,0.0,0.0,0.0,0.0,1.0,0.0
accord,0.0,0.0,1.0,0.0,0.0,0.0,0.0
jou,0.0,0.0,0.0,1.0,0.0,0.0,0.0
effet,0.0,0.0,0.0,0.0,0.0,1.0,0.0
drapeau,0.0,0.0,1.0,0.0,0.0,0.0,0.0
isol,0.0,1.0,0.0,0.0,0.0,0.0,0.0
davantag,0.0,0.0,0.0,0.0,0.0,1.0,0.0
ue,0.0,0.028478221322187594,0.35465263778500694,0.5803789408700317,0.0,0.036490200022773735,0.0
bosn,0.0,0.0,1.0,0.0,0.0,0.0,0.0
industr,0.0,0.0,0.0,0.06388110851137337,0.0,0.5622961083473393,0.37382278314128725
élarg,0.0,0.0,1.0,0.0,0.0,0.0,0.0
popul,0.0,0.0,0.0,0.0,0.4065930320657954,0.40234589036587626,0.1910610775683283
plus attract,0.0,0.0,0.0,0.0,1.0,0.0,0.0
mond,0.0,0.0,0.0,1.0,0.0,0.0,0.0
ile,0.3691813804172785,0.6308186195827216,0.0,0.0,0.0,0.0,0.0
enseign,0.0,0.0,0.0,0.0,0.0,1.0,0.0
candidat,0.0,0.0,0.5167620605078765,0.4832379394921234,0.0,0.0,0.0
mondialisation sont,1.0,0.0,0.0,0.0,0.0,0.0,0.0
retenu,0.0,0.0,1.0,0.0,0.0,0.0,0.0
aux pay,0.0,0.0,0.0,1.0,0.0,0.0,0.0
conséquent,0.0,0.0,0.0,0.0,0.5701429327687166,0.42985706723128336,0.0
une polit,1.0,0.0,0.0,0.0,0.0,0.0,0.0
mont,0.0,0.0,1.0,0.0,0.0,0.0,0.0
cherch,0.0,0.0,1.0,0.0,0.0,0.0,0.0
uni,0.0,0.0,0.6814016172508378,0.31859838274916225,0.0,0.0,0.0
 la,0.0,0.0,1.0,0.0,0.0,0.0,0.0
com,0.0,0.40307253345879,0.1568640993157965,0.44006336722541345,0.0,0.0,0.0
con,0.1900878922570306,0.0,0.0,0.11820338869744489,0.0,0.0,0.6917087190455246
venu,0.0,0.0,0.0,0.0,0.0,0.0,1.0
réduir,0.6006097560976401,0.0,0.39939024390235983,0.0,0.0,0.0,0.0
ci,0.0,0.0,0.0,0.0,0.5155131264919516,0.0,0.48448687350804853
assur,0.0,1.0,0.0,0.0,0.0,0.0,0.0
réduit,1.0,0.0,0.0,0.0,0.0,0.0,0.0
wall,0.0,1.0,0.0,0.0,0.0,0.0,0.0
résid,0.0,0.0,0.0,1.0,0.0,0.0,0.0
arriv,0.0,0.0,0.0,0.0,0.0,0.0,1.0
exploit,0.0,0.0,0.0,0.4060150375940814,0.0,0.0,0.5939849624059186
éloign,0.0,1.0,0.0,0.0,0.0,0.0,0.0
besoin,1.0,0.0,0.0,0.0,0.0,0.0,0.0
cyclon,0.0,1.0,0.0,0.0,0.0,0.0,0.0
stabilis,0.0,0.0,1.0,0.0,0.0,0.0,0.0
exercent,0.0,0.0,0.0,1.0,0.0,0.0,0.0
retir,0.0,0.0,1.0,0.0,0.0,0.0,0.0
contraint,0.0,0.7897623400368504,0.0,0.0,0.0,0.0,0.21023765996314972
dun,0.0,0.0,0.0,0.0,1.0,0.0,0.0
union,0.05130870072825794,0.0,0.852974593324655,0.0957167059470871,0.0,0.0,0.0
revient,0.0,0.0,0.0,1.0,0.0,0.0,0.0
compos,0.0,0.0,1.0,0.0,0.0,0.0,0.0
milieu,0.0,0.0,0.0,0.0,0.0,0.0,1.0
cient,0.0,0.0,0.0,0.0,1.0,0.0,0.0
arti,0.0,0.0,0.0,0.0,1.0,0.0,0.0
voient,1.0,0.0,0.0,0.0,0.0,0.0,0.0
devis,0.0,0.0,1.0,0.0,0.0,0.0,0.0
pib,0.0,0.0,0.0,1.0,0.0,0.0,0.0
infrastructur,0.24594201771806407,0.210120028180748,0.0,0.30587092709876523,0.23806702700242274,0.0,0.0
firm,0.0,0.0,0.0,1.0,0.0,0.0,0.0
regroup,0.4773936170220001,0.0,0.0,0.0,0.0,0.5226063829779999,0.0
densite ,0.0,0.0,0.0,0.0,0.0,0.0,1.0
protect,0.0,0.0,0.0,0.0,0.0,0.0,1.0
nécessair,0.0,1.0,0.0,0.0,0.0,0.0,0.0
récréat,0.0,0.0,0.0,0.0,0.0,0.0,1.0
belgiqu,0.0,0.0,1.0,0.0,0.0,0.0,0.0
xxe,0.0,0.0,0.0,0.0,0.0,0.0,1.0
fourn,0.5392731535757571,0.46072684642424294,0.0,0.0,0.0,0.0,0.0
exceptionnel,0.0,0.0,0.0,0.0,1.0,0.0,0.0
rang,0.0,0.0,0.0,1.0,0.0,0.0,0.0
mécanis,0.0,0.0,0.0,0.0,0.0,0.5461441213654966,0.4538558786345034
disposent,0.0,1.0,0.0,0.0,0.0,0.0,0.0
emploi,1.0,0.0,0.0,0.0,0.0,0.0,0.0
ident,0.0,0.0,1.0,0.0,0.0,0.0,0.0
appui,0.0,0.0,0.0,1.0,0.0,0.0,0.0
servic,0.29385818771021943,0.06276427596235391,0.0,0.0,0.0,0.6433775363274267,0.0
histor,0.0,0.0,1.0,0.0,0.0,0.0,0.0
ais,0.0,0.0,0.0,0.0,1.0,0.0,0.0
n,0.21556886227566724,0.0,0.0,0.0,0.0,0.0,0.7844311377243327
élev,0.0,0.31271306109107133,0.0,0.0,0.3543054386740247,0.0,0.33298150023490397
tertiaris,0.0,0.0,0.0,0.0,0.0,1.0,0.0
 problem,0.0,0.0,0.0,0.0,0.0,1.0,0.0
développent,0.0,0.0,0.0,0.0,0.0,1.0,0.0
égal,0.0,0.0,0.0,1.0,0.0,0.0,0.0
sophi,0.0,0.0,0.0,0.0,0.0,1.0,0.0
environ ,0.0,0.0,0.0,0.0,0.0,0.0,1.0
aid,0.48108799710840355,0.13700549482879892,0.10663710257415403,0.0997191892738785,0.0,0.17555021621476508,0.0
vagu,0.0,0.0,1.0,0.0,0.0,0.0,0.0
puissanc,0.0,0.0,0.0,1.0,0.0,0.0,0.0
patrimoin,0.0,0.0,0.0,0.0,0.0,0.0,1.0
métropol,0.2203191016316161,0.18822914552518832,0.0,0.1370022261734308,0.21326454911731615,0.24118497755244858,0.0
parisien,0.0,0.0,0.0,0.0,0.4692810457518009,0.5307189542481991,0.0
portugal,0.0,0.0,0.0,1.0,0.0,0.0,0.0
marginalis,0.0,0.0,1.0,0.0,0.0,0.0,0.0
vol,0.0,1.0,0.0,0.0,0.0,0.0,0.0
centr,0.19065084677633035,0.08144106824261123,0.06338898712630668,0.0,0.36909252602538917,0.20870691583053552,0.08671965599882703
soin,1.0,0.0,0.0,0.0,0.0,0.0,0.0
it,0.0,0.0,0.0,0.18556701030912118,0.0,0.0,0.8144329896908787
attrait,0.0,0.0,0.0,0.0,0.0,0.0,1.0
in,0.0,0.0,0.0,0.14460749394482345,0.8553925060551765,0.0,0.0
situ,0.0,0.14033616476370359,0.6553770131117789,0.20428682212451754,0.0,0.0,0.0
exploitent,0.0,0.0,0.0,0.0,0.0,1.0,0.0
alor,1.0,0.0,0.0,0.0,0.0,0.0,0.0
marqu,0.44570204317852596,0.19039228583630982,0.14819027323994965,0.0,0.21571539774521464,0.0,0.0
pay,0.0,0.1423536262993135,0.4431991072600203,0.41444726644066626,0.0,0.0,0.0
tahit,0.0,1.0,0.0,0.0,0.0,0.0,0.0
complex,0.0,1.0,0.0,0.0,0.0,0.0,0.0
expatri,0.0,0.0,0.0,1.0,0.0,0.0,0.0
chômag,0.0,1.0,0.0,0.0,0.0,0.0,0.0
grand,0.21698713445717788,0.0,0.048096979042210324,0.3148373454073178,0.420078541093294,0.0,0.0
climat et,0.0,1.0,0.0,0.0,0.0,0.0,0.0
décentralisation ,1.0,0.0,0.0,0.0,0.0,0.0,0.0
territoires sont,0.0,0.0,0.0,1.0,0.0,0.0,0.0
peupl,0.2561051576736915,0.0,0.5109102891656291,0.0,0.0,0.0,0.23298455316067945
fragil,0.0,0.0,0.6159844054577538,0.38401559454224626,0.0,0.0,0.0
emplois,0.0,0.0,0.0,0.0,0.7614571092836636,0.0,0.23854289071633633
statut,0.0,1.0,0.0,0.0,0.0,0.0,0.0
nic,0.0,0.0,0.0,0.0,0.0,1.0,0.0
des état,0.0,0.0,1.0,0.0,0.0,0.0,0.0
schem,0.13616679599139841,0.14541725767637104,0.09054746332468916,0.08467333991274742,0.1647584692888946,0.22359422350213323,0.1548424503037662
connaissent,0.0,0.0,1.0,0.0,0.0,0.0,0.0
euroscept,0.0,0.0,1.0,0.0,0.0,0.0,0.0
protection d,0.0,0.0,0.0,0.0,0.0,0.0,1.0
moyen,0.0,1.0,0.0,0.0,0.0,0.0,0.0
chang,0.0,0.0,0.0,0.0,0.0,1.0,0.0
nit,0.0,0.0,1.0,0.0,0.0,0.0,0.0
euro,0.0,0.0,0.8424420154627219,0.157557984537278,0.0,0.0,0.0
distribu,0.0,0.0,0.0,1.0,0.0,0.0,0.0
pêch,0.0,0.0,0.0,0.0,0.0,0.0,1.0
attirent l,0.0,0.0,0.0,0.0,0.0,1.0,0.0
satisfair,0.0,0.0,0.0,0.0,0.0,1.0,0.0
possed,0.0,0.0,0.0,0.49073327961353674,0.5092667203864634,0.0,0.0
déploient,1.0,0.0,0.0,0.0,0.0,0.0,0.0
les sieg,0.0,0.0,0.0,0.0,0.0,1.0,0.0
qualit,0.0,0.29288220329829107,0.0,0.0,0.33183697910588733,0.37528081759582166,0.0
person,0.0,0.0,0.2651995524055887,0.3719927265947345,0.0,0.0,0.36280772099967695
performante ,0.0,0.0,0.0,1.0,0.0,0.0,0.0
 état,0.0,0.0,0.0,1.0,0.0,0.0,0.0
charbon,0.0,0.0,0.0,0.0,0.0,1.0,0.0
cialis,0.0,0.0,0.0,0.0,1.0,0.0,0.0
model,0.0,0.0,1.0,0.0,0.0,0.0,0.0
onu,0.0,0.0,0.0,1.0,0.0,0.0,0.0
distanc,0.0,1.0,0.0,0.0,0.0,0.0,0.0
ménag,0.0,0.0,0.0,0.0,1.0,0.0,0.0
remarqu,0.0,0.0,0.0,0.0,1.0,0.0,0.0
et reg,0.0,1.0,0.0,0.0,0.0,0.0,0.0
frontali,0.0,0.0,1.0,0.0,0.0,0.0,0.0
hopital,1.0,0.0,0.0,0.0,0.0,0.0,0.0
rest,0.44569816643147153,0.0,0.0,0.5543018335685285,0.0,0.0,0.0
le rest,0.0,0.0,0.0,1.0,0.0,0.0,0.0
jaun,0.0,0.0,1.0,0.0,0.0,0.0,0.0
paysages ,1.0,0.0,0.0,0.0,0.0,0.0,0.0
investisseur,0.0,0.0,0.0,1.0,0.0,0.0,0.0
citadin,0.0,0.0,0.0,0.0,0.0,0.0,1.0
continent,0.0,0.5623215984773376,0.4376784015226624,0.0,0.0,0.0,0.0
participent,0.0,0.0,0.0,1.0,0.0,0.0,0.0
taill,0.0,0.0,0.0,0.0,1.0,0.0,0.0
europ,0.06303968081193599,0.0,0.5449572407226324,0.3920030784654317,0.0,0.0,0.0
majoritair,0.0,1.0,0.0,0.0,0.0,0.0,0.0
défens,0.0,0.0,1.0,0.0,0.0,0.0,0.0
relief,0.0,1.0,0.0,0.0,0.0,0.0,0.0
exempl,0.0,0.0,0.0,0.0,0.0,0.0,1.0
maison,0.0,0.0,0.0,0.0,1.0,0.0,0.0
départ,0.3343105003582573,0.45698791875107614,0.0,0.08315444724134552,0.06472119538966428,0.0,0.06082593825965657
exod,0.0,0.0,0.0,0.0,0.0,0.0,1.0
monétair,0.0,0.0,1.0,0.0,0.0,0.0,0.0
roissy,0.0,0.0,0.0,1.0,0.0,0.0,0.0
investissements qu,1.0,0.0,0.0,0.0,0.0,0.0,0.0
accueillent,0.0,0.0,0.0,1.0,0.0,0.0,0.0
des projet,1.0,0.0,0.0,0.0,0.0,0.0,0.0
disposit,0.0,1.0,0.0,0.0,0.0,0.0,0.0
haut,0.0,0.0,0.0,0.36226034308775545,0.0,0.6377396569122447,0.0
temporair,0.0,0.0,0.0,0.0,0.0,1.0,0.0
modernis,0.0,0.0,0.0,0.0,0.0,1.0,0.0
caractéris,0.0,0.0,0.0,0.0,0.0,0.0,1.0
libr,0.0,0.0,1.0,0.0,0.0,0.0,0.0
cré,0.0,0.5623215984773376,0.4376784015226624,0.0,0.0,0.0,0.0
atténu,0.0,0.0,1.0,0.0,0.0,0.0,0.0
mod,0.0,0.0,0.0,0.0,0.0,0.0,1.0
veillent,0.0,0.0,0.0,0.0,0.0,0.0,1.0
supportent,0.0,0.0,0.0,0.0,0.0,0.0,1.0
bruit,0.0,0.0,0.0,0.0,0.0,0.0,1.0
délimit,0.0,0.0,1.0,0.0,0.0,0.0,0.0
collect,0.44936641039660885,0.2879364118802232,0.0,0.13971598044851882,0.0,0.12298119727464916,0.0
princip,0.0,1.0,0.0,0.0,0.0,0.0,0.0
fonci,0.0,0.0,0.0,0.0,1.0,0.0,0.0
t,0.0,0.4688221709011062,0.0,0.0,0.5311778290988938,0.0,0.0
martin,0.0,1.0,0.0,0.0,0.0,0.0,0.0
essor,0.0,0.0,0.0,0.0,0.30657557643016226,0.6934244235698378,0.0
déploi,0.0,0.0,0.0,1.0,0.0,0.0,0.0
délaiss,1.0,0.0,0.0,0.0,0.0,0.0,0.0
ayant adopt,0.0,0.0,1.0,0.0,0.0,0.0,0.0
euroreg,0.0,0.0,1.0,0.0,0.0,0.0,0.0
universel,0.0,0.0,0.0,1.0,0.0,0.0,0.0
écart,0.0,0.5623215984773376,0.4376784015226624,0.0,0.0,0.0,0.0
homm,0.6006097560974026,0.0,0.39939024390259736,0.0,0.0,0.0,0.0
export,0.0,0.0,0.0,1.0,0.0,0.0,0.0
rup,0.0,1.0,0.0,0.0,0.0,0.0,0.0
interd,0.0,0.0,0.0,0.0,0.0,1.0,0.0
transport,0.2129633912164629,0.0,0.14161524999682767,0.0,0.4122887327481935,0.2331326260385159,0.0
eurorégion,0.0,0.0,1.0,0.0,0.0,0.0,0.0
antipol,0.0,0.0,0.0,0.0,0.0,1.0,0.0
chimiqu,0.0,0.0,0.0,0.0,0.0,1.0,0.0
colonial,0.0,0.0,0.0,1.0,0.0,0.0,0.0
autour,0.0,0.48430493273614533,0.0,0.0,0.0,0.0,0.5156950672638547
definit,0.15194140568308323,0.1298108096375713,0.08660329577042686,0.09448255131887957,0.18909808300511247,0.1900930280415118,0.1579708265434147
saar,0.0,0.0,1.0,0.0,0.0,0.0,0.0
conteneur,0.0,0.0,0.0,1.0,0.0,0.0,0.0
banqu,0.0,0.0,0.0,0.0,0.0,1.0,0.0
préserv,0.0,0.0,0.0,0.0,0.0,0.37565217391266587,0.6243478260873341
compétit,0.5614219151705753,0.0,0.0,0.06982240907032604,0.0,0.36875567575909873,0.0
visent,0.0,0.0,0.0,0.0,0.0,0.0,1.0
condit,0.0,0.0,0.0,0.0,0.0,0.0,1.0
sépar,0.0,1.0,0.0,0.0,0.0,0.0,0.0
encadr,0.0,0.0,0.0,0.0,0.0,0.0,1.0
encourag,0.4773936170220001,0.0,0.0,0.0,0.0,0.5226063829779999,0.0
ancien,0.0,0.0,0.0,0.39113680154123054,0.6088631984587695,0.0,0.0
usag,0.0,0.0,0.0,0.0,0.0,0.0,1.0
étend,0.0,0.0,0.0,1.0,0.0,0.0,0.0
viabl,0.0,0.0,1.0,0.0,0.0,0.0,0.0
atout,0.0,0.04553873087209808,0.0,0.03314527879922969,0.0,0.0,0.9213159903286723
sanitair,0.0,0.0,0.0,0.0,0.0,1.0,0.0
barthélémy,0.0,1.0,0.0,0.0,0.0,0.0,0.0
littoral,0.0,1.0,0.0,0.0,0.0,0.0,0.0
post,1.0,0.0,0.0,0.0,0.0,0.0,0.0
réput,0.0,1.0,0.0,0.0,0.0,0.0,0.0
creus,0.0,0.0,0.0,0.0,0.0,0.0,1.0
marin,0.0,0.0,0.0,1.0,0.0,0.0,0.0
toulous,0.0,0.0,0.0,0.0,1.0,0.0,0.0
interven,0.0,0.0,0.0,1.0,0.0,0.0,0.0
concurrent,0.7628243814123871,0.0,0.0,0.237175618587613,0.0,0.0,0.0
chronolog,0.0,0.0,1.0,0.0,0.0,0.0,0.0
island,0.0,0.0,1.0,0.0,0.0,0.0,0.0
commun,0.33769091749918434,0.0,0.224555889302667,0.034998030215485865,0.21791876942096208,0.1848363935617007,0.0
décid,0.0,0.0,1.0,0.0,0.0,0.0,0.0
généralis,0.0,0.0,0.0,0.0,1.0,0.0,0.0
immobili,0.0,0.0,0.0,0.0,0.0,0.0,1.0
humanitair,0.0,0.0,0.0,1.0,0.0,0.0,0.0
agglomer,0.0,0.0,0.0,0.0,1.0,0.0,0.0
décis,0.6873508353225148,0.0,0.0,0.0,0.0,0.0,0.31264916467748516
royaum,0.0,0.0,0.5167620605078765,0.4832379394921234,0.0,0.0,0.0
allianc,0.0,0.0,0.0,1.0,0.0,0.0,0.0
champagn,0.0,0.0,0.0,0.0,0.0,0.0,1.0
vi,0.0,0.0,0.0,0.0,0.3472668810287259,0.0,0.6527331189712742
gagnent,0.0,0.0,1.0,0.0,0.0,0.0,0.0
pref,0.0,0.0,0.0,0.0,0.0,0.0,1.0
gard,0.0,0.0,0.0,1.0,0.0,0.0,0.0
sol,0.0,0.0,0.0,0.0,0.0,1.0,0.0
ultrapéripher,0.0,1.0,0.0,0.0,0.0,0.0,0.0
invers,0.0,0.0,0.0,0.0,0.0,0.0,1.0
lieu,0.1378914515343262,0.11780726185449084,0.13754147323102967,0.2143644796400312,0.2669524160247824,0.0,0.12544291771533975
étoil,0.0,0.0,1.0,0.0,0.0,0.0,0.0
volcan,0.0,1.0,0.0,0.0,0.0,0.0,0.0
durabl,0.0,1.0,0.0,0.0,0.0,0.0,0.0
allemagn,0.0,0.0,0.5167620605063495,0.48323793949365046,0.0,0.0,0.0
propriété est,0.0,0.0,0.0,0.0,0.0,0.0,1.0
log,0.0,0.0,0.0,0.0,1.0,0.0,0.0
culturel,0.43880857875297674,0.0,0.0,0.1364333634887126,0.42475805775831077,0.0,0.0
oubli,0.0,0.0,1.0,0.0,0.0,0.0,0.0
typ,0.0,0.438339438340012,0.0,0.0,0.0,0.5616605616599881,0.0
*,0.0,0.4843049327356058,0.0,0.0,0.0,0.0,0.5156950672643942
agricultur,0.0,0.0,0.0,0.03652002893567592,0.0,0.6429152726281516,0.3205646984361726
transform,0.25173634903369696,0.0,0.0,0.0,0.24367582554192682,0.2755776745681226,0.22901015085625367
continental,0.0,1.0,0.0,0.0,0.0,0.0,0.0
reli,1.0,0.0,0.0,0.0,0.0,0.0,0.0
interfac,0.0,0.0,0.0,1.0,0.0,0.0,0.0
suiv,0.0,0.0,1.0,0.0,0.0,0.0,0.0
technopôl,0.0,0.0,0.0,0.0,0.0,1.0,0.0
inégal,0.6528725682967166,0.06197558438178149,0.14471456251572787,0.0,0.1404372848057742,0.0,0.0
erasmus,0.0,0.0,1.0,0.0,0.0,0.0,0.0
conseil,0.0,0.0,1.0,0.0,0.0,0.0,0.0
essentiel,0.0,0.0,0.0,0.0,0.0,0.0,1.0
sud ,0.0,0.0,0.0,0.0,1.0,0.0,0.0
form,0.0,0.0,1.0,0.0,0.0,0.0,0.0
solidar,0.0,0.0,1.0,0.0,0.0,0.0,0.0
louvr,1.0,0.0,0.0,0.0,0.0,0.0,0.0
diffus,0.0,0.0,0.0,0.39113680154123054,0.6088631984587695,0.0,0.0
humain,0.0,1.0,0.0,0.0,0.0,0.0,0.0
pac,0.0,0.0,0.0,0.0,0.0,1.0,0.0
eau,0.0,0.0,0.0,0.0,0.0,1.0,0.0
meilleur,0.34749943533783256,0.0,0.0,0.0,0.33637260612675773,0.0,0.31612795853540976
fort,0.09714785660392045,0.16599612019703902,0.12920171791963828,0.06040998045130425,0.282111632847098,0.0,0.265132691981
supérieur,0.0,0.0,0.0,0.0,0.0,1.0,0.0
patrimonial,0.0,0.0,1.0,0.0,0.0,0.0,0.0
déplorent,0.0,0.0,0.0,0.0,0.0,0.0,1.0
ux,0.0,0.0,0.5167620605078765,0.4832379394921234,0.0,0.0,0.0
alimentair,0.0,0.0,0.0,0.0,0.0,0.0,1.0
possibl,1.0,0.0,0.0,0.0,0.0,0.0,0.0
apparten,0.0,0.0,0.9321547468717672,0.0,0.0678452531282328,0.0,0.0
métropolitain,0.0,1.0,0.0,0.0,0.0,0.0,0.0
cil,0.0,0.0,0.0,0.0,0.0,0.0,1.0
planet,0.0,0.0,0.0,0.0,1.0,0.0,0.0
industries traditionnel,0.0,0.0,0.0,0.0,0.0,1.0,0.0
monde ,0.0,0.0,0.0,1.0,0.0,0.0,0.0
vivr,0.0,0.0,0.0,0.0,0.0,0.0,1.0
limit,0.0,1.0,0.0,0.0,0.0,0.0,0.0
travailleur,0.0,0.0,1.0,0.0,0.0,0.0,0.0
il concil,0.0,0.0,0.0,0.0,0.0,0.0,1.0
caraïb,0.0,1.0,0.0,0.0,0.0,0.0,0.0
industrialo,0.0,0.0,0.0,0.0,0.0,1.0,0.0
sein,0.0,0.0,0.5167620605063495,0.48323793949365046,0.0,0.0,0.0
»,0.0,0.0,1.0,0.0,0.0,0.0,0.0
lieux,0.5505160528749753,0.0,0.1830396013370839,0.0,0.2664443457879408,0.0,0.0
utilis,0.0,0.0,0.0,0.0,0.0,0.7064595257568231,0.2935404742431768
nouvel,0.0,0.22131985423036482,0.08613124614728684,0.0,0.12537824254408722,0.5671706570782611,0.0
bruxel,0.0,0.0,1.0,0.0,0.0,0.0,0.0
principalement dan,0.0,1.0,0.0,0.0,0.0,0.0,0.0
circul,0.0,0.0,1.0,0.0,0.0,0.0,0.0
elles att,0.0,0.0,0.0,1.0,0.0,0.0,0.0
caracter,0.0,0.0,1.0,0.0,0.0,0.0,0.0
métropolis,0.0,0.0,0.0,0.0,1.0,0.0,0.0
ni,1.0,0.0,0.0,0.0,0.0,0.0,0.0
diplomat,0.0,0.0,0.0,1.0,0.0,0.0,0.0
création,0.0,0.0,0.37789473684294217,0.0,0.0,0.6221052631570578,0.0
%,0.0,0.30846349668307677,0.0,0.056128642592573816,0.174745330633181,0.2964342795422375,0.16422825054893095
égard,0.0,0.0,0.0,0.0,0.0,0.0,1.0
futun,0.0,1.0,0.0,0.0,0.0,0.0,0.0
seul,0.5392731535757571,0.46072684642424294,0.0,0.0,0.0,0.0,0.0
tir,0.0,1.0,0.0,0.0,0.0,0.0,0.0
rééquilibrag,1.0,0.0,0.0,0.0,0.0,0.0,0.0
paysag,0.0,1.0,0.0,0.0,0.0,0.0,0.0
spatial,0.22070067382519218,0.5656654226942484,0.0,0.0,0.21363390348055938,0.0,0.0
inser,0.0,0.0,0.0,0.0,0.0,0.0,1.0
nombre d,0.0,0.0,0.0,1.0,0.0,0.0,0.0
architectur,0.0,0.0,1.0,0.0,0.0,0.0,0.0
connect,0.0,0.0,0.0,1.0,0.0,0.0,0.0
couron,0.0,0.0,0.0,0.0,1.0,0.0,0.0
équip,1.0,0.0,0.0,0.0,0.0,0.0,0.0
handicap,0.0,1.0,0.0,0.0,0.0,0.0,0.0
gaull,0.0,0.0,0.0,1.0,0.0,0.0,0.0
symbol,0.0,0.0,1.0,0.0,0.0,0.0,0.0
axe,0.0,0.0,0.0,0.0,1.0,0.0,0.0
quarti,0.5945601519391766,0.0,0.09884185267073944,0.0,0.14388062790206452,0.16271736748801963,0.0
guyann,0.0,1.0,0.0,0.0,0.0,0.0,0.0
viticultur,0.0,0.0,0.0,0.0,0.0,0.0,1.0
érupt,0.0,1.0,0.0,0.0,0.0,0.0,0.0
aménag,0.5112998218612473,0.4227366689858559,0.03290336171466125,0.0,0.0,0.01805560517486897,0.015004542263366654
transfert,0.4773936170220001,0.0,0.0,0.0,0.0,0.5226063829779999,0.0
agriculture plus,0.0,0.0,0.0,0.0,0.0,1.0,0.0
européens ,0.0,0.0,1.0,0.0,0.0,0.0,0.0
lanc,0.0,1.0,0.0,0.0,0.0,0.0,0.0
fse,0.0,0.0,1.0,0.0,0.0,0.0,0.0
chrono,0.0,0.0,1.0,0.0,0.0,0.0,0.0
espagn,0.0,0.0,0.5167620605078765,0.4832379394921234,0.0,0.0,0.0
secteur,0.0,0.0,0.0,0.15920177383602194,0.0,0.8407982261639781,0.0
de zon,0.0,0.0,0.0,0.0,0.0,1.0,0.0
mass,0.0,0.0,0.0,0.0,0.0,0.0,1.0
rural,0.11996109636055331,0.0,0.0,0.0,0.11611997751131113,0.0,0.7639189261281356
