mot,8255,8254,8251,8250,8253,8252,8248,8249,8246,8247,8245
«,0.0,0.0,0.0,0.22398910020432802,0.0,0.20928138217875566,0.11221159380392025,0.07183769528871697,0.0,0.2495740620809383,0.13310616644334078
rom,0.0,0.0,1.0,0.0,0.0,0.0,0.0,0.0,0.0,0.0,0.0
intérieur,0.0,0.0,0.0,0.0,0.21808960270481953,0.0,0.7819103972951805,0.0,0.0,0.0,0.0
tourn,0.0,0.0,0.0,0.0,0.0,1.0,0.0,0.0,0.0,0.0,0.0
allong,1.0,0.0,0.0,0.0,0.0,0.0,0.0,0.0,0.0,0.0,0.0
global,0.0,0.0,0.0,0.0,0.0,1.0,0.0,0.0,0.0,0.0,0.0
pleins pouvoir,0.0,0.0,0.0,0.0,0.0,0.0,0.0,0.0,1.0,0.0,0.0
démocrat,0.0,0.0,0.0,0.0,0.0,0.0,0.0,0.0,1.0,0.0,0.0
invent,0.0,0.0,0.0,0.0,0.0,0.0,0.0,0.0,0.0,1.0,0.0
vill,0.0,0.0,0.12316110937635263,0.09290683299196559,0.38945539992029804,0.0,0.18617376998778903,0.11918817036415023,0.08911471735944441,0.0,0.0
essai,0.0,0.0,0.0,0.0,1.0,0.0,0.0,0.0,0.0,0.0,0.0
jawaharlal,0.0,0.0,0.0,0.0,0.0,0.0,0.0,1.0,0.0,0.0,0.0
maastricht,0.0,0.0,1.0,0.0,0.0,0.0,0.0,0.0,0.0,0.0,0.0
commissair,0.0,0.0,0.0,0.0,1.0,0.0,0.0,0.0,0.0,0.0,0.0
sfio,0.0,0.0,0.0,0.0,1.0,0.0,0.0,0.0,0.0,0.0,0.0
préfet,0.0,0.0,0.0,0.0,0.0,0.0,1.0,0.0,0.0,0.0,0.0
colon,0.0,0.0,0.0,0.0,0.0,0.0,0.11643894303282866,0.7454403797143081,0.0,0.0,0.13812067725286314
xant,0.0,0.0,0.0,0.0,1.0,0.0,0.0,0.0,0.0,0.0,0.0
secteur,1.0,0.0,0.0,0.0,0.0,0.0,0.0,0.0,0.0,0.0,0.0
consider,0.0,0.0,0.3600209408961982,0.0,0.37948153229599263,0.0,0.0,0.0,0.2604975268078092,0.0,0.0
légal,0.0,0.0,0.0,0.0,0.5929592959295749,0.0,0.0,0.0,0.4070407040704251,0.0,0.0
simon,1.0,0.0,0.0,0.0,0.0,0.0,0.0,0.0,0.0,0.0,0.0
interdit,0.0,0.0,0.0,0.0,0.0,0.0,0.0,0.0,1.0,0.0,0.0
anglais,0.0,0.0,0.0,0.0,0.0,0.0,0.0,1.0,0.0,0.0,0.0
pouvoir,0.0,0.35599181258476614,0.0,0.040901186977882684,0.2857555901018258,0.0,0.08196090568824352,0.0,0.235390504647282,0.0,0.0
paris,0.0,0.0,0.0,0.0,0.25851703406784876,0.0,0.7414829659321513,0.0,0.0,0.0,0.0
printemp,0.0,0.0,0.0,0.0,0.0,0.0,0.0,0.0,0.0,1.0,0.0
tu,0.0,0.0,0.0,0.0,0.0,0.3178082191785086,0.0,0.0,0.0,0.6821917808214913,0.0
leader,0.0,0.0,0.0,0.0,0.0,0.0,0.0,1.0,0.0,0.0,0.0
pourcentag,1.0,0.0,0.0,0.0,0.0,0.0,0.0,0.0,0.0,0.0,0.0
totalitaire rac,0.0,0.0,0.0,0.0,0.0,0.0,0.0,0.0,1.0,0.0,0.0
ils jouent,0.0,0.0,0.0,0.0,0.0,1.0,0.0,0.0,0.0,0.0,0.0
gorbatchev,0.0,0.0,0.0,1.0,0.0,0.0,0.0,0.0,0.0,0.0,0.0
nord,0.0,0.0,0.0,0.0,0.0,0.5117647058829651,0.0,0.0,0.0,0.0,0.48823529411703487
fronti,0.30108827085819995,0.0,0.0,0.0,0.0,0.35767835550240795,0.0,0.0,0.0,0.0,0.3412333736393922
 il,0.0,1.0,0.0,0.0,0.0,0.0,0.0,0.0,0.0,0.0,0.0
autoris,1.0,0.0,0.0,0.0,0.0,0.0,0.0,0.0,0.0,0.0,0.0
karamchand,0.0,0.0,0.0,0.0,0.0,0.0,0.0,1.0,0.0,0.0,0.0
euroseptic,0.0,0.0,1.0,0.0,0.0,0.0,0.0,0.0,0.0,0.0,0.0
avril,0.0,0.0,0.0,0.0,0.5403726708074907,0.0,0.0,0.0,0.0,0.0,0.4596273291925093
septennat,0.0,1.0,0.0,0.0,0.0,0.0,0.0,0.0,0.0,0.0,0.0
turqu,0.0,0.0,1.0,0.0,0.0,0.0,0.0,0.0,0.0,0.0,0.0
angleterr,0.0,0.0,0.0,0.0,0.0,0.0,0.0,0.0,0.0,1.0,0.0
gouvern,0.06715206587288886,0.11146790732440666,0.0,0.0,0.44737795236957806,0.0,0.12831770726898617,0.0,0.24568436716414022,0.0,0.0
estaing,0.0,1.0,0.0,0.0,0.0,0.0,0.0,0.0,0.0,0.0,0.0
chanceli,0.0,0.0,0.4086429112959715,0.0,0.0,0.0,0.0,0.0,0.5913570887040285,0.0,0.0
élect,0.0,0.5326126073190228,0.0,0.0,0.32064718454178015,0.0,0.0,0.0,0.14674020813919694,0.0,0.0
palestinien,0.0,0.0,0.0,0.0,0.0,1.0,0.0,0.0,0.0,0.0,0.0
jack,1.0,0.0,0.0,0.0,0.0,0.0,0.0,0.0,0.0,0.0,0.0
sud,0.0,0.0,0.0,0.0,0.0,1.0,0.0,0.0,0.0,0.0,0.0
condit,0.2565424675356213,0.0,0.0,0.0,0.0,0.0,0.0,0.0,0.2346483051855651,0.2180610974050252,0.2907481298737885
pun,0.0,0.0,0.0,0.0,1.0,0.0,0.0,0.0,0.0,0.0,0.0
appar,1.0,0.0,0.0,0.0,0.0,0.0,0.0,0.0,0.0,0.0,0.0
défait,0.0,0.0,0.0,0.0,0.0,0.0,0.8180535966154121,0.0,0.0,0.18194640338458795,0.0
ramen,0.0,1.0,0.0,0.0,0.0,0.0,0.0,0.0,0.0,0.0,0.0
quantit,1.0,0.0,0.0,0.0,0.0,0.0,0.0,0.0,0.0,0.0,0.0
région,0.0,0.0,0.0,0.0,0.0,0.5542427497323067,0.4457572502676934,0.0,0.0,0.0,0.0
juin,0.0,0.0,0.0,0.0,0.22191902713909392,0.0,0.636511938306883,0.0,0.0,0.14156903455402306,0.0
veut,0.0,0.0,0.0,0.0,0.0,0.5829145728640602,0.0,0.0,0.0,0.41708542713593977,0.0
sant,0.42873696407868717,0.0,0.0,0.0,0.5712630359213129,0.0,0.0,0.0,0.0,0.0,0.0
chute d,0.0,0.0,0.0,0.0,0.0,1.0,0.0,0.0,0.0,0.0,0.0
augment,0.24653696212972945,0.0,0.0,0.23509230624793795,0.0,0.29287402971154136,0.0,0.0,0.22549670191079133,0.0,0.0
yalt,0.0,0.0,0.0,1.0,0.0,0.0,0.0,0.0,0.0,0.0,0.0
communistes appellent,0.0,0.0,0.0,0.0,1.0,0.0,0.0,0.0,0.0,0.0,0.0
dif,0.0,0.0,0.0,0.0,0.0,0.0,0.0,0.7278865631329331,0.27211343686706696,0.0,0.0
tournées ver,0.0,0.0,0.0,0.0,0.0,0.0,0.0,0.0,0.0,1.0,0.0
parvient,0.0,0.0,0.0,1.0,0.0,0.0,0.0,0.0,0.0,0.0,0.0
affaibl,0.0,0.0,0.0,0.0,0.0,0.0,0.0,1.0,0.0,0.0,0.0
qui partagent,0.0,0.0,0.0,0.0,0.0,1.0,0.0,0.0,0.0,0.0,0.0
vainqueur,0.0,0.0,0.0,0.0,0.0,0.0,1.0,0.0,0.0,0.0,0.0
pouss,0.5222868217055087,0.0,0.0,0.0,0.0,0.0,0.0,0.0,0.47771317829449134,0.0,0.0
françois,0.0,1.0,0.0,0.0,0.0,0.0,0.0,0.0,0.0,0.0,0.0
reich,0.0,0.0,0.0,0.0,0.0,0.0,0.0,0.0,1.0,0.0,0.0
progress,1.0,0.0,0.0,0.0,0.0,0.0,0.0,0.0,0.0,0.0,0.0
harry,0.0,0.0,0.0,1.0,0.0,0.0,0.0,0.0,0.0,0.0,0.0
radio,0.5222868217055087,0.0,0.0,0.0,0.0,0.0,0.0,0.0,0.47771317829449134,0.0,0.0
culturelles de ,1.0,0.0,0.0,0.0,0.0,0.0,0.0,0.0,0.0,0.0,0.0
appartiennent,0.0,1.0,0.0,0.0,0.0,0.0,0.0,0.0,0.0,0.0,0.0
servic,0.0,0.3433239159806342,0.26145436678525225,0.0,0.0,0.0,0.39522171723411365,0.0,0.0,0.0,0.0
renseign,0.0,0.0,0.0,0.0,0.0,0.0,1.0,0.0,0.0,0.0,0.0
poilu,0.0,0.0,0.0,0.0,0.0,0.0,0.0,0.0,0.0,0.0,1.0
cher,0.0,0.0,0.0,1.0,0.0,0.0,0.0,0.0,0.0,0.0,0.0
rment,0.0,0.0,0.0,0.0,0.0,1.0,0.0,0.0,0.0,0.0,0.0
nait,0.0,0.0,0.0,0.0,0.0,0.0,1.0,0.0,0.0,0.0,0.0
totalitar,0.0,0.0,0.0,0.0,0.0,0.0,0.0,0.0,1.0,0.0,0.0
scen,0.0,0.0,0.0,0.0,0.0,0.49266503667552153,0.0,0.5073349633244786,0.0,0.0,0.0
direct,0.0,0.6351351351348038,0.0,0.36486486486519626,0.0,0.0,0.0,0.0,0.0,0.0,0.0
transform,1.0,0.0,0.0,0.0,0.0,0.0,0.0,0.0,0.0,0.0,0.0
sign,0.0,0.0,0.0,0.4217681017469397,0.0,0.0,0.0,0.0,0.20227653859247505,0.37595535966058524,0.0
chef,0.0,0.13991468831011522,0.0,0.0,0.11230989845433573,0.10013171669445735,0.2415968745821559,0.10311330627315785,0.23128754598226464,0.07164596970351333,0.0
éclat,0.0,0.0,0.0,0.0,0.0,1.0,0.0,0.0,0.0,0.0,0.0
second,0.0,0.0,0.0,0.0,0.02263944956017415,0.0,0.47077770112582346,0.0,0.015540995059847839,0.49104185425415453,0.0
droit,0.14512377822303535,0.24089569920511042,0.0,0.0,0.19336762882147002,0.0,0.0,0.08876677749847933,0.33184611625190497,0.0,0.0
à un,0.0,0.0,0.0,1.0,0.0,0.0,0.0,0.0,0.0,0.0,0.0
pass,0.0,0.0,1.0,0.0,0.0,0.0,0.0,0.0,0.0,0.0,0.0
relanc,0.0,0.0,0.0,0.0,1.0,0.0,0.0,0.0,0.0,0.0,0.0
allianc,0.0,0.0,0.0,1.0,0.0,0.0,0.0,0.0,0.0,0.0,0.0
fonction,0.0,0.5547226386806596,0.0,0.0,0.4452773613193403,0.0,0.0,0.0,0.0,0.0,0.0
suppression d,0.0,0.0,0.0,0.0,0.0,0.0,0.0,0.0,1.0,0.0,0.0
afghanistan,0.0,0.0,0.0,0.0,0.0,1.0,0.0,0.0,0.0,0.0,0.0
nécess,0.0,0.0,1.0,0.0,0.0,0.0,0.0,0.0,0.0,0.0,0.0
stalinien,0.0,0.0,0.0,0.0,0.0,0.0,0.0,0.0,1.0,0.0,0.0
chent,0.0,0.0,0.0,0.0,0.0,0.0,0.0,1.0,0.0,0.0,0.0
agissent,0.0,0.0,0.0,0.0,0.0,0.0,1.0,0.0,0.0,0.0,0.0
stalin,0.0,0.0,0.0,0.1480362537769391,0.0,0.0,0.0,0.0,0.8519637462230608,0.0,0.0
blum,0.0,0.0,0.0,0.0,0.0,0.0,0.0,0.0,1.0,0.0,0.0
ni,0.0,0.0,0.0,0.0,1.0,0.0,0.0,0.0,0.0,0.0,0.0
+,1.0,0.0,0.0,0.0,0.0,0.0,0.0,0.0,0.0,0.0,0.0
urss,0.0,0.0,0.04464418442510834,0.43780660548528627,0.0,0.12586432717451718,0.0,0.043204049443630765,0.25842273730353643,0.09005809616792096,0.0
usin,0.0,0.0,0.0,0.0,0.0,0.0,0.0,0.0,0.0,0.42857142857107344,0.5714285714289264
marchandis,0.0,0.0,1.0,0.0,0.0,0.0,0.0,0.0,0.0,0.0,0.0
matériels tres,0.0,0.0,0.0,0.0,1.0,0.0,0.0,0.0,0.0,0.0,0.0
militair,0.0,0.15500732084250227,0.0,0.0,0.0,0.11093295009717846,0.17843866003989237,0.0,0.0,0.23812331529433714,0.3174977537260898
ministr,0.3753298347214162,0.3115111254508187,0.11861385161378944,0.0,0.0,0.0,0.0,0.11478759833586556,0.0,0.07975758987811012,0.0
capital,0.0,0.0,0.4411670478112584,0.0,0.23250695762980442,0.0,0.16672010527700526,0.0,0.15960588928193206,0.0,0.0
international,0.0,0.0,0.0,0.0,0.0,0.3642597224502441,0.0,0.3751061657975806,0.0,0.2606341117521754,0.0
euromissil,0.0,0.0,0.0,1.0,0.0,0.0,0.0,0.0,0.0,0.0,0.0
priv,0.0,0.0,0.0,0.0,1.0,0.0,0.0,0.0,0.0,0.0,0.0
centr,0.0,0.0,0.0,0.0,0.0,0.0,0.0,0.0,0.0,1.0,0.0
public,1.0,0.0,0.0,0.0,0.0,0.0,0.0,0.0,0.0,0.0,0.0
dégât,0.0,0.0,0.0,0.0,1.0,0.0,0.0,0.0,0.0,0.0,0.0
irak,0.0,0.0,0.0,0.0,0.0,1.0,0.0,0.0,0.0,0.0,0.0
patr,0.0,0.0,0.0,0.0,0.0,0.0,1.0,0.0,0.0,0.0,0.0
iran,0.0,0.0,0.0,0.0,0.0,1.0,0.0,0.0,0.0,0.0,0.0
théâtr,0.0,0.0,0.0,1.0,0.0,0.0,0.0,0.0,0.0,0.0,0.0
fémin,1.0,0.0,0.0,0.0,0.0,0.0,0.0,0.0,0.0,0.0,0.0
himml,0.0,0.0,0.0,0.0,0.0,0.0,0.0,0.0,0.0,1.0,0.0
richess,0.0,0.0,0.0,0.0,1.0,0.0,0.0,0.0,0.0,0.0,0.0
men,0.0,0.23201806551064028,0.17669068065810298,0.13328697380417545,0.0,0.16604666375137025,0.133545281892608,0.0,0.0,0.0,0.15841233438310304
commercial,0.0,0.0,1.0,0.0,0.0,0.0,0.0,0.0,0.0,0.0,0.0
accus,0.0,0.0,0.0,0.0,0.5929592959297788,0.0,0.0,0.0,0.4070407040702212,0.0,0.0
industr,0.0,0.0,0.0,0.0,0.0,0.0,0.0,0.0,0.0,0.0,1.0
pôl,0.0,0.0,0.0,0.0,0.0,1.0,0.0,0.0,0.0,0.0,0.0
meurt,0.0,0.0,0.0,0.0,0.0,0.0,1.0,0.0,0.0,0.0,0.0
déput,0.0,1.0,0.0,0.0,0.0,0.0,0.0,0.0,0.0,0.0,0.0
interdir,0.0,0.0,0.0,0.0,0.0,0.0,0.0,0.0,0.0,0.0,1.0
comme le tourn,0.0,0.0,0.0,0.0,0.0,0.0,0.0,0.0,0.0,1.0,0.0
lev,0.0,0.0,0.0,0.0,0.0,0.0,0.0,0.0,0.0,1.0,0.0
législations pour,0.0,1.0,0.0,0.0,0.0,0.0,0.0,0.0,0.0,0.0,0.0
re,0.0,0.41326902268090365,0.0,0.0,0.0,0.0,0.0,0.30456798941976315,0.0,0.0,0.28216298789933325
convaincu,0.0,0.0,1.0,0.0,0.0,0.0,0.0,0.0,0.0,0.0,0.0
convaincr,0.0,0.0,0.0,0.0,0.0,0.0,0.0,0.0,0.0,0.0,1.0
prôn,0.0,0.0,0.0,0.0,0.0,0.0,0.0,1.0,0.0,0.0,0.0
societ,0.6903532774467768,0.0818528537233469,0.0,0.04702185213894138,0.0,0.029289515127534752,0.0,0.0,0.06765388930191897,0.0,0.08382861226148114
consomm,0.7238868664235971,0.0,0.0,0.27611313357640294,0.0,0.0,0.0,0.0,0.0,0.0,0.0
anné,0.843321592939535,0.02916368864469528,0.0,0.0,0.0,0.041742725433621425,0.0,0.021492842499925544,0.06427915048222263,0.0,0.0
traumat,0.0,0.0,0.0,0.0,0.0,0.0,0.6277056277060133,0.0,0.0,0.0,0.3722943722939867
divisée en,0.0,0.0,0.0,1.0,0.0,0.0,0.0,0.0,0.0,0.0,0.0
naturel,0.0,0.0,0.0,0.0,0.0,1.0,0.0,0.0,0.0,0.0,0.0
dé,0.0,0.0,0.6548672566376089,0.0,0.34513274336239114,0.0,0.0,0.0,0.0,0.0,0.0
travaill,0.0,0.0,0.0,0.0,0.0,0.0,0.0,0.0,0.0,0.0,1.0
souhaitent,0.0,0.0,0.0,0.0,0.0,0.0,0.0,1.0,0.0,0.0,0.0
rajeun,1.0,0.0,0.0,0.0,0.0,0.0,0.0,0.0,0.0,0.0,0.0
gorbatchev ,0.0,0.0,0.0,1.0,0.0,0.0,0.0,0.0,0.0,0.0,0.0
un de,0.0,0.0,1.0,0.0,0.0,0.0,0.0,0.0,0.0,0.0,0.0
franklin,0.0,0.0,0.0,0.0,0.0,0.0,0.0,0.0,0.0,1.0,0.0
perso,0.10234364020417544,0.1698835509111734,0.09702964350131556,0.09759267818315406,0.06818299273069169,0.060789656169433555,0.07333635846024825,0.09389965500122836,0.0702069776725468,0.10874011771692851,0.05799472944910422
social,0.3308455479197689,0.0,0.0,0.045069592463128444,0.44082933817250974,0.0,0.0,0.0,0.129690051781603,0.0,0.05356546966298986
action,0.0,0.2566307317305169,0.0,0.0,0.41199636391407857,0.18366102969672007,0.14771187465868452,0.0,0.0,0.0,0.0
opinion,0.0,0.0,0.0,0.0,0.0,0.0,0.0,0.0,0.0,0.0,1.0
chang,0.0,1.0,0.0,0.0,0.0,0.0,0.0,0.0,0.0,0.0,0.0
envoi,0.0,0.0,0.0,0.0,0.0,0.0,0.5109004739335719,0.0,0.4890995260664282,0.0,0.0
république qu,0.0,1.0,0.0,0.0,0.0,0.0,0.0,0.0,0.0,0.0,0.0
membr,0.0,0.0,1.0,0.0,0.0,0.0,0.0,0.0,0.0,0.0,0.0
montagn,0.0,0.0,0.0,0.0,0.0,0.0,1.0,0.0,0.0,0.0,0.0
churchill,0.0,0.0,0.0,0.0,0.0,0.0,0.0,0.0,0.0,1.0,0.0
algérien,0.0,1.0,0.0,0.0,0.0,0.0,0.0,0.0,0.0,0.0,0.0
ciel,0.0,0.0,1.0,0.0,0.0,0.0,0.0,0.0,0.0,0.0,0.0
activ,0.7855589386693715,0.0,0.0,0.0,0.0,0.0,0.21444106133062846,0.0,0.0,0.0,0.0
désindustrialis,1.0,0.0,0.0,0.0,0.0,0.0,0.0,0.0,0.0,0.0,0.0
leurop,0.0,0.0,1.0,0.0,0.0,0.0,0.0,0.0,0.0,0.0,0.0
négoci,0.0,0.0,0.0,0.2062436028660154,0.0,0.0,0.0,0.7937563971339846,0.0,0.0,0.0
attentat,0.0,0.0,0.0,0.0,0.0,0.6770428015565022,0.0,0.0,0.0,0.0,0.3229571984434978
vis,0.0,0.0,0.0,0.2788775589769707,0.38967485943483154,0.0,0.0,0.0,0.0,0.0,0.33144758158819776
famill,0.30414931545694324,0.0,0.0,0.0,0.40525841221713244,0.0,0.2905922723259245,0.0,0.0,0.0,0.0
moral,0.0,0.0,0.0,0.0,0.0,0.0,0.0,1.0,0.0,0.0,0.0
têt,0.0,0.0,0.0,0.0,0.0,0.0,1.0,0.0,0.0,0.0,0.0
vit,0.0,0.0,0.0,1.0,0.0,0.0,0.0,0.0,0.0,0.0,0.0
pour l,1.0,0.0,0.0,0.0,0.0,0.0,0.0,0.0,0.0,0.0,0.0
combat,0.0,0.0,0.0,0.0,0.0,0.0,0.2521739130431388,0.0,0.0,0.44869565217437696,0.29913043478248424
unis,0.0,0.0,0.0,0.1835360182080982,0.0,0.5487505816686538,0.0,0.047090879113350734,0.03520895043168015,0.09816012560015451,0.08725344497806273
encadr,0.0,0.0,0.0,1.0,0.0,0.0,0.0,0.0,0.0,0.0,0.0
total,0.0,0.0,0.0,0.0,0.0,0.0,0.0,0.0,0.0,0.7500000000002719,0.24999999999972816
ve,0.0,1.0,0.0,0.0,0.0,0.0,0.0,0.0,0.0,0.0,0.0
prem,0.0,0.0,0.0,0.0,0.0,0.0,0.0,0.0,0.0,0.0,1.0
rédig,0.0,0.0,0.0,0.0,1.0,0.0,0.0,0.0,0.0,0.0,0.0
et en,0.0,0.0,0.0,0.0,0.0,0.0,0.0,0.0,1.0,0.0,0.0
il doit,0.0,1.0,0.0,0.0,0.0,0.0,0.0,0.0,0.0,0.0,0.0
arrêt,0.0,0.0,0.0,0.0,0.0,0.0,0.41629270189453865,0.0,0.3985288203667407,0.18517847773872073,0.0
commun,0.0,0.0,0.6641533159983162,0.1252513506961865,0.0,0.0,0.0,0.0803411269352384,0.0,0.05582323130149328,0.07443097506876564
la révolu,0.0,0.0,0.0,0.0,0.0,0.0,0.0,0.0,0.0,0.0,1.0
liber,0.07704888964119715,0.0,0.0,0.0,0.6159746366453013,0.0,0.1472290798185422,0.09425583770001776,0.0,0.06549155619494161,0.0
naissanc,0.0,0.0,0.42632126009463533,0.0,0.0,0.0,0.16110977852364727,0.41256896138171745,0.0,0.0,0.0
univers,1.0,0.0,0.0,0.0,0.0,0.0,0.0,0.0,0.0,0.0,0.0
processus,0.0,0.0,0.2561983471072811,0.0,0.0,0.0,0.0,0.7438016528927188,0.0,0.0,0.0
mort,0.0,0.14532029779907585,0.0,0.0,0.0,0.0,0.0,0.0,0.16014889961561635,0.2976560582509078,0.3968747443343999
impos,0.22716552163342837,0.0,0.0,0.0,0.0,0.0,0.21703992667676067,0.5557945516898108,0.0,0.0,0.0
bataill,0.0,0.0,0.0,0.0,0.0,0.0,0.2521739130431388,0.0,0.0,0.44869565217437696,0.29913043478248424
matériel,0.0,0.0,0.0,0.0,0.0,0.0,0.0,0.5900305188202002,0.0,0.4099694811797998,0.0
fer,0.0,0.0,0.39861218195802267,0.6013878180419774,0.0,0.0,0.0,0.0,0.0,0.0,0.0
rome instituant l,0.0,0.0,1.0,0.0,0.0,0.0,0.0,0.0,0.0,0.0,0.0
arme,0.0,0.0,0.0,0.0,0.0,0.37459634015141924,0.0,0.0,0.0,0.26803013993488395,0.35737351991369676
territoir,0.0,0.13964837385619766,0.0,0.16044706783500973,0.3362883813676366,0.09994112538647253,0.16075801176493376,0.10291703978974971,0.0,0.0,0.0
minor,0.0,0.0,0.0,0.0,0.0,1.0,0.0,0.0,0.0,0.0,0.0
sort,0.0,0.0,0.0,1.0,0.0,0.0,0.0,0.0,0.0,0.0,0.0
conférent,0.0,0.0,0.0,0.23768799764116727,0.0,0.0,0.0,0.7623120023588328,0.0,0.0,0.0
trait,0.0,0.0,0.6249017385445247,0.07856598260242202,0.1097800351497138,0.0,0.0,0.0,0.0,0.0,0.18675224370333954
télévis,1.0,0.0,0.0,0.0,0.0,0.0,0.0,0.0,0.0,0.0,0.0
états ,0.0,0.0,0.0,0.0,0.0,1.0,0.0,0.0,0.0,0.0,0.0
birkenau,0.0,0.0,0.0,0.0,0.0,0.0,0.0,0.0,0.0,1.0,0.0
malad,0.0,0.0,0.0,0.0,0.0,0.0,0.0,0.0,0.0,1.0,0.0
apport,0.0,0.0,0.0,1.0,0.0,0.0,0.0,0.0,0.0,0.0,0.0
berlin,0.0,0.0,0.09767884417941179,0.8105265793626165,0.0,0.09179457645797161,0.0,0.0,0.0,0.0,0.0
appel,0.0,0.0,0.0,0.0,0.0,0.0,1.0,0.0,0.0,0.0,0.0
nomad,0.0,0.0,0.0,0.0,0.0,0.0,0.0,0.0,0.0,1.0,0.0
soutenu,1.0,0.0,0.0,0.0,0.0,0.0,0.0,0.0,0.0,0.0,0.0
baby,1.0,0.0,0.0,0.0,0.0,0.0,0.0,0.0,0.0,0.0,0.0
partent,0.0,0.0,0.0,0.0,0.0,0.0,1.0,0.0,0.0,0.0,0.0
superpuiss,0.0,0.0,0.0,0.21108850457790848,0.0,0.7889114954220915,0.0,0.0,0.0,0.0,0.0
destin,0.0,0.0,0.0,0.1916792975210279,0.0,0.23879083570712686,0.0,0.0,0.0,0.3417179200633053,0.22781194670853988
iii,0.0,0.0,0.0,0.0,0.0,0.0,0.5109004739335719,0.0,0.4890995260664282,0.0,0.0
du chômag,0.0,0.0,0.0,0.0,0.0,0.0,0.0,0.0,1.0,0.0,0.0
religi,0.0,0.0,0.0,0.0,0.0,1.0,0.0,0.0,0.0,0.0,0.0
tribunal,0.0,0.0,0.0,0.0,0.0,0.0,0.0,0.0,0.0,1.0,0.0
œuvr,0.0,0.0,0.0,0.4171364148819712,0.5828635851180289,0.0,0.0,0.0,0.0,0.0,0.0
donnent,0.0,0.0,0.0,0.0,0.521345407503364,0.0,0.0,0.4786545924966361,0.0,0.0,0.0
yvet,1.0,0.0,0.0,0.0,0.0,0.0,0.0,0.0,0.0,0.0,0.0
trouvent,0.0,0.0,0.0,0.0,0.0,0.0,0.0,0.0,0.0,0.0,1.0
accordent,0.0,0.0,0.0,1.0,0.0,0.0,0.0,0.0,0.0,0.0,0.0
sieg,0.0,0.0,0.5695364238413244,0.0,0.0,0.0,0.4304635761586756,0.0,0.0,0.0,0.0
uniqu,0.0,0.0,0.0,0.5104166666672164,0.0,0.0,0.0,0.0,0.4895833333327836,0.0,0.0
roosevelt,0.0,0.0,0.0,0.0,0.0,0.0,0.0,0.0,0.0,1.0,0.0
recon,0.0,0.0,0.0,0.0,0.0,0.0,0.0,0.5900305188202002,0.0,0.4099694811797998,0.0
giscard,0.0,1.0,0.0,0.0,0.0,0.0,0.0,0.0,0.0,0.0,0.0
konrad,0.0,0.0,1.0,0.0,0.0,0.0,0.0,0.0,0.0,0.0,0.0
nationalis,0.0,0.0,0.0,0.0,1.0,0.0,0.0,0.0,0.0,0.0,0.0
battu,0.0,0.0,0.0,0.0,0.0,0.0,1.0,0.0,0.0,0.0,0.0
install,0.0,0.0,0.0,0.5104166666672164,0.0,0.0,0.0,0.0,0.4895833333327836,0.0,0.0
fln,0.0,0.0,0.0,0.0,0.0,0.0,0.0,1.0,0.0,0.0,0.0
épur,0.0,0.0,0.0,0.0,1.0,0.0,0.0,0.0,0.0,0.0,0.0
taux,1.0,0.0,0.0,0.0,0.0,0.0,0.0,0.0,0.0,0.0,0.0
mondial,0.0,0.0,0.0,0.0,0.0,0.01253669632929603,0.2924014347342827,0.0,0.01930511679649685,0.30498756070037975,0.37076919143954473
regroupent,0.0,0.0,0.0,1.0,0.0,0.0,0.0,0.0,0.0,0.0,0.0
enfant,0.0,0.0,0.0,0.0,0.0,0.0,0.0,0.0,1.0,0.0,0.0
tertiair,1.0,0.0,0.0,0.0,0.0,0.0,0.0,0.0,0.0,0.0,0.0
févri,0.0,0.0,0.0,0.3246874416873646,0.0,0.0,0.0,0.0,0.0,0.2894196678480325,0.3858928904646029
schuman,0.0,0.0,1.0,0.0,0.0,0.0,0.0,0.0,0.0,0.0,0.0
par d,1.0,0.0,0.0,0.0,0.0,0.0,0.0,0.0,0.0,0.0,0.0
ss,0.0,0.0,0.0,0.0,0.0,0.0,0.0,0.0,0.0,1.0,0.0
soutien,0.0,0.0,0.0,0.28640441683944573,0.0,0.7135955831605543,0.0,0.0,0.0,0.0,0.0
of,0.0,0.0,0.3064611736807868,0.6935388263192132,0.0,0.0,0.0,0.0,0.0,0.0,0.0
construir,0.0,0.0,1.0,0.0,0.0,0.0,0.0,0.0,0.0,0.0,0.0
winston,0.0,0.0,0.0,0.0,0.0,0.0,0.0,0.0,0.0,1.0,0.0
début d,0.0,0.0,0.0,0.0,0.0,0.0,0.0,0.0,0.0,1.0,0.0
partag,0.0,1.0,0.0,0.0,0.0,0.0,0.0,0.0,0.0,0.0,0.0
accept,0.0,1.0,0.0,0.0,0.0,0.0,0.0,0.0,0.0,0.0,0.0
indien,0.0,0.0,0.0,0.0,0.0,0.0,0.0,1.0,0.0,0.0,0.0
heur,0.0,0.0,0.0,0.0,0.0,0.0,0.0,0.0,1.0,0.0,0.0
président,0.0,0.6148569837736857,0.0,0.1177385713610869,0.0,0.09778448416643948,0.0,0.05034809048268257,0.03764430512897218,0.03498324218017097,0.046644322906962264
chin,0.0,0.0,0.0,0.0,0.0,1.0,0.0,0.0,0.0,0.0,0.0
décid,0.0,0.0,0.0,0.0,0.0,0.0,0.0,0.0,0.0,1.0,0.0
reconstruct,0.0,0.0,0.0,0.0,1.0,0.0,0.0,0.0,0.0,0.0,0.0
provoquent,0.0,0.0,0.0,0.0,0.0,0.0,0.0,0.0,1.0,0.0,0.0
autoritair,0.2586466165411463,0.0,0.0,0.0,0.0,0.0,0.7413533834588537,0.0,0.0,0.0,0.0
quotidien,0.0,0.0,0.0,0.0,0.0,0.0,0.0,0.0,0.0,1.0,0.0
definit,0.1008928088690737,0.09304181588556065,0.09919688985952851,0.10689910761335021,0.10455888390598952,0.09322117360292376,0.09639564878376752,0.08228313444587013,0.06152152723845771,0.085758887538685,0.07623012225679313
décret,0.0,0.0,0.0,1.0,0.0,0.0,0.0,0.0,0.0,0.0,0.0
douani,0.0,0.0,1.0,0.0,0.0,0.0,0.0,0.0,0.0,0.0,0.0
disparit,1.0,0.0,0.0,0.0,0.0,0.0,0.0,0.0,0.0,0.0,0.0
occup,0.0,0.0,0.0,0.0,0.0,0.0,0.6973449933414136,0.1785756906022969,0.0,0.12407931605628952,0.0
opin,0.0,0.0,0.0,0.0,0.0,0.0,0.0,0.0,1.0,0.0,0.0
cours,0.0,0.0,0.0,1.0,0.0,0.0,0.0,0.0,0.0,0.0,0.0
réfractair,0.0,0.0,0.0,0.0,0.0,0.0,1.0,0.0,0.0,0.0,0.0
cœur,0.0,0.0,1.0,0.0,0.0,0.0,0.0,0.0,0.0,0.0,0.0
polic,0.0,0.0,0.0,0.0,0.0,0.0,0.5109004739335719,0.0,0.4890995260664282,0.0,0.0
cambodg,0.0,0.0,0.0,0.0,0.0,0.0,0.0,1.0,0.0,0.0,0.0
reconnaiss,0.0,0.0,0.0,0.0,0.0,0.0,0.0,1.0,0.0,0.0,0.0
georg,0.0,0.4169409319245687,0.0,0.0,0.0,0.29838905248539965,0.0,0.0,0.0,0.0,0.28467001559003163
masse ,1.0,0.0,0.0,0.0,0.0,0.0,0.0,0.0,0.0,0.0,0.0
afriqu,0.0,0.0,0.0,0.0,0.0,0.3268450932681715,0.0,0.6731549067318285,0.0,0.0,0.0
vital,0.0,0.0,0.0,0.0,0.0,0.0,0.0,0.0,0.0,1.0,0.0
dissolu,0.0,0.0,0.0,0.312015712028087,0.0,0.38870391112930436,0.0,0.0,0.29928037684260866,0.0,0.0
centain,0.0,0.0,0.0,0.0,0.0,0.0,0.0,0.0,0.0,1.0,0.0
holland,0.0,1.0,0.0,0.0,0.0,0.0,0.0,0.0,0.0,0.0,0.0
marschall,0.0,0.0,0.0,1.0,0.0,0.0,0.0,0.0,0.0,0.0,0.0
entreprend,0.0,0.0,0.0,1.0,0.0,0.0,0.0,0.0,0.0,0.0,0.0
dénonc,0.0,0.0,0.0,0.0,0.0,0.0,0.0,0.0,0.0,1.0,0.0
vieilless,0.0,0.0,0.0,0.0,1.0,0.0,0.0,0.0,0.0,0.0,0.0
convers,0.0,0.0,0.0,0.0,0.0,0.0,0.0,0.0,0.0,0.0,1.0
polit,0.0627561635118688,0.10417100542536907,0.15866045441686497,0.05984291801031511,0.04180917379903874,0.07455129785854368,0.11991778531525224,0.11515678143169035,0.2009012247486277,0.026671369492447555,0.03556182598998164
traduir,0.0,0.0,0.0,0.0,0.0,0.0,0.0,0.0,0.0,1.0,0.0
traduis,0.0,0.0,0.0,1.0,0.0,0.0,0.0,0.0,0.0,0.0,0.0
product,0.0,0.0,0.0,0.0,0.54037267080741,0.0,0.0,0.0,0.0,0.0,0.45962732919259003
démocratis,1.0,0.0,0.0,0.0,0.0,0.0,0.0,0.0,0.0,0.0,0.0
paramilitair,0.0,0.0,0.0,0.0,0.0,0.0,0.0,0.0,0.0,1.0,0.0
alger,0.0,0.4042126379133812,0.0,0.0,0.0,0.0,0.0,0.5957873620866188,0.0,0.0,0.0
épuis,0.0,0.0,0.0,1.0,0.0,0.0,0.0,0.0,0.0,0.0,0.0
agricol,0.0,0.0,1.0,0.0,0.0,0.0,0.0,0.0,0.0,0.0,0.0
républicain,0.0,0.0,0.0,0.0,0.7360912981460755,0.0,0.26390870185392434,0.0,0.0,0.0,0.0
minimum,1.0,0.0,0.0,0.0,0.0,0.0,0.0,0.0,0.0,0.0,0.0
institu,0.0,0.47827383911689714,0.2913791389081404,0.0,0.23034702197496262,0.0,0.0,0.0,0.0,0.0,0.0
jacqu,0.0,1.0,0.0,0.0,0.0,0.0,0.0,0.0,0.0,0.0,0.0
opposent,0.0,0.0,0.0,1.0,0.0,0.0,0.0,0.0,0.0,0.0,0.0
provenc,0.0,0.0,0.0,0.0,0.0,0.0,1.0,0.0,0.0,0.0,0.0
attent,0.0,0.0,0.0,0.0,0.0,0.0,0.0,1.0,0.0,0.0,0.0
mai,0.5118811881183446,0.0,0.0,0.48811881188165535,0.0,0.0,0.0,0.0,0.0,0.0,0.0
israëlo,0.0,0.0,0.0,0.0,0.0,1.0,0.0,0.0,0.0,0.0,0.0
mal,1.0,0.0,0.0,0.0,0.0,0.0,0.0,0.0,0.0,0.0,0.0
o,0.0,0.0,0.3153891164421423,0.0,0.0,0.0,0.0,0.0,0.6846108835578577,0.0,0.0
projet,0.0,0.0,1.0,0.0,0.0,0.0,0.0,0.0,0.0,0.0,0.0
législ,0.10022957305969009,0.4991230254388784,0.0,0.0,0.4006474015014316,0.0,0.0,0.0,0.0,0.0,0.0
permet,0.0,0.0,0.5700110253579737,0.42998897464202634,0.0,0.0,0.0,0.0,0.0,0.0,0.0
domin,0.11655405043066575,0.0,0.0,0.22228683505773952,0.0,0.27692118969810325,0.0,0.2851669819475404,0.0,0.09907094286595096,0.0
obtient,0.0,0.0,0.0,0.4380434782613496,0.0,0.0,0.0,0.5619565217386504,0.0,0.0,0.0
uenc,0.0,0.0,0.0,1.0,0.0,0.0,0.0,0.0,0.0,0.0,0.0
terreur,0.0,0.0,0.0,0.17457753097510106,0.0,0.0,0.0,0.0,0.669807669863082,0.15561479916181684,0.0
qui accordent,0.0,0.0,0.0,0.0,0.0,0.0,0.0,0.0,1.0,0.0,0.0
favoris,0.0,0.0,0.0,0.0,0.0,0.0,0.0,0.0,1.0,0.0,0.0
acces,0.0,0.0,0.0,0.4380434782613496,0.0,0.0,0.0,0.5619565217386504,0.0,0.0,0.0
remplac,0.42873696407868717,0.0,0.0,0.0,0.5712630359213129,0.0,0.0,0.0,0.0,0.0,0.0
issu,0.0,1.0,0.0,0.0,0.0,0.0,0.0,0.0,0.0,0.0,0.0
inform,0.0,0.0,0.0,0.0,0.0,0.0,0.0,0.0,0.2875082617310864,0.0,0.7124917382689135
émancipation progress,1.0,0.0,0.0,0.0,0.0,0.0,0.0,0.0,0.0,0.0,0.0
néocolonial,0.0,0.0,0.0,0.0,0.0,0.0,0.0,1.0,0.0,0.0,0.0
eichmann,0.0,0.0,0.0,0.0,0.0,0.0,0.0,0.0,0.0,1.0,0.0
fac,0.0,0.0,0.0,0.0,0.0,0.0,0.0,0.0,0.5183199285078033,0.4816800714921967,0.0
entrepris,0.42873696407868717,0.0,0.0,0.0,0.5712630359213129,0.0,0.0,0.0,0.0,0.0,0.0
exclus,0.0,0.0,0.0,0.0,0.0,0.0,1.0,0.0,0.0,0.0,0.0
croissanc,0.45704845814909983,0.0,0.0,0.0,0.0,0.5429515418509002,0.0,0.0,0.0,0.0,0.0
mouv,0.06847418467916849,0.0,0.0,0.0,0.182474448902202,0.16268806287639764,0.0,0.5863633035422319,0.0,0.0,0.0
annexion,0.0,0.0,0.0,0.0,0.0,0.0,0.0,0.0,1.0,0.0,0.0
origin,0.24291497975681356,0.0,0.0,0.0,0.0,0.0,0.0,0.0,0.0,0.206477732793052,0.5506072874501345
instaure un,0.0,0.0,0.0,0.0,1.0,0.0,0.0,0.0,0.0,0.0,0.0
constitu,0.0,0.0,0.0,0.0,0.7656744775177307,0.0,0.0,0.23432552248226934,0.0,0.0,0.0
arménien,0.0,0.0,0.0,0.0,0.0,0.0,0.0,0.0,0.0,0.0,1.0
jeun,0.6814213551180349,0.0,0.0,0.0,0.0,0.0,0.16276198065531108,0.0,0.1558166642266541,0.0,0.0
français,0.30711246562954864,0.10195720239423173,0.0,0.0,0.16368264384401537,0.0,0.3521080129186283,0.07513967521357587,0.0,0.0,0.0
peur,0.0,0.0,0.0,0.0,0.0,0.0,0.0,0.0,1.0,0.0,0.0
migratoir,0.0,0.0,1.0,0.0,0.0,0.0,0.0,0.0,0.0,0.0,0.0
opep,0.0,0.0,0.0,0.0,0.0,0.0,0.0,1.0,0.0,0.0,0.0
fermetur,1.0,0.0,0.0,0.0,0.0,0.0,0.0,0.0,0.0,0.0,0.0
salarial,1.0,0.0,0.0,0.0,0.0,0.0,0.0,0.0,0.0,0.0,0.0
détenus,0.0,0.0,0.0,0.0,1.0,0.0,0.0,0.0,0.0,0.0,0.0
ffi,0.0,0.0,0.0,0.0,0.0,0.0,1.0,0.0,0.0,0.0,0.0
gaulle le ,0.0,0.0,0.0,0.0,0.0,0.0,1.0,0.0,0.0,0.0,0.0
pétroli,1.0,0.0,0.0,0.0,0.0,0.0,0.0,0.0,0.0,0.0,0.0
nombr,0.09766105397193875,0.0,0.0,0.0,0.0,0.0,0.18661588995338393,0.0,0.20842813683163577,0.24903568762822717,0.2582592316148144
il remplac,0.0,1.0,0.0,0.0,0.0,0.0,0.0,0.0,0.0,0.0,0.0
adopt,0.6861871419484058,0.0,0.0,0.0,0.0,0.0,0.0,0.0,0.3138128580515942,0.0,0.0
islam,0.0,0.0,0.0,0.0,0.0,1.0,0.0,0.0,0.0,0.0,0.0
jouent l,0.0,0.0,0.0,0.0,0.0,1.0,0.0,0.0,0.0,0.0,0.0
divis,0.0,0.0,0.0,0.5104166666672164,0.0,0.0,0.0,0.0,0.4895833333327836,0.0,0.0
étap,0.0,0.0,1.0,0.0,0.0,0.0,0.0,0.0,0.0,0.0,0.0
pétain,0.0,0.0,0.0,0.0,0.0,0.0,1.0,0.0,0.0,0.0,0.0
pens,0.3928069065417122,0.0,0.0,0.1872860782639738,0.0,0.0,0.0,0.24026526665579562,0.17964174853851841,0.0,0.0
état,0.04419191657732687,0.0550167042237497,0.04189733629352539,0.09481602217292634,0.04416205717425355,0.1837425350701485,0.031666591384620385,0.3513970140748521,0.04042043575624761,0.0375631290907469,0.07512625818160273
polici,0.0,0.0,0.0,0.0,0.0,0.0,1.0,0.0,0.0,0.0,0.0
passag,0.0,0.0,0.0,0.0,0.0,1.0,0.0,0.0,0.0,0.0,0.0
réfug,0.0,0.0,0.0,0.0,0.0,0.0,1.0,0.0,0.0,0.0,0.0
alli,0.0,0.0,0.0,0.4464806777451191,0.0,0.0,0.11183648759382131,0.14319510570333527,0.0,0.29848772895772424,0.0
li,0.0,0.0,0.0,0.0,0.3646785515880479,0.32513509418768205,0.0,0.0,0.0,0.0,0.31018635422427004
organisent,0.0,0.0,0.0,0.0,0.0,0.0,0.5109004739335719,0.0,0.4890995260664282,0.0,0.0
évolu,1.0,0.0,0.0,0.0,0.0,0.0,0.0,0.0,0.0,0.0,0.0
des bombard,0.0,0.0,0.0,0.0,0.0,0.0,0.0,0.0,0.0,0.0,1.0
persist,0.0,0.0,0.0,0.0,0.0,1.0,0.0,0.0,0.0,0.0,0.0
andré,1.0,0.0,0.0,0.0,0.0,0.0,0.0,0.0,0.0,0.0,0.0
exécut,0.0,0.0,0.0,0.0,0.33213280212465507,0.0,0.0,0.0,0.45598937583064536,0.21187782204469957,0.0
répondr,1.0,0.0,0.0,0.0,0.0,0.0,0.0,0.0,0.0,0.0,0.0
fin,0.0,0.0,0.0,0.4569327731096358,0.0,0.0,0.0,0.0,0.0,0.0,0.5430672268903642
combattent,0.0,0.0,0.0,0.0,0.0,0.0,0.0,0.0,0.0,0.0,1.0
industriel,0.600162206002108,0.0,0.0,0.0,0.39983779399789204,0.0,0.0,0.0,0.0,0.0,0.0
cec,0.0,0.0,1.0,0.0,0.0,0.0,0.0,0.0,0.0,0.0,0.0
des organis,0.0,0.0,0.0,0.0,0.0,0.0,0.0,0.0,1.0,0.0,0.0
violenc,0.0,0.0,0.0,0.0,0.0,0.0,0.0,0.13786546232436572,0.0,0.09579272640803342,0.7663418112676009
en ,1.0,0.0,0.0,0.0,0.0,0.0,0.0,0.0,0.0,0.0,0.0
enrich,1.0,0.0,0.0,0.0,0.0,0.0,0.0,0.0,0.0,0.0,0.0
approfond,0.0,0.0,1.0,0.0,0.0,0.0,0.0,0.0,0.0,0.0,0.0
grand,0.1437984677438394,0.0,0.0,0.13712310367088082,0.0,0.17082564963351102,0.0,0.0,0.26305248459324854,0.1222286975821217,0.16297159677639855
appliqu,0.0,0.0,0.0,0.0,0.0,0.0,1.0,0.0,0.0,0.0,0.0
tendanc,0.0,1.0,0.0,0.0,0.0,0.0,0.0,0.0,0.0,0.0,0.0
nation,0.0,0.0,0.0,0.0,0.0,0.0,0.0,0.6834249803617071,0.0,0.0,0.31657501963829293
risqu,0.0,0.0,0.0,1.0,0.0,0.0,0.0,0.0,0.0,0.0,0.0
autr,1.0,0.0,0.0,0.0,0.0,0.0,0.0,0.0,0.0,0.0,0.0
mikhaïl,0.0,0.0,0.0,1.0,0.0,0.0,0.0,0.0,0.0,0.0,0.0
pai,0.3291421064404584,0.0,0.0,0.0,0.21927980874975325,0.0,0.0,0.0,0.45157808480978845,0.0,0.0
front,0.0,0.0,0.0,0.0,0.10781632697314038,0.0,0.0,0.0989876947395563,0.5180784542865187,0.0,0.27511752400078476
devient,0.0,0.0,0.29312422015824774,0.0,0.0,0.0,0.22154737570090152,0.14183430007622116,0.21209359158017396,0.0,0.1314005124844558
lois,0.25168357827046167,0.0,0.0,0.0,0.16767568119876533,0.0,0.12023256209976001,0.0,0.46040817843101295,0.0,0.0
transparent,0.0,0.0,0.0,1.0,0.0,0.0,0.0,0.0,0.0,0.0,0.0
exod,0.0,0.0,0.0,0.0,0.0,0.0,1.0,0.0,0.0,0.0,0.0
arrier,0.0,0.0,0.0,0.0,0.0,0.0,1.0,0.0,0.0,0.0,0.0
critiqu,0.0,1.0,0.0,0.0,0.0,0.0,0.0,0.0,0.0,0.0,0.0
développ,0.15318759950890073,0.0,0.0,0.0,0.0,0.1819794856821566,0.0,0.18739822967216382,0.0,0.1302094595824146,0.34722522555436425
jdanov,0.0,0.0,0.0,1.0,0.0,0.0,0.0,0.0,0.0,0.0,0.0
tranch,0.0,0.0,0.0,0.0,0.0,0.0,0.0,0.0,0.0,0.0,1.0
administr,0.0,0.0,0.0,0.0,0.0,0.0,0.0,1.0,0.0,0.0,0.0
refond,0.0,0.0,0.0,0.0,1.0,0.0,0.0,0.0,0.0,0.0,0.0
entrain,0.0,0.0,0.0,0.0,0.0,0.0,1.0,0.0,0.0,0.0,0.0
souvent,0.0,0.0,0.0,0.0,0.0,0.0,1.0,0.0,0.0,0.0,0.0
tra,0.0,0.0,0.0,0.0,0.0,1.0,0.0,0.0,0.0,0.0,0.0
biograph,0.10234364020417544,0.1698835509111734,0.09702964350131556,0.09759267818315406,0.06818299273069169,0.060789656169433555,0.07333635846024825,0.09389965500122836,0.0702069776725468,0.10874011771692851,0.05799472944910422
condamn,0.0,0.0,0.0,0.0,0.0,0.0,0.0,0.0,0.5183199285078033,0.4816800714921967,0.0
ancien,0.0,0.0,0.0,0.0,0.22497953052852657,0.20058415974878624,0.16132253158035836,0.41311377814232886,0.0,0.0,0.0
dépend,0.5118811881183446,0.0,0.0,0.48811881188165535,0.0,0.0,0.0,0.0,0.0,0.0,0.0
choix,0.0,0.0,0.0,0.0,0.0,0.0,0.0,0.0,0.0,0.0,1.0
difficult,0.0,0.0,0.0,0.0,0.0,0.0,0.0,1.0,0.0,0.0,0.0
bayeux,0.0,0.0,0.0,0.0,1.0,0.0,0.0,0.0,0.0,0.0,0.0
courag,0.0,0.0,0.0,0.0,0.0,0.0,0.0,0.0,0.0,0.0,1.0
person,0.18430296986768607,0.0,0.2329778567815621,0.0,0.24557125444543032,0.0,0.0,0.0,0.3371479189053214,0.0,0.0
espac,0.0,0.0,0.0,0.52871467639091,0.0,0.0,0.0,0.0,0.0,0.47128532360909003,0.0
domain,0.0,0.0,0.27308578451830867,0.20600281617464736,0.0,0.25663483364430206,0.0,0.26427656566274194,0.0,0.0,0.0
dout,0.0,0.0,1.0,0.0,0.0,0.0,0.0,0.0,0.0,0.0,0.0
suffrag,0.0,1.0,0.0,0.0,0.0,0.0,0.0,0.0,0.0,0.0,0.0
reconstruir,0.0,0.0,0.0,0.0,1.0,0.0,0.0,0.0,0.0,0.0,0.0
niveau,0.3183162198766168,0.0,0.0,0.3035394514496432,0.0,0.3781443286737399,0.0,0.0,0.0,0.0,0.0
lign,0.0,0.0,0.0,0.0,0.0,0.0,0.0,0.0,0.0,0.0,1.0
lieu,0.0,0.07700561797485608,0.05864273984239041,0.13271180970153748,0.06181261767170881,0.11022008934234892,0.1329690031310866,0.05675103855712249,0.21215833523714245,0.0,0.1577287485418068
ennem,0.0,0.0,0.0,0.0,0.18160326941193228,0.16191134863269757,0.0,0.0,0.0,0.34755108456433104,0.30893429739103906
versaill,0.0,0.0,0.0,0.0,0.0,0.0,0.0,0.0,0.0,0.0,1.0
ligu,0.0,0.0,0.0,0.0,0.0,0.0,0.0,0.0,1.0,0.0,0.0
réussit,0.0,0.0,0.0,1.0,0.0,0.0,0.0,0.0,0.0,0.0,0.0
peupl,0.0,0.0,0.0,0.0,0.19955338214125468,0.0,0.0,0.3664255652227028,0.13698469646049607,0.12730129550370017,0.16973506067184632
pétrol,0.0,0.0,0.0,0.0,0.0,1.0,0.0,0.0,0.0,0.0,0.0
ex,0.10957580898714221,0.0,0.13851506110424888,0.0,0.07300118085209692,0.5857685114175085,0.0,0.0,0.0,0.09313943763900336,0.0
stabl,0.0,1.0,0.0,0.0,0.0,0.0,0.0,0.0,0.0,0.0,0.0
sudet,0.0,0.0,0.0,0.0,0.0,0.0,0.0,0.0,1.0,0.0,0.0
divorc,1.0,0.0,0.0,0.0,0.0,0.0,0.0,0.0,0.0,0.0,0.0
création,0.23462828422336812,0.0,0.2965942156977226,0.22373644897882336,0.0,0.0,0.11208502337379973,0.0,0.0,0.0,0.1329560277262861
dispos,0.0,0.0,0.0,0.0,0.0,0.0,0.0,1.0,0.0,0.0,0.0
orient,0.0,0.0,0.0,0.0,0.0,1.0,0.0,0.0,0.0,0.0,0.0
er,0.0,0.0,0.0,0.0,0.6105263157898542,0.0,0.0,0.0,0.0,0.38947368421014583,0.0
missil,0.0,0.0,0.0,1.0,0.0,0.0,0.0,0.0,0.0,0.0,0.0
appuient,0.0,0.0,0.0,0.0,0.0,0.0,0.0,0.0,0.0,1.0,0.0
cinem,0.5222868217055087,0.0,0.0,0.0,0.0,0.0,0.0,0.0,0.47771317829449134,0.0,0.0
circulation d,0.0,0.0,1.0,0.0,0.0,0.0,0.0,0.0,0.0,0.0,0.0
du havr,0.0,0.0,0.0,0.0,1.0,0.0,0.0,0.0,0.0,0.0,0.0
robert,0.0,0.0,1.0,0.0,0.0,0.0,0.0,0.0,0.0,0.0,0.0
juillet,0.0,0.0,0.0,0.0,0.0,0.0,0.6921241050125938,0.0,0.0,0.30787589498740625,0.0
tués dur,0.0,0.0,0.0,0.0,0.0,0.0,0.0,0.0,0.0,1.0,0.0
pcf,0.0,0.0,0.0,0.0,1.0,0.0,0.0,0.0,0.0,0.0,0.0
tutel,0.0,0.0,0.0,0.0,0.0,0.0,0.0,1.0,0.0,0.0,0.0
oriental,0.0,0.0,0.0,0.0,0.0,0.0,0.0,0.0,0.0,1.0,0.0
valeur,0.0,0.0,0.0,0.0,0.0,0.0,0.6921241050125938,0.0,0.0,0.30787589498740625,0.0
poch,1.0,0.0,0.0,0.0,0.0,0.0,0.0,0.0,0.0,0.0,0.0
avort,0.3759493670885044,0.6240506329114957,0.0,0.0,0.0,0.0,0.0,0.0,0.0,0.0,0.0
citoyennet,0.0,0.0,1.0,0.0,0.0,0.0,0.0,0.0,0.0,0.0,0.0
écrit,0.0,0.0,0.0,0.0,0.0,0.0,0.0,0.0,0.0,1.0,0.0
cris,0.08540298749877592,0.14176320820496227,0.10795813547921379,0.4071921937801884,0.0,0.10145463334173672,0.0,0.0,0.15622884169512277,0.0,0.0
nikit,0.0,0.0,0.0,1.0,0.0,0.0,0.0,0.0,0.0,0.0,0.0
franc,0.022677474708332507,0.037643080913174566,0.0,0.0,0.030216202787061743,0.0,0.6933330251925343,0.08322576946319143,0.06222631742796469,0.01927585350206027,0.05140227600568038
appartient,0.0,0.0,0.0,0.0,0.0,0.0,0.0,0.0,1.0,0.0,0.0
logent dan,1.0,0.0,0.0,0.0,0.0,0.0,0.0,0.0,0.0,0.0,0.0
apparit,0.0,0.0,0.0,0.0,0.0,1.0,0.0,0.0,0.0,0.0,0.0
éclate al,0.0,0.0,0.0,0.0,0.0,0.0,0.0,0.0,1.0,0.0,0.0
londr,0.0,0.0,0.0,0.0,0.0,0.0,1.0,0.0,0.0,0.0,0.0
million,0.0,0.0,0.0,0.0,0.0,0.0,0.0,0.0,0.0,0.4285714285715173,0.5714285714284827
situat,0.5222868217055087,0.0,0.0,0.0,0.0,0.0,0.0,0.0,0.47771317829449134,0.0,0.0
ouest,0.0,0.0,0.0,1.0,0.0,0.0,0.0,0.0,0.0,0.0,0.0
surnomm,0.0,0.0,0.0,0.0,0.0,0.0,0.0,0.0,0.0,0.0,1.0
schem,0.05161633692817876,0.11423952460409206,0.17399558362777098,0.06562696094287014,0.11462546894397076,0.08175696098182693,0.06575414497570976,0.08419141143291828,0.06294830947576055,0.08774777277782754,0.09749752530907425
dirig,0.0,0.0,0.0,0.22426732222468684,0.31336812321678864,0.13969422360272768,0.0,0.0,0.32267033095579684,0.0,0.0
mais inégal,1.0,0.0,0.0,0.0,0.0,0.0,0.0,0.0,0.0,0.0,0.0
que,0.0,0.0,0.0,0.0,0.0,0.0,0.0,0.0,0.0,1.0,0.0
invas,0.0,0.0,0.0,0.0,0.0,0.41134751773073863,0.0,0.0,0.0,0.5886524822692614,0.0
elles limitent,0.0,1.0,0.0,0.0,0.0,0.0,0.0,0.0,0.0,0.0,0.0
asi,0.0,0.0,0.0,0.0,0.0,0.0,0.0,0.8119458702756851,0.0,0.188054129724315,0.0
quitt,1.0,0.0,0.0,0.0,0.0,0.0,0.0,0.0,0.0,0.0,0.0
poursuit,0.0,0.4326305931796078,0.0,0.24853246842268328,0.0,0.0,0.0,0.3188369383977089,0.0,0.0,0.0
fondateur,0.0,0.7975460122699387,0.20245398773006135,0.0,0.0,0.0,0.0,0.0,0.0,0.0,0.0
g,0.0,0.0,0.0,0.0,0.0,1.0,0.0,0.0,0.0,0.0,0.0
améliorent,0.0,0.0,0.0,0.0,0.0,0.0,0.0,0.0,1.0,0.0,0.0
promulgu,0.0,0.0,0.0,0.0,0.0,0.0,0.0,0.0,1.0,0.0,0.0
chirac,0.0,1.0,0.0,0.0,0.0,0.0,0.0,0.0,0.0,0.0,0.0
concrétis,0.0,0.0,0.0,1.0,0.0,0.0,0.0,0.0,0.0,0.0,0.0
servent,0.0,0.0,0.0,0.0,0.0,0.0,0.0,0.0,0.0,1.0,0.0
refus,0.0,0.0,0.0,0.0,0.0,0.0,0.0,1.0,0.0,0.0,0.0
novembr,0.0,0.0,0.0,1.0,0.0,0.0,0.0,0.0,0.0,0.0,0.0
american,0.0,0.0,0.0,1.0,0.0,0.0,0.0,0.0,0.0,0.0,0.0
dislocation d,0.0,0.0,0.0,0.0,0.0,1.0,0.0,0.0,0.0,0.0,0.0
organis,0.04704512399325369,0.0,0.059469861868421216,0.044861211080691375,0.06268444899644399,0.33532404041501973,0.179792605648985,0.05755147922747447,0.0,0.15995342157734085,0.05331780719236964
mortal,0.0,0.0,0.0,0.0,0.0,0.0,0.0,0.0,0.0,1.0,0.0
unipolair,0.0,0.0,0.0,0.0,0.0,1.0,0.0,0.0,0.0,0.0,0.0
entrer,0.0,0.0,0.0,0.0,0.0,0.0,0.0,0.0,0.0,1.0,0.0
antiparlementar,0.0,0.0,0.0,0.0,0.0,0.0,0.0,0.0,1.0,0.0,0.0
gouvernemental,0.0,0.7840000000003818,0.0,0.0,0.0,0.0,0.0,0.0,0.21599999999961814,0.0,0.0
propagande ,0.0,0.0,0.0,0.0,0.0,0.0,0.0,0.0,0.0,0.0,1.0
oper,0.0,0.0,0.0,0.0,0.0,0.0,1.0,0.0,0.0,0.0,0.0
crim,0.0,0.0,0.0,0.0,0.0,0.12262156448244921,0.0,0.0,0.0,0.8773784355175509,0.0
major,0.0,1.0,0.0,0.0,0.0,0.0,0.0,0.0,0.0,0.0,0.0
loi,0.8083203732509754,0.19167962674902467,0.0,0.0,0.0,0.0,0.0,0.0,0.0,0.0,0.0
gauch,0.0,0.6116527782460833,0.0,0.0,0.16365844607124932,0.0,0.0,0.0,0.2246887756826672,0.0,0.0
réalis,0.0,0.0,1.0,0.0,0.0,0.0,0.0,0.0,0.0,0.0,0.0
dans l,0.5222868217055087,0.0,0.0,0.0,0.0,0.0,0.0,0.0,0.47771317829449134,0.0,0.0
ministériel,0.0,0.0,0.0,0.0,0.0,0.0,0.0,0.0,1.0,0.0,0.0
étrang,0.0,0.0,0.0,0.0,0.521345407503364,0.0,0.0,0.4786545924966361,0.0,0.0,0.0
capac,0.0,0.0,0.0,0.0,0.0,0.0,0.0,0.0,0.0,1.0,0.0
bombard,0.0,0.0,0.0,0.0,0.0,0.0,0.0,0.0,0.0,1.0,0.0
tier,0.0,0.0,0.0,0.0,0.0,0.0,0.13509889373107772,0.8649011062689224,0.0,0.0,0.0
shoah,0.3703703703699646,0.0,0.0,0.0,0.0,0.0,0.0,0.0,0.0,0.6296296296300353,0.0
déclar,0.0,0.0,0.0,0.0,0.0,0.5542427497323067,0.4457572502676934,0.0,0.0,0.0,0.0
ouvri,0.26709613478663063,0.0,0.0,0.0,0.0,0.0,0.0,0.0,0.7329038652133694,0.0,0.0
prisonni,0.0,0.0,0.0,0.0,0.4393939393936192,0.0,0.0,0.0,0.0,0.5606060606063809,0.0
oppos,0.0,0.2692438743182108,0.0,0.2320080193592965,0.10806139280052683,0.0,0.0,0.0992126931418713,0.22253830428331708,0.0689357160967775,0.0
rwand,0.0,0.0,0.0,0.0,0.0,1.0,0.0,0.0,0.0,0.0,0.0
vietnam,0.0,0.0,0.0,0.4380434782613496,0.0,0.0,0.0,0.5619565217386504,0.0,0.0,0.0
massiv,0.0,0.0,0.0,0.0,0.0,0.0,0.0,1.0,0.0,0.0,0.0
gamal,0.0,0.0,0.0,0.0,0.0,0.0,0.0,1.0,0.0,0.0,0.0
traqu,0.0,0.0,0.0,0.0,0.0,0.0,0.6762860727733954,0.0,0.3237139272266047,0.0,0.0
malral,1.0,0.0,0.0,0.0,0.0,0.0,0.0,0.0,0.0,0.0,0.0
sourc,0.0,0.0,0.0,0.0,0.0,1.0,0.0,0.0,0.0,0.0,0.0
britann,0.0,0.0,0.0,0.0,0.0,0.0,0.0,0.5900305188202002,0.0,0.4099694811797998,0.0
systémat,0.5405405405408287,0.0,0.0,0.0,0.0,0.0,0.0,0.0,0.0,0.4594594594591714,0.0
ouvr,0.0,0.0,1.0,0.0,0.0,0.0,0.0,0.0,0.0,0.0,0.0
system,0.0,0.0,0.0,0.0,0.0,0.0,0.0,0.0,0.0,1.0,0.0
construct,0.0,0.047618305380561776,0.870316104495374,0.08206559012406422,0.0,0.0,0.0,0.0,0.0,0.0,0.0
nomm,0.0,0.0,0.0,0.0,0.0,0.0,0.3430935709732247,0.0,0.6569064290267753,0.0,0.0
enti,0.0,0.0,0.0,0.0,0.0,0.0,0.0,0.0,1.0,0.0,0.0
yougoslav,0.0,0.0,0.0,0.0,0.0,1.0,0.0,0.0,0.0,0.0,0.0
glorieux,1.0,0.0,0.0,0.0,0.0,0.0,0.0,0.0,0.0,0.0,0.0
extrêm,0.0,0.0,0.0,0.0,0.0,0.0,0.0,0.0,0.6174591909160331,0.0,0.382540809083967
acceptent,0.0,0.0,0.0,0.0,0.0,0.0,0.0,0.0,1.0,0.0,0.0
échec,0.0,0.0,0.0,1.0,0.0,0.0,0.0,0.0,0.0,0.0,0.0
accompagn,0.0,1.0,0.0,0.0,0.0,0.0,0.0,0.0,0.0,0.0,0.0
verdun,0.0,0.0,0.0,0.0,0.0,0.0,0.4574132492111257,0.0,0.0,0.0,0.5425867507888744
john,0.0,0.0,0.0,1.0,0.0,0.0,0.0,0.0,0.0,0.0,0.0
plupart,0.0,0.0,1.0,0.0,0.0,0.0,0.0,0.0,0.0,0.0,0.0
vérit,0.0,0.0,0.0,0.0,0.0,0.0,0.0,0.0,0.0,0.0,1.0
bidonvill,1.0,0.0,0.0,0.0,0.0,0.0,0.0,0.0,0.0,0.0,0.0
conduit,0.0,0.0,0.0,0.0,1.0,0.0,0.0,0.0,0.0,0.0,0.0
travail,0.19150516196508044,0.0,0.0,0.0,0.0,0.0,0.2744536187460869,0.0,0.262742239838656,0.16277938767020037,0.10851959177997622
way,0.0,0.0,0.0,1.0,0.0,0.0,0.0,0.0,0.0,0.0,0.0
grâc,1.0,0.0,0.0,0.0,0.0,0.0,0.0,0.0,0.0,0.0,0.0
artiller,0.0,0.0,0.0,0.0,0.0,0.0,0.0,0.0,0.0,0.0,1.0
moscou,0.0,0.0,0.0,0.0,0.0,0.0,0.0,0.0,1.0,0.0,0.0
conscienc,0.0,0.0,0.0,1.0,0.0,0.0,0.0,0.0,0.0,0.0,0.0
parl,0.0,0.5547226386806596,0.0,0.0,0.4452773613193403,0.0,0.0,0.0,0.0,0.0,0.0
blocus,0.0,0.0,0.0,1.0,0.0,0.0,0.0,0.0,0.0,0.0,0.0
sarkozy,0.0,1.0,0.0,0.0,0.0,0.0,0.0,0.0,0.0,0.0,0.0
qual,0.0,0.0,0.0,0.0,0.0,0.0,0.0,0.0,0.0,1.0,0.0
recherch,0.0,0.0,0.0,0.0,0.0,0.0,0.0,0.0,0.0,1.0,0.0
part,0.14909139939710606,0.0,0.0,0.04739010954402962,0.13243614396904652,0.0,0.09496390168319778,0.060795748471998846,0.31819073550945814,0.08448512632503492,0.11264683510012823
prend,0.0,0.0,0.0,0.0,0.0,0.0,0.0,0.0,1.0,0.0,0.0
leçon,0.08202499373451673,0.1361559660305323,0.10368800490030937,0.07821725708148144,0.10929276192194042,0.0974417395448317,0.0783688409129728,0.10034323054863867,0.07502471597608461,0.046480829782897304,0.09296165956579461
parlementair,0.0,0.0,0.0,0.0,0.7444751381220454,0.0,0.0,0.0,0.25552486187795465,0.0,0.0
énerget,0.0,0.0,0.48684210526315796,0.0,0.5131578947368421,0.0,0.0,0.0,0.0,0.0,0.0
nkvd,0.0,0.0,0.0,0.0,0.0,0.0,0.0,0.0,1.0,0.0,0.0
serv,0.0,0.0,0.0,0.0,0.0,0.0,1.0,0.0,0.0,0.0,0.0
grev,1.0,0.0,0.0,0.0,0.0,0.0,0.0,0.0,0.0,0.0,0.0
répons,0.0,0.0,0.0,1.0,0.0,0.0,0.0,0.0,0.0,0.0,0.0
ben,0.2962169878656715,0.0,0.0,0.0,0.0,0.7037830121343285,0.0,0.0,0.0,0.0,0.0
plein,0.0,0.0,0.0,0.0,0.0,0.0,1.0,0.0,0.0,0.0,0.0
xé,1.0,0.0,0.0,0.0,0.0,0.0,0.0,0.0,0.0,0.0,0.0
final,0.0,0.0,0.0,0.0,0.0,0.0,0.0,0.0,0.0,1.0,0.0
géopolit,0.0,0.0,0.0,0.0,0.0,0.0,0.0,0.0,0.0,0.0,1.0
individual,1.0,0.0,0.0,0.0,0.0,0.0,0.0,0.0,0.0,0.0,0.0
tunis,0.0,0.0,0.0,0.0,0.0,0.0,0.0,1.0,0.0,0.0,0.0
indépend,0.0,0.0,0.0,0.0,0.0,0.0,0.0,1.0,0.0,0.0,0.0
grec,0.0,0.0,1.0,0.0,0.0,0.0,0.0,0.0,0.0,0.0,0.0
danemark,0.0,0.0,1.0,0.0,0.0,0.0,0.0,0.0,0.0,0.0,0.0
pauvr,0.0,0.0,0.0,0.0,0.0,0.0,0.0,1.0,0.0,0.0,0.0
initi,0.0,0.0,1.0,0.0,0.0,0.0,0.0,0.0,0.0,0.0,0.0
indochin,0.0,0.0,0.0,0.0,0.0,0.0,0.0,1.0,0.0,0.0,0.0
secrétariat,1.0,0.0,0.0,0.0,0.0,0.0,0.0,0.0,0.0,0.0,0.0
 un,0.0,0.0,0.0,0.0,0.0,0.0,0.0,0.0,1.0,0.0,0.0
adhes,0.0,0.0,1.0,0.0,0.0,0.0,0.0,0.0,0.0,0.0,0.0
rend,0.0,0.0,0.0,0.0,0.0,0.0,0.0,0.0,0.0,1.0,0.0
adher,0.0,0.0,0.0,0.0,0.0,0.0,0.0,0.0,0.0,1.0,0.0
euro en,0.0,0.0,1.0,0.0,0.0,0.0,0.0,0.0,0.0,0.0,0.0
émergent,0.0,0.0,0.0,0.0,0.0,1.0,0.0,0.0,0.0,0.0,0.0
longu,0.0,0.0,0.0,0.0,0.0,0.0,0.0,1.0,0.0,0.0,0.0
individuel,0.0,0.0,0.0,0.6758620689659992,0.0,0.0,0.0,0.0,0.3241379310340008,0.0,0.0
ant,0.0,0.0,0.0,0.0,0.0,0.0,0.0,0.0,0.0,1.0,0.0
âge,0.0,0.0,0.0,0.0,0.0,0.0,0.0,0.0,1.0,0.0,0.0
immigr,1.0,0.0,0.0,0.0,0.0,0.0,0.0,0.0,0.0,0.0,0.0
entrent,0.0,0.0,0.0,0.0,0.0,0.0,0.0,0.0,0.0,1.0,0.0
perçu,0.0,0.0,0.0,0.0,0.0,0.0,0.0,0.0,0.0,1.0,0.0
horair,1.0,0.0,0.0,0.0,0.0,0.0,0.0,0.0,0.0,0.0,0.0
fusill,0.0,0.0,0.0,0.0,0.0,0.0,0.0,0.0,0.0,1.0,0.0
eurosceptic,0.0,0.0,1.0,0.0,0.0,0.0,0.0,0.0,0.0,0.0,0.0
bipolair,0.0,0.0,0.0,1.0,0.0,0.0,0.0,0.0,0.0,0.0,0.0
lif,0.0,0.0,0.0,1.0,0.0,0.0,0.0,0.0,0.0,0.0,0.0
jour,0.0,1.0,0.0,0.0,0.0,0.0,0.0,0.0,0.0,0.0,0.0
méditerranéen,0.0,0.0,1.0,0.0,0.0,0.0,0.0,0.0,0.0,0.0,0.0
lib,0.0,0.0,0.0,0.0,0.0,0.0,0.0,0.0,0.0,1.0,0.0
laden,0.0,0.0,0.0,0.0,0.0,1.0,0.0,0.0,0.0,0.0,0.0
solidar,0.0,0.0,1.0,0.0,0.0,0.0,0.0,0.0,0.0,0.0,0.0
avion,0.0,0.0,0.0,0.0,0.0,0.0,0.0,0.0,0.0,0.0,1.0
zon,0.0,0.0,0.2032599836998997,0.0,0.0,0.0,0.6145069274657348,0.0,0.0,0.0,0.18223308883436548
susceptibl,0.0,0.0,0.0,0.0,0.0,0.0,0.0,0.0,1.0,0.0,0.0
satellit,0.0,0.0,0.0,1.0,0.0,0.0,0.0,0.0,0.0,0.0,0.0
enjeux,0.0,0.0,0.0,0.0,0.0,1.0,0.0,0.0,0.0,0.0,0.0
satellis,0.0,0.0,0.3064611736807868,0.6935388263192132,0.0,0.0,0.0,0.0,0.0,0.0,0.0
milli,0.0,0.0,0.0,0.0,0.0,0.0,0.3251121076232507,0.0,0.0,0.28923766816122437,0.385650224215525
syndical,0.0,0.0,0.0,0.0,0.0,0.0,0.0,0.0,1.0,0.0,0.0
mis,0.0,0.0,0.16655753166502507,0.06282150614054739,0.0,0.0,0.06294325324531294,0.0,0.2410294521308743,0.3919845357271789,0.07466372109106134
unissent,0.0,0.0,0.0,0.0,0.0,0.0,0.0,0.0,1.0,0.0,0.0
salair,0.35344262295027923,0.0,0.0,0.0,0.0,0.0,0.0,0.0,0.6465573770497208,0.0,0.0
pratiqu,0.5113974231914384,0.0,0.0,0.0,0.0,0.0,0.48860257680856156,0.0,0.0,0.0,0.0
rentr,0.0,0.0,0.0,0.0,0.0,0.0,0.0,1.0,0.0,0.0,0.0
aout,0.0,0.0,0.0,0.2941838140352945,0.41106224825953985,0.0,0.29475393770516567,0.0,0.0,0.0,0.0
attaqu,0.0,0.0,0.0,0.0,0.0,1.0,0.0,0.0,0.0,0.0,0.0
dévast,0.0,0.0,0.0,0.0,0.0,0.0,0.0,0.0,0.0,0.0,1.0
victim,0.1639344262292697,0.0,0.0,0.0,0.0,0.0,0.0,0.0,0.0,0.2786885245902434,0.5573770491804868
ensembl,0.0,0.0,0.0,0.0,0.40232223285390906,0.0,0.28848687239514387,0.0,0.13808833595135095,0.0,0.17110255879959613
chart,0.0,0.0,0.0,0.0,0.0,0.0,0.0,1.0,0.0,0.0,0.0
réclam,0.0,0.0,0.0,0.0,1.0,0.0,0.0,0.0,0.0,0.0,0.0
embrigad,0.0,0.0,0.0,0.0,0.0,0.0,0.0,0.0,1.0,0.0,0.0
pert,0.0,0.0,0.0,0.0,1.0,0.0,0.0,0.0,0.0,0.0,0.0
concentrationnair,0.0,0.0,0.0,0.0,0.0,0.0,0.0,0.0,0.0,1.0,0.0
paix,0.0,0.0,0.35802469135755927,0.0,0.0,0.0,0.0,0.0,0.0,0.0,0.6419753086424407
mitterand,0.0,1.0,0.0,0.0,0.0,0.0,0.0,0.0,0.0,0.0,0.0
charl,0.0,0.5211438304558622,0.0,0.0,0.27888237413635575,0.0,0.19997379540778198,0.0,0.0,0.0,0.0
compt,0.0,0.0,1.0,0.0,0.0,0.0,0.0,0.0,0.0,0.0,0.0
ravitaill,0.0,0.0,0.0,1.0,0.0,0.0,0.0,0.0,0.0,0.0,0.0
plac,0.06774790352627161,0.22491391541088349,0.08564029856017077,0.12920586629986214,0.0,0.0,0.12945626526556858,0.0,0.24786431494238134,0.11517143599486213,0.0
contest,0.0,0.0,0.0,0.0,0.0,1.0,0.0,0.0,0.0,0.0,0.0
mitraill,0.0,0.0,0.0,0.0,0.0,0.0,0.0,0.0,0.0,0.0,1.0
culturel,0.47419278639547013,0.0,0.14985707929024455,0.0,0.0,0.14082954439356576,0.0,0.0,0.0,0.10076596710879632,0.13435462281192323
commissariat,0.0,0.0,0.0,0.0,1.0,0.0,0.0,0.0,0.0,0.0,0.0
jean,0.0,0.0,0.2691933505352771,0.0,0.4256165136838493,0.0,0.3051901357808737,0.0,0.0,0.0,0.0
charg,0.0,0.0,0.0,0.0,0.4246311010218901,0.0,0.3044835414300962,0.0,0.0,0.2708853575480137,0.0
 développ,0.0,0.0,0.0,0.0,0.0,0.0,0.0,0.0,1.0,0.0,0.0
tradit,0.0,0.0,0.0,0.0,0.0,0.0,0.0,0.0,0.0,1.0,0.0
réquisit,0.0,0.0,0.0,0.0,0.0,0.0,1.0,0.0,0.0,0.0,0.0
maréchal,0.0,0.0,0.0,0.0,0.0,0.0,1.0,0.0,0.0,0.0,0.0
don,0.0,0.5059765721016012,0.0,0.14533369624194128,0.20307438096480054,0.0,0.14561535069165707,0.0,0.0,0.0,0.0
bandung,0.0,0.0,0.0,0.0,0.0,0.0,0.0,1.0,0.0,0.0,0.0
médiatis,0.0,0.0,0.0,0.0,0.0,1.0,0.0,0.0,0.0,0.0,0.0
matignon,0.0,0.0,0.0,0.0,0.0,0.0,0.0,0.0,1.0,0.0,0.0
dens,0.0,0.0,0.0,0.0,0.0,0.0,1.0,0.0,0.0,0.0,0.0
boyal,0.0,0.0,0.0,0.0,0.0,0.0,0.0,0.0,0.0,0.0,1.0
tirent,0.0,0.0,0.0,0.0,0.0,0.0,0.0,0.0,0.0,0.0,1.0
camp,0.0,0.17585436634902887,0.0,0.0,0.0,0.0,0.0,0.0,0.1937986894462416,0.6303469442047296,0.0
mrp,0.0,0.0,0.0,0.0,1.0,0.0,0.0,0.0,0.0,0.0,0.0
destruct,0.0,0.0,0.0,0.0,0.0,0.0,1.0,0.0,0.0,0.0,0.0
souffrent,0.0,0.0,0.0,0.0,0.0,0.0,0.0,0.0,0.0,0.0,1.0
occidental,0.0,0.0,0.0,1.0,0.0,0.0,0.0,0.0,0.0,0.0,0.0
royaum,0.0,0.0,0.7343324250686505,0.0,0.0,0.0,0.0,0.0,0.26566757493134946,0.0,0.0
diffus,0.0,0.0,0.0,0.0,0.0,0.0,0.0,0.0,0.4466119096507708,0.0,0.5533880903492292
ville emblémat,0.0,0.0,0.0,1.0,0.0,0.0,0.0,0.0,0.0,0.0,0.0
oussam,0.0,0.0,0.0,0.0,0.0,1.0,0.0,0.0,0.0,0.0,0.0
israël,0.0,0.0,0.0,0.0,0.0,0.0,0.0,0.0,0.0,1.0,0.0
salt,0.0,0.0,0.0,1.0,0.0,0.0,0.0,0.0,0.0,0.0,0.0
nanc,0.0,0.0,0.0,0.0,0.0,0.5117647058829651,0.0,0.0,0.0,0.0,0.48823529411703487
dot,0.0,0.0,0.0,0.0,1.0,0.0,0.0,0.0,0.0,0.0,0.0
premi,0.017275813619106888,0.11470674901311036,0.15286880205016437,0.03294768322721711,0.0460377087256173,0.020522834010224176,0.0,0.02113393576729284,0.03160287983020348,0.014684441576223822,0.5482191521808396
affair,1.0,0.0,0.0,0.0,0.0,0.0,0.0,0.0,0.0,0.0,0.0
encontr,0.0,0.0,0.0,0.0,0.0,0.0,0.0,0.0,1.0,0.0,0.0
devenu,0.0,0.0,0.0,0.0,0.0,1.0,0.0,0.0,0.0,0.0,0.0
golf,0.0,0.0,0.0,0.0,0.0,1.0,0.0,0.0,0.0,0.0,0.0
conflit,0.0,0.0,0.0,0.0,0.0,1.0,0.0,0.0,0.0,0.0,0.0
monétair,0.0,0.0,1.0,0.0,0.0,0.0,0.0,0.0,0.0,0.0,0.0
opposit,0.0,0.0,0.0,0.0,0.0,0.0,0.0,0.0,1.0,0.0,0.0
fond,0.0,0.17778519651058336,0.27078053007049346,0.3063957641995286,0.1427086577395764,0.0,0.10232985147981827,0.0,0.0,0.0,0.0
avec françois,0.0,1.0,0.0,0.0,0.0,0.0,0.0,0.0,0.0,0.0,0.0
froid,0.0,0.0,0.0,0.8464620955570749,0.0,0.03195479396888415,0.0,0.09871890444467,0.0,0.02286420602937104,0.0
septembr,0.0,0.0,0.0,0.0,0.0,0.5450274079877176,0.0,0.0,0.0,0.194988253719388,0.2599843382928943
espoir,0.0,0.0,0.0,0.0,0.0,0.0,0.0,0.0,0.0,0.0,1.0
cachemir,0.0,0.0,0.0,0.0,0.0,1.0,0.0,0.0,0.0,0.0,0.0
empir,0.0,0.0,0.0,0.0,0.0,0.0,0.0,0.0,0.0,0.0,1.0
président d,0.0,1.0,0.0,0.0,0.0,0.0,0.0,0.0,0.0,0.0,0.0
ottoman,0.0,0.0,0.0,0.0,0.0,0.0,0.0,0.0,0.0,0.0,1.0
pris,0.0,0.0,0.0,0.43074851496266964,0.30094186788565097,0.26830961715167945,0.0,0.0,0.0,0.0,0.0
économ,0.05882517572551493,0.0,0.33462474960715544,0.14023603303994975,0.03919028599002721,0.06988147381355822,0.0,0.14392462348716373,0.18831695865337753,0.02500069968325322,0.0
européenne ,0.0,0.0,1.0,0.0,0.0,0.0,0.0,0.0,0.0,0.0,0.0
principal,0.0,0.0,0.0,0.0,0.0,1.0,0.0,0.0,0.0,0.0,0.0
idéolog,0.0,0.0,0.0,0.35080789502978493,0.0,0.0,0.0,0.0,0.3364892054359922,0.31270289953422287,0.0
comme l,0.0,0.0,0.0,0.0,0.0,1.0,0.0,0.0,0.0,0.0,0.0
décident,0.0,0.0,0.0,0.0,0.0,0.0,0.0,0.0,0.0,1.0,0.0
accordées al,0.0,0.0,0.0,0.0,0.0,0.0,0.0,0.0,1.0,0.0,0.0
noir,0.0,0.0,0.0,0.0,0.0,0.0,0.0,1.0,0.0,0.0,0.0
adolf,0.0,0.0,0.0,0.0,0.0,0.0,0.0,0.0,0.5183199285077521,0.4816800714922479,0.0
inde,0.0,0.0,0.0,0.0,0.0,0.3268450932681715,0.0,0.6731549067318285,0.0,0.0,0.0
rétabl,0.0,0.0,0.0,0.0,1.0,0.0,0.0,0.0,0.0,0.0,0.0
solut,0.0,0.0,0.0,0.0,0.0,0.0,0.0,0.0,0.0,1.0,0.0
restaur,0.0,0.0,0.0,0.0,1.0,0.0,0.0,0.0,0.0,0.0,0.0
meilleur,0.0,0.0,0.0,0.0,1.0,0.0,0.0,0.0,0.0,0.0,0.0
prolong,0.0,0.0,0.0,0.0,1.0,0.0,0.0,0.0,0.0,0.0,0.0
bris,0.0,0.0,0.0,0.0,0.0,0.0,0.0,0.0,0.0,1.0,0.0
bush,0.0,0.0,0.0,0.0,0.0,1.0,0.0,0.0,0.0,0.0,0.0
univer,0.0,0.0,0.0,0.0,0.0,0.0,0.0,0.0,0.0,1.0,0.0
suiv,0.4497767857143055,0.0,0.0,0.0,0.0,0.0,0.0,0.5502232142856944,0.0,0.0,0.0
répandr,0.0,0.0,0.0,0.0,0.0,0.0,0.0,0.0,0.0,0.0,1.0
rich,0.0,0.0,0.0,0.0,0.0,0.0,0.0,1.0,0.0,0.0,0.0
concentr,0.0,0.0,0.0,0.0,0.0,0.3039767624400714,0.2444774349073706,0.0,0.2340451881488726,0.21750061450368555,0.0
les femm,0.0,0.0,0.0,0.0,0.0,0.0,0.0,0.0,0.0,0.0,1.0
européen,0.016249138987568083,0.026972476501261243,0.9037854433855294,0.0,0.0,0.019303194026248225,0.0,0.019877978959976235,0.0,0.013811768139416846,0.0
témoignag,0.0,0.0,0.0,0.0,0.0,0.0,0.0,0.0,0.0,1.0,0.0
rapproch,0.0,0.0,1.0,0.0,0.0,0.0,0.0,0.0,0.0,0.0,0.0
contribu,0.0,0.0,0.0,0.0,0.0,0.0,0.0,0.0,0.0,1.0,0.0
c,0.0,0.0,0.0,0.0,0.0,1.0,0.0,0.0,0.0,0.0,0.0
périod,1.0,0.0,0.0,0.0,0.0,0.0,0.0,0.0,0.0,0.0,0.0
précept,0.0,0.0,0.0,0.0,0.0,1.0,0.0,0.0,0.0,0.0,0.0
express,0.0,0.0,0.0,0.315034281240113,0.0,0.0,0.0,0.4041506784139474,0.0,0.2808150403459395,0.0
db,0.0,0.0,0.0,0.0,0.0,0.0,1.0,0.0,0.0,0.0,0.0
nouvelle constitution décid,0.0,0.0,0.0,0.0,1.0,0.0,0.0,0.0,0.0,0.0,0.0
représent,0.0,0.0,0.0,0.0,0.0,0.0,0.0,1.0,0.0,0.0,0.0
est stopp,1.0,0.0,0.0,0.0,0.0,0.0,0.0,0.0,0.0,0.0,0.0
moulin,0.0,0.0,0.0,0.0,0.3173431734315956,0.0,0.6826568265684042,0.0,0.0,0.0,0.0
proces,0.0,0.0,0.0,0.0,0.0,0.0,0.0,0.0,0.6827545615075322,0.31724543849246784,0.0
mainten,0.0,0.0,0.0,0.0,0.0,0.0,0.0,0.0,0.0,0.0,1.0
discour,0.0,0.0,0.0,0.4171364148819712,0.5828635851180289,0.0,0.0,0.0,0.0,0.0,0.0
populair,0.0,0.0,0.0,0.0,0.29389312977137627,0.0,0.0,0.0,0.7061068702286237,0.0,0.0
import,0.0,0.0,0.0,0.0,0.3055208122241006,0.0,0.21907500101316887,0.2805029789649093,0.0,0.1949012077978213,0.0
« de,0.0,0.0,1.0,0.0,0.0,0.0,0.0,0.0,0.0,0.0,0.0
stalingrad,0.0,0.0,0.0,0.0,0.0,0.0,0.0,0.0,0.0,1.0,0.0
djihad,0.0,0.0,0.0,0.0,0.0,1.0,0.0,0.0,0.0,0.0,0.0
ghetto,0.0,0.0,0.0,0.0,0.0,0.0,0.0,0.0,0.0,1.0,0.0
nouveau,0.0,0.0,0.0582870257941677,0.0,0.0,0.1917151571298267,0.02202707370121756,0.6204747907114845,0.04217428582509246,0.039193000102949356,0.026128666735261683
démocrat,0.0,0.0,0.0,0.027612199239416144,0.23149470821769297,0.0,0.027665711253376576,0.0,0.6886144381744541,0.024612943115060158,0.0
bat,0.0,0.0,0.0,0.0,0.0,0.0,0.0,1.0,0.0,0.0,0.0
conquêt,0.0,0.0,0.0,0.52871467639091,0.0,0.0,0.0,0.0,0.0,0.47128532360909003,0.0
mobilis,0.0,0.0,0.0,0.0,0.0,0.0,0.0,0.0,0.0,0.1304347826080378,0.8695652173919621
bas,0.0,0.0,0.0,0.0,0.0,0.0,1.0,0.0,0.0,0.0,0.0
organ,0.0,0.5547226386806596,0.0,0.0,0.4452773613193403,0.0,0.0,0.0,0.0,0.0,0.0
furent,0.0,0.0,0.0,0.0,0.0,0.0,0.0,0.0,1.0,0.0,0.0
primo,0.0,0.0,0.0,0.0,0.0,0.0,0.0,0.0,0.0,1.0,0.0
hostil,1.0,0.0,0.0,0.0,0.0,0.0,0.0,0.0,0.0,0.0,0.0
aupres,0.0,0.0,0.0,0.0,1.0,0.0,0.0,0.0,0.0,0.0,0.0
mettr,0.0,0.0,0.48684210526315796,0.0,0.5131578947368421,0.0,0.0,0.0,0.0,0.0,0.0
rfa,0.0,0.0,0.2489167067883701,0.7510832932116298,0.0,0.0,0.0,0.0,0.0,0.0,0.0
politique qu,0.0,0.0,0.0,0.0,0.0,1.0,0.0,0.0,0.0,0.0,0.0
euro,0.0,0.0,1.0,0.0,0.0,0.0,0.0,0.0,0.0,0.0,0.0
integr,0.0,0.0,1.0,0.0,0.0,0.0,0.0,0.0,0.0,0.0,0.0
partit,0.0,0.0,0.0,0.0,0.0,0.0,0.0,1.0,0.0,0.0,0.0
viennent,0.0,0.0,0.0,0.0,0.0,0.0,0.0,0.0,0.0,0.0,1.0
maqu,0.0,0.0,0.0,0.0,0.0,0.0,1.0,0.0,0.0,0.0,0.0
ethniqu,0.0,0.0,0.0,0.0,0.0,0.0,0.0,0.0,0.0,0.42857142857107344,0.5714285714289264
féminin,1.0,0.0,0.0,0.0,0.0,0.0,0.0,0.0,0.0,0.0,0.0
génocid,0.0,0.0,0.0,0.0,0.0,0.0,0.0,0.0,0.0,0.48387096774188115,0.5161290322581188
homosexuel,0.0,0.0,0.0,0.0,0.0,0.0,0.0,0.0,0.0,1.0,0.0
ampleur,0.0,0.0,0.0,0.0,1.0,0.0,0.0,0.0,0.0,0.0,0.0
sto,0.0,0.0,0.0,0.0,0.0,0.0,1.0,0.0,0.0,0.0,0.0
réduisent,0.0,0.0,1.0,0.0,0.0,0.0,0.0,0.0,0.0,0.0,0.0
abat,0.0,0.0,0.0,0.0,0.0,0.0,0.0,0.0,0.0,1.0,0.0
fair,0.0,0.0,0.0,0.0,0.0,0.0,0.0,0.0,0.0,1.0,0.0
habit,0.0,0.0,0.0,0.44527896995686667,0.0,0.5547210300431333,0.0,0.0,0.0,0.0,0.0
cooper,0.0,0.0,0.0,0.0,0.0,0.0,1.0,0.0,0.0,0.0,0.0
national,0.0,0.10252331914095876,0.0,0.0,0.49377447218699594,0.0,0.17703154526095485,0.22667066341109046,0.0,0.0,0.0
 permettent,0.0,0.0,0.0,0.0,0.0,0.0,1.0,0.0,0.0,0.0,0.0
menac,0.0,0.0,0.34728033472798253,0.0,0.0,0.6527196652720175,0.0,0.0,0.0,0.0,0.0
fédéral,0.0,0.0,0.0,1.0,0.0,0.0,0.0,0.0,0.0,0.0,0.0
dizain,0.0,0.0,0.0,0.0,0.0,0.0,0.0,0.0,0.0,0.42857142857107344,0.5714285714289264
professionnel,1.0,0.0,0.0,0.0,0.0,0.0,0.0,0.0,0.0,0.0,0.0
répartit,0.0,0.0,0.0,0.0,1.0,0.0,0.0,0.0,0.0,0.0,0.0
rejet,0.0,0.0,0.0,0.0,0.0,0.0,1.0,0.0,0.0,0.0,0.0
rme,0.0,0.0,0.0,0.0,0.0,0.0,0.0,1.0,0.0,0.0,0.0
corrupt,0.0,0.0,0.0,0.0,0.0,0.0,0.0,0.0,1.0,0.0,0.0
faim,0.0,0.0,0.0,0.0,0.0,0.0,0.0,0.0,0.0,0.42857142857107344,0.5714285714289264
foss,0.0,0.0,0.0,0.0,0.0,0.0,0.0,0.0,0.0,0.0,1.0
terror,0.0,0.0,0.0,0.0,0.0,1.0,0.0,0.0,0.0,0.0,0.0
apog,0.0,0.0,0.0,1.0,0.0,0.0,0.0,0.0,0.0,0.0,0.0
majeur,1.0,0.0,0.0,0.0,0.0,0.0,0.0,0.0,0.0,0.0,0.0
repris,0.0,0.0,0.0,1.0,0.0,0.0,0.0,0.0,0.0,0.0,0.0
réprim,0.0,0.0,0.0,0.0,0.0,0.0,1.0,0.0,0.0,0.0,0.0
inhumain,0.0,0.0,0.0,0.0,0.0,0.0,0.0,0.0,0.0,1.0,0.0
daech,0.0,0.0,0.0,0.0,0.0,1.0,0.0,0.0,0.0,0.0,0.0
vari,0.0,0.0,0.0,0.0,0.0,1.0,0.0,0.0,0.0,0.0,0.0
organisatoin,0.0,0.0,0.0,0.0,0.0,0.0,1.0,0.0,0.0,0.0,0.0
obtiennent,0.0,0.0,0.0,0.0,1.0,0.0,0.0,0.0,0.0,0.0,0.0
particip,0.0,0.0,0.0,0.0,0.0,0.0,0.0,1.0,0.0,0.0,0.0
 diplomat,0.0,0.0,0.0,0.0,0.0,0.0,0.0,1.0,0.0,0.0,0.0
échel,0.0,0.0,0.0,0.0,0.0,0.0,0.0,0.0,0.0,0.0,1.0
favor,0.0,0.0,0.0,0.0,0.0,0.0,0.0,1.0,0.0,0.0,0.0
bien,0.0,0.0,1.0,0.0,0.0,0.0,0.0,0.0,0.0,0.0,0.0
restructur,0.0,0.0,0.0,1.0,0.0,0.0,0.0,0.0,0.0,0.0,0.0
rendr,0.0,0.0,0.0,1.0,0.0,0.0,0.0,0.0,0.0,0.0,0.0
implos,0.0,0.0,0.0,1.0,0.0,0.0,0.0,0.0,0.0,0.0,0.0
atroc,0.0,0.0,0.0,0.0,0.0,0.0,0.0,0.0,0.0,1.0,0.0
ressourc,0.0,0.0,0.0,0.0,0.0,1.0,0.0,0.0,0.0,0.0,0.0
garant,0.0,0.0,0.0,0.0,1.0,0.0,0.0,0.0,0.0,0.0,0.0
émancip,0.6204772902230833,0.0,0.0,0.0,0.0,0.0,0.0,0.37952270977691677,0.0,0.0,0.0
altern,0.0,1.0,0.0,0.0,0.0,0.0,0.0,0.0,0.0,0.0,0.0
signatur,0.0,0.0,0.0,0.0,0.0,0.0,1.0,0.0,0.0,0.0,0.0
accord,0.0,0.0,0.0,0.0,0.0,0.0,0.0,0.0,1.0,0.0,0.0
supprim,0.0,1.0,0.0,0.0,0.0,0.0,0.0,0.0,0.0,0.0,0.0
contrôl,0.0,0.0,0.0,0.0,0.161958453933104,0.14439669386840076,0.0,0.0,0.5558870867841516,0.0,0.13775776541434365
mandat,0.0,1.0,0.0,0.0,0.0,0.0,0.0,0.0,0.0,0.0,0.0
étranger,1.0,0.0,0.0,0.0,0.0,0.0,0.0,0.0,0.0,0.0,0.0
par charl,0.0,0.0,0.0,0.0,1.0,0.0,0.0,0.0,0.0,0.0,0.0
bilan,0.0,0.0,0.0,0.0,0.0,0.0,0.0,0.0,0.0,0.0,1.0
isol,0.0,0.0,0.0,0.34562403569940076,0.0,0.0,0.34629384972120475,0.0,0.0,0.3080821145793944,0.0
ue,0.0,0.0,1.0,0.0,0.0,0.0,0.0,0.0,0.0,0.0,0.0
octobr,0.0,0.0,0.0,1.0,0.0,0.0,0.0,0.0,0.0,0.0,0.0
comm,0.0,0.0,0.0,0.0,0.0,0.0,0.0,0.0,0.0,1.0,0.0
élarg,0.0,0.0,1.0,0.0,0.0,0.0,0.0,0.0,0.0,0.0,0.0
porté par,1.0,0.0,0.0,0.0,0.0,0.0,0.0,0.0,0.0,0.0,0.0
nucléaire qu,0.0,0.0,0.0,1.0,0.0,0.0,0.0,0.0,0.0,0.0,0.0
group,0.0,0.0,0.0,0.0,0.0,0.0,1.0,0.0,0.0,0.0,0.0
personnalité autour,0.0,0.0,0.0,0.0,0.0,0.0,0.0,0.0,1.0,0.0,0.0
indonésien,0.0,0.0,0.0,0.0,0.0,0.0,0.0,1.0,0.0,0.0,0.0
popul,0.441516690073511,0.0,0.0,0.07017012514732614,0.0,0.0874167583161426,0.0,0.0,0.06730603840647088,0.25019279104250275,0.08339759701404666
bras,0.0,0.0,0.0,1.0,0.0,0.0,0.0,0.0,0.0,0.0,0.0
valéry,0.0,1.0,0.0,0.0,0.0,0.0,0.0,0.0,0.0,0.0,0.0
mond,0.019623998945252585,0.0,0.0,0.07485208108338581,0.0,0.7693080453998752,0.0,0.09602611890846892,0.01794922352505813,0.0,0.022240532137959377
ile,0.0,0.0,0.0,1.0,0.0,0.0,0.0,0.0,0.0,0.0,0.0
vivent,0.0,0.0,0.0,0.0,0.0,0.0,0.0,0.0,0.0,0.0,1.0
candidat,0.0,0.0,1.0,0.0,0.0,0.0,0.0,0.0,0.0,0.0,0.0
met,0.0,0.5369822976520868,0.0,0.30847919226820314,0.0,0.0,0.15453851007970998,0.0,0.0,0.0,0.0
dictatur,0.0,0.0,0.0,0.0,0.0,0.0,0.0,0.0,1.0,0.0,0.0
endigu,0.0,0.0,0.0,1.0,0.0,0.0,0.0,0.0,0.0,0.0,0.0
conséquent,0.0,0.0,0.0,0.0,0.0,0.0,0.0,0.0,0.0,0.0,1.0
gendarm,0.0,0.0,0.0,0.0,0.0,1.0,0.0,0.0,0.0,0.0,0.0
hébreu,0.0,0.0,0.0,0.0,0.0,0.0,0.0,0.0,0.0,1.0,0.0
s,0.0,0.0,1.0,0.0,0.0,0.0,0.0,0.0,0.0,0.0,0.0
context,0.0,0.0,0.2732952779729687,0.0,0.0,0.0,0.0,0.5289586025291173,0.19774611949791415,0.0,0.0
anéant,0.0,0.0,0.0,0.0,0.0,0.0,0.0,0.0,0.0,1.0,0.0
uni,0.0,0.0,0.5418139368987234,0.0,0.0,0.0,0.0,0.2621680339826057,0.19601802911867103,0.0,0.0
âgé,0.0,0.0,0.0,0.0,0.0,0.0,0.0,0.0,0.0,0.0,1.0
immédiat,0.0,0.0,0.0,0.0,0.0,0.0,0.0,0.0,0.0,1.0,0.0
hitl,0.0,0.0,0.0,0.0,0.0,0.0,0.0,0.0,1.0,0.0,0.0
acced,0.0,0.0,0.0,0.0,0.0,0.0,0.0,1.0,0.0,0.0,0.0
con,0.0,0.0,0.0,0.07111054891881996,0.0,0.797294901493644,0.0,0.0,0.06820807753422826,0.0633864720533078,0.0
pakistan,0.0,0.0,0.0,0.0,0.0,0.4926650366744992,0.0,0.5073349633255008,0.0,0.0,0.0
ci,1.0,0.0,0.0,0.0,0.0,0.0,0.0,0.0,0.0,0.0,0.0
assur,0.0,0.0,0.0,0.0,0.0,0.0,0.0,0.0,0.0,1.0,0.0
déclench,0.0,0.0,0.0,1.0,0.0,0.0,0.0,0.0,0.0,0.0,0.0
point,0.0,0.0,0.0,1.0,0.0,0.0,0.0,0.0,0.0,0.0,0.0
résid,0.5222868217055087,0.0,0.0,0.0,0.0,0.0,0.0,0.0,0.47771317829449134,0.0,0.0
arriv,0.0,0.47048008171594885,0.0,0.2702757916244422,0.0,0.0,0.0,0.0,0.25924412665960894,0.0,0.0
ce,0.0,0.0,1.0,0.0,0.0,0.0,0.0,0.0,0.0,0.0,0.0
effroi,0.0,0.0,0.0,0.0,0.0,0.0,0.0,0.0,0.0,1.0,0.0
cult,0.0,0.0,0.0,0.0,0.0,0.0,0.10049340621445409,0.5146858323254773,0.3848207614600687,0.0,0.0
exploit,0.0,0.0,0.0,0.0,0.0,0.0,0.0,1.0,0.0,0.0,0.0
anti,1.0,0.0,0.0,0.0,0.0,0.0,0.0,0.0,0.0,0.0,0.0
truman et,0.0,0.0,0.0,1.0,0.0,0.0,0.0,0.0,0.0,0.0,0.0
déclin,0.0,0.0,0.0,1.0,0.0,0.0,0.0,0.0,0.0,0.0,0.0
drogu,0.0,0.0,0.0,0.0,0.0,1.0,0.0,0.0,0.0,0.0,0.0
respect,0.0,0.0,0.0,1.0,0.0,0.0,0.0,0.0,0.0,0.0,0.0
travaillent,0.0,0.0,0.0,0.0,0.0,0.0,0.0,0.0,0.0,0.0,1.0
prononc,0.0,0.0,0.0,0.0,1.0,0.0,0.0,0.0,0.0,0.0,0.0
des étranger,0.0,0.0,0.0,0.0,0.0,0.0,0.0,0.0,0.0,0.0,1.0
revend,0.0,0.0,0.0,0.0,0.0,0.0,0.0,1.0,0.0,0.0,0.0
redevient,0.0,0.0,0.0,0.0,1.0,0.0,0.0,0.0,0.0,0.0,0.0
gandh,0.0,0.0,0.0,0.0,0.0,0.0,0.0,1.0,0.0,0.0,0.0
contrecarr,0.0,0.0,0.0,1.0,0.0,0.0,0.0,0.0,0.0,0.0,0.0
véget,0.0,0.0,0.0,0.0,0.0,0.0,1.0,0.0,0.0,0.0,0.0
union,0.0,0.0,0.7878778531305444,0.0,0.07549689501742318,0.0673104847144839,0.0,0.06931476713754851,0.0,0.0,0.0
perpetr,0.0,0.0,0.0,0.0,0.0,1.0,0.0,0.0,0.0,0.0,0.0
une «,0.0,0.0,0.0,0.0,0.0,1.0,0.0,0.0,0.0,0.0,0.0
terribl,0.0,0.0,0.0,0.0,0.0,0.0,0.0,0.0,0.0,1.0,0.0
revient,0.0,0.0,0.0,0.0,1.0,0.0,0.0,0.0,0.0,0.0,0.0
territorial,0.0,0.0,0.0,0.0,0.0,0.0,0.0,0.0,0.0,0.0,1.0
cent,0.0,0.0,0.0,0.0,0.0,1.0,0.0,0.0,0.0,0.0,0.0
milieu,0.4497767857143055,0.0,0.0,0.0,0.0,0.0,0.0,0.5502232142856944,0.0,0.0,0.0
retr,0.0,0.0,0.0,1.0,0.0,0.0,0.0,0.0,0.0,0.0,0.0
laos,0.0,0.0,0.0,0.0,0.0,0.0,0.0,1.0,0.0,0.0,0.0
recul,1.0,0.0,0.0,0.0,0.0,0.0,0.0,0.0,0.0,0.0,0.0
barri,0.0,0.0,1.0,0.0,0.0,0.0,0.0,0.0,0.0,0.0,0.0
dur,0.0,0.0,0.0,0.0,0.0,0.0,0.0,0.0,1.0,0.0,0.0
évas,0.0,0.0,0.0,0.0,0.0,0.0,1.0,0.0,0.0,0.0,0.0
devis,0.0,0.0,0.0,0.0,0.0,0.0,1.0,0.0,0.0,0.0,0.0
artisan,0.0,0.0,1.0,0.0,0.0,0.0,0.0,0.0,0.0,0.0,0.0
gaz,0.0,0.0,0.0,0.0,0.0,0.0,0.0,0.0,0.0,0.0,1.0
regroup,0.0,0.0,0.0,0.0,0.0,0.0,0.5291970802921003,0.0,0.0,0.47080291970789967,0.0
suppress,0.0,0.0,0.0,0.0,0.0,0.0,0.0,0.0,1.0,0.0,0.0
républ,0.0,0.510186744666346,0.01494333956269543,0.022545077096555326,0.44103045412121544,0.0,0.011294384553187835,0.0,0.0,0.0,0.0
renforc,0.0,0.3963414634141676,0.6036585365858324,0.0,0.0,0.0,0.0,0.0,0.0,0.0,0.0
plan ,0.0,0.0,0.0,0.0,1.0,0.0,0.0,0.0,0.0,0.0,0.0
nouvel,0.09695328896901259,0.160935930847466,0.061279450591828745,0.0,0.19377555997980553,0.23035166969487597,0.04631586381935542,0.05930269412109375,0.0,0.041205147811680984,0.10988039416488093
surhomm,0.0,0.0,0.0,0.0,0.0,0.0,0.0,0.0,1.0,0.0,0.0
nagasak,0.0,0.0,0.0,0.0,0.0,0.0,0.0,0.0,0.0,1.0,0.0
chut,0.0,0.0,0.2899842543094282,0.43750042236301245,0.0,0.2725153233275593,0.0,0.0,0.0,0.0,0.0
cor,0.0,0.0,0.0,0.6161841128431499,0.0,0.38381588715685017,0.0,0.0,0.0,0.0,0.0
belgiqu,0.0,0.0,0.0,0.0,0.0,0.0,0.0,0.0,0.0,0.0,1.0
minister,1.0,0.0,0.0,0.0,0.0,0.0,0.0,0.0,0.0,0.0,0.0
jeuness,0.5222868217055087,0.0,0.0,0.0,0.0,0.0,0.0,0.0,0.47771317829449134,0.0,0.0
résist,0.031147379901141765,0.0,0.0,0.0,0.2075088958279682,0.0,0.6249395816219926,0.0,0.05697832390092469,0.07942581874797291,0.0
rang,0.0,1.0,0.0,0.0,0.0,0.0,0.0,0.0,0.0,0.0,0.0
sabotag,0.0,0.0,0.0,0.0,0.0,0.0,1.0,0.0,0.0,0.0,0.0
tigr,0.0,0.0,0.0,0.0,0.0,0.0,0.0,0.0,0.0,0.0,1.0
land,0.0,0.0,0.0,0.0,0.0,0.0,0.0,0.0,0.0,0.0,1.0
emploi,0.701754385965671,0.0,0.0,0.0,0.0,0.0,0.0,0.0,0.0,0.29824561403432903,0.0
exerc,0.0,0.2665142644176595,0.0,0.0,0.21393172035687807,0.19073430489693238,0.0,0.0,0.1468547987606381,0.0,0.18196491156789196
adenau,0.0,0.0,1.0,0.0,0.0,0.0,0.0,0.0,0.0,0.0,0.0
propagand,0.0,0.0,0.0,0.0,0.0,0.0,0.0,0.0,0.3376236983378626,0.10458573184116664,0.5577905698209709
électoral,0.0,0.0,0.0,0.0,0.0,0.0,0.0,0.0,1.0,0.0,0.0
appui,0.0,0.0,0.0,0.0,1.0,0.0,0.0,0.0,0.0,0.0,0.0
brésil,0.0,0.0,0.0,0.0,0.0,1.0,0.0,0.0,0.0,0.0,0.0
présidentiel,0.0,1.0,0.0,0.0,0.0,0.0,0.0,0.0,0.0,0.0,0.0
ait,0.0,0.0,1.0,0.0,0.0,0.0,0.0,0.0,0.0,0.0,0.0
align,0.0,0.0,0.0,0.0,0.0,0.0,0.0,1.0,0.0,0.0,0.0
abol,0.0,0.6351351351348038,0.0,0.36486486486519626,0.0,0.0,0.0,0.0,0.0,0.0,0.0
budget,1.0,0.0,0.0,0.0,0.0,0.0,0.0,0.0,0.0,0.0,0.0
n,0.0,0.0,0.0,0.3522734350617699,0.0,0.1462854344795932,0.11765204517214335,0.0,0.0,0.10466975053240414,0.2791193347540895
vaincu,0.0,0.0,0.0,0.0,0.0,0.0,0.0,0.0,0.0,1.0,0.0
amélior,0.0,0.0,0.0,1.0,0.0,0.0,0.0,0.0,0.0,0.0,0.0
égal,1.0,0.0,0.0,0.0,0.0,0.0,0.0,0.0,0.0,0.0,0.0
cass,0.0,0.0,0.0,0.0,0.0,0.0,0.0,0.0,0.0,0.0,1.0
milic,0.0,0.0,0.0,0.0,0.0,0.0,1.0,0.0,0.0,0.0,0.0
occas,0.0,1.0,0.0,0.0,0.0,0.0,0.0,0.0,0.0,0.0,0.0
aid,0.1924922085964712,0.0,0.0,0.3671128001479217,0.25648286172460016,0.0,0.18391212953100688,0.0,0.0,0.0,0.0
extrem,0.0,0.0,0.0,0.0,0.0,0.0,0.0,1.0,0.0,0.0,0.0
vagu,0.0,0.0,0.0,0.0,0.0,0.0,0.0,1.0,0.0,0.0,0.0
puissanc,0.0,0.0,0.0,0.0,0.0,0.498871192646612,0.0,0.34248394532417487,0.0,0.0,0.15864486202921313
lanc,0.5113974231914384,0.0,0.0,0.0,0.0,0.0,0.48860257680856156,0.0,0.0,0.0,0.0
métropol,0.0,0.0,0.0,0.0,0.0,0.0,0.0,1.0,0.0,0.0,0.0
ein,0.0,0.0,0.0,1.0,0.0,0.0,0.0,0.0,0.0,0.0,0.0
ive,0.0,0.0,0.1917098445595855,0.0,0.8082901554404145,0.0,0.0,0.0,0.0,0.0,0.0
mitterrand,0.0,1.0,0.0,0.0,0.0,0.0,0.0,0.0,0.0,0.0,0.0
soif,0.0,0.0,0.0,0.0,0.0,0.0,0.0,0.0,0.0,0.0,1.0
engag,0.0,0.0,0.0,0.0,0.0,0.0,0.4574132492111257,0.0,0.0,0.0,0.5425867507888744
portugal,0.0,0.0,1.0,0.0,0.0,0.0,0.0,0.0,0.0,0.0,0.0
conten,0.0,0.0,0.0,1.0,0.0,0.0,0.0,0.0,0.0,0.0,0.0
scient,0.0,0.0,0.0,0.0,0.0,0.0,0.0,0.0,0.0,1.0,0.0
électr,0.0,0.0,0.0,0.0,1.0,0.0,0.0,0.0,0.0,0.0,0.0
caracter,0.0,1.0,0.0,0.0,0.0,0.0,0.0,0.0,0.0,0.0,0.0
canon,0.0,0.0,0.0,0.0,0.0,0.0,0.0,0.0,0.0,0.0,1.0
it,0.0,0.0,0.0,0.07111054891881996,0.0,0.797294901493644,0.0,0.0,0.06820807753422826,0.0633864720533078,0.0
iv,0.0,0.0,0.0,0.0,1.0,0.0,0.0,0.0,0.0,0.0,0.0
vot,0.20010816657626004,0.0,0.0,0.0,0.79989183342374,0.0,0.0,0.0,0.0,0.0,0.0
de plus,0.0,1.0,0.0,0.0,0.0,0.0,0.0,0.0,0.0,0.0,0.0
démiss,0.0,1.0,0.0,0.0,0.0,0.0,0.0,0.0,0.0,0.0,0.0
brutal,0.0,0.0,0.0,0.0,0.0,0.0,0.0,0.0,0.0,1.0,0.0
raison,0.0,0.0,0.0,0.0,0.0,0.0,0.0,0.0,0.0,0.42857142857107344,0.5714285714289264
in,0.0,0.0,0.0,1.0,0.0,0.0,0.0,0.0,0.0,0.0,0.0
semain,0.0,0.0,0.0,0.0,0.0,0.0,0.0,0.0,1.0,0.0,0.0
la guerr,0.0,0.0,1.0,0.0,0.0,0.0,0.0,0.0,0.0,0.0,0.0
mod,0.0,0.0,0.0,1.0,0.0,0.0,0.0,0.0,0.0,0.0,0.0
 don,0.0,1.0,0.0,0.0,0.0,0.0,0.0,0.0,0.0,0.0,0.0
libéral,0.0,0.0,0.0,1.0,0.0,0.0,0.0,0.0,0.0,0.0,0.0
municipal,0.0,0.0,0.0,0.0,1.0,0.0,0.0,0.0,0.0,0.0,0.0
inscrir,0.0,0.0,0.0,0.0,0.0,0.0,0.0,1.0,0.0,0.0,0.0
marqu,0.0,0.0,0.0,0.0,0.0,0.0,0.22955475765830102,0.29392122816811334,0.0,0.2042245775027961,0.27229943667078965
mutat,0.0,1.0,0.0,0.0,0.0,0.0,0.0,0.0,0.0,0.0,0.0
puis,0.0,0.0,0.4606358460170005,0.08687039649269201,0.1213837702342096,0.10822167466689361,0.0,0.2228883125892044,0.0,0.0,0.0
armé,0.0,0.0,0.0,0.0,0.0,0.0,0.574257425742765,0.0,0.0,0.25544554455448915,0.17029702970274585
pay,0.06364031155485929,0.0,0.28156758355817263,0.06068602243041965,0.08479641512578416,0.1134024346861838,0.03040181550043431,0.31141115232255473,0.0,0.05409426482159117,0.0
référendum,0.0,0.0,0.0,0.0,1.0,0.0,0.0,0.0,0.0,0.0,0.0
antisémit,0.0,0.0,0.0,0.0,0.0,0.0,0.0,0.0,1.0,0.0,0.0
par un,0.0,0.0,0.0,0.0,0.0,0.0,0.0,0.0,0.0,0.0,1.0
détent,0.0,0.0,0.0,0.7253401789216708,0.0,0.0,0.14534917538820252,0.0,0.0,0.12931064569012674,0.0
pac,0.0,0.0,1.0,0.0,0.0,0.0,0.0,0.0,0.0,0.0,0.0
établ,0.0,0.0,0.0,0.0,0.0,1.0,0.0,0.0,0.0,0.0,0.0
chômag,1.0,0.0,0.0,0.0,0.0,0.0,0.0,0.0,0.0,0.0,0.0
rôl,0.0,0.0,0.0,0.0,0.35930735930730756,0.6406926406926925,0.0,0.0,0.0,0.0,0.0
rda,0.0,0.0,0.0,1.0,0.0,0.0,0.0,0.0,0.0,0.0,0.0
 le,0.0,0.0,0.0,0.0,1.0,0.0,0.0,0.0,0.0,0.0,0.0
trad,0.0,0.0,0.0,0.0,0.0,1.0,0.0,0.0,0.0,0.0,0.0
agress,0.0,0.0,0.0,0.0,0.0,0.0,0.0,0.0,1.0,0.0,0.0
loi sur,1.0,0.0,0.0,0.0,0.0,0.0,0.0,0.0,0.0,0.0,0.0
intérieur ,0.0,0.0,0.0,0.0,0.0,0.0,1.0,0.0,0.0,0.0,0.0
décolonis,0.0,0.0,0.0,0.0,0.0,0.0,0.0,1.0,0.0,0.0,0.0
deviennent,0.0,0.0,0.0,0.3498235923498576,0.0,0.2179021653554623,0.0,0.22439056730089788,0.0,0.0,0.2078836749937823
lutt,0.0,0.0,0.0,0.0,0.3794823879792598,0.0,0.27210946424840016,0.3484081477723402,0.0,0.0,0.0
syndicat,0.0,0.0,0.0,0.0,1.0,0.0,0.0,0.0,0.0,0.0,0.0
pein,0.0,1.0,0.0,0.0,0.0,0.0,0.0,0.0,0.0,0.0,0.0
nanci,0.0,0.0,0.0,1.0,0.0,0.0,0.0,0.0,0.0,0.0,0.0
entier,0.0,0.0,0.0,0.0,0.0,0.0,0.0,0.0,0.0,1.0,0.0
ivg,1.0,0.0,0.0,0.0,0.0,0.0,0.0,0.0,0.0,0.0,0.0
éduc,0.0,0.0,0.0,0.0,0.0,0.0,0.0,0.0,1.0,0.0,0.0
hiroshim,0.0,0.0,0.0,0.0,0.0,0.0,0.0,0.0,0.0,1.0,0.0
syr,0.0,0.0,0.0,0.0,0.0,1.0,0.0,0.0,0.0,0.0,0.0
apais,0.0,0.0,0.0,1.0,0.0,0.0,0.0,0.0,0.0,0.0,0.0
connaissent,0.0,0.0,0.0,0.0,0.0,1.0,0.0,0.0,0.0,0.0,0.0
orphelin,0.0,0.0,0.0,0.0,0.0,0.0,0.0,0.0,0.0,0.0,1.0
moyen,0.0,0.0,0.0,0.0,0.0,0.7220361687878755,0.0,0.0,0.2779638312121245,0.0,0.0
régim,0.0,0.0,0.0,0.0,0.20272183687487275,0.0,0.472428311709609,0.046530446429071906,0.2783194049864464,0.0,0.0
respons,0.0,0.0,0.0,0.0,0.0,0.5829145728640602,0.0,0.0,0.0,0.41708542713593977,0.0
caen,0.0,0.0,0.0,0.0,1.0,0.0,0.0,0.0,0.0,0.0,0.0
colonis,0.0,0.0,0.0,0.0,0.0,0.0,0.0,1.0,0.0,0.0,0.0
guerr,0.0,0.0,0.0,0.1759330666111794,0.0,0.051909737409226865,0.134524911653465,0.07127391571482683,0.11102113494519877,0.20221925483034708,0.25311797883575615
tzigan,0.0,0.0,0.0,0.0,0.0,0.0,0.0,0.0,0.0,1.0,0.0
les accord,0.0,0.0,0.0,0.0,0.0,0.0,0.0,0.0,1.0,0.0,0.0
fêt,1.0,0.0,0.0,0.0,0.0,0.0,0.0,0.0,0.0,0.0,0.0
annuel,0.0,0.0,0.0,0.0,0.0,0.0,0.0,0.0,1.0,0.0,0.0
interpos,0.0,0.0,0.0,1.0,0.0,0.0,0.0,0.0,0.0,0.0,0.0
désobéiss,0.0,0.0,0.0,0.0,0.0,0.0,0.0,1.0,0.0,0.0,0.0
pompidou,0.0,1.0,0.0,0.0,0.0,0.0,0.0,0.0,0.0,0.0,0.0
phas,0.0,0.0,0.0,0.0,0.0,0.0,0.0,1.0,0.0,0.0,0.0
étudi,1.0,0.0,0.0,0.0,0.0,0.0,0.0,0.0,0.0,0.0,0.0
object,0.0,0.0,0.0,0.0,0.0,0.0,0.0,0.0,0.0,0.42857142857107344,0.5714285714289264
la premi,0.0,0.0,0.0,0.0,0.0,0.0,0.0,0.0,0.0,0.0,1.0
natal,1.0,0.0,0.0,0.0,0.0,0.0,0.0,0.0,0.0,0.0,0.0
command,0.0,0.0,0.0,0.0,0.0,0.0,1.0,0.0,0.0,0.0,0.0
charbon,0.0,0.0,0.7914438502673797,0.0,0.20855614973262032,0.0,0.0,0.0,0.0,0.0,0.0
programm,0.0,0.2411692002957826,0.0,0.2770880173615081,0.19358716888607413,0.0,0.0,0.0,0.0,0.12349526290988418,0.164660350546751
model,0.0,0.0,0.0,1.0,0.0,0.0,0.0,0.0,0.0,0.0,0.0
méthod,0.0,0.0,0.0,0.0,0.0,0.0,0.0,0.0,0.0,0.42857142857107344,0.5714285714289264
soviet,0.0,0.0,0.2489167067883701,0.7510832932116298,0.0,0.0,0.0,0.0,0.0,0.0,0.0
entré,0.29433962264143276,0.0,0.37207547169818,0.0,0.0,0.0,0.0,0.0,0.0,0.0,0.3335849056603872
onu,0.0,0.0,0.0,0.20783366844531612,0.0,0.25891567852125763,0.0,0.5332506530334263,0.0,0.0,0.0
coup,0.0,0.0,0.0,0.5104166666672164,0.0,0.0,0.0,0.0,0.4895833333327836,0.0,0.0
califat,0.0,0.0,0.0,0.0,0.0,1.0,0.0,0.0,0.0,0.0,0.0
république ,0.0,0.0,0.0,0.0,1.0,0.0,0.0,0.0,0.0,0.0,0.0
just,0.0,0.0,0.0,0.0,0.0,0.0,0.0,0.0,0.0,0.0,1.0
remarqu,0.0,0.0,0.0,1.0,0.0,0.0,0.0,0.0,0.0,0.0,0.0
italien,0.0,0.0,0.0,0.0,0.0,0.0,0.0,0.0,0.0,1.0,0.0
frontali,0.0,0.0,0.0,0.0,0.0,1.0,0.0,0.0,0.0,0.0,0.0
autour,0.0,0.0,0.0,0.0,0.0,0.7365079365082906,0.0,0.0,0.0,0.26349206349170934,0.0
légalis,1.0,0.0,0.0,0.0,0.0,0.0,0.0,0.0,0.0,0.0,0.0
collabor,0.0,0.0,0.0,0.0,0.25851703406820337,0.0,0.7414829659317966,0.0,0.0,0.0,0.0
soutient,0.0,0.0,1.0,0.0,0.0,0.0,0.0,0.0,0.0,0.0,0.0
violent,0.0,0.0,0.0,0.0,0.0,1.0,0.0,0.0,0.0,0.0,0.0
démission,0.0,0.0,0.0,0.0,1.0,0.0,0.0,0.0,0.0,0.0,0.0
human,0.0,0.0,0.0,0.0,0.0,0.3178082191785086,0.0,0.0,0.0,0.6821917808214913,0.0
libr,0.0,0.0,0.32909297755732636,0.0,0.17344089357717163,0.0,0.497466128865502,0.0,0.0,0.0,0.0
touch,0.46874999999992784,0.0,0.0,0.0,0.0,0.0,0.0,0.0,0.0,0.0,0.5312500000000723
musiqu,1.0,0.0,0.0,0.0,0.0,0.0,0.0,0.0,0.0,0.0,0.0
participent,0.0,0.0,0.0,0.0,0.0,0.0,0.0,0.0,0.0,1.0,0.0
créent,0.0,0.0,0.0,0.0,0.0,0.0,0.0,0.0,0.0,0.0,1.0
rapid,0.0,0.0,0.0,0.0,0.5286624203815925,0.4713375796184075,0.0,0.0,0.0,0.0,0.0
europ,0.0,0.0,0.4888542427738708,0.22126091452389762,0.0,0.0,0.0,0.0,0.07074328559635495,0.1314849342634879,0.08765662284238881
recrudescent,0.0,0.0,0.0,0.0,0.0,1.0,0.0,0.0,0.0,0.0,0.0
majoritair,0.0,0.0,0.0,0.0,0.0,0.0,0.0,0.0,0.0,1.0,0.0
af,0.0,0.0,0.0,0.083476236396741,0.0,0.41597314908055777,0.0,0.32126958474259737,0.08006904307424889,0.0,0.09921198670585496
danger,0.0,0.0,0.0,0.0,0.0,0.0,0.0,0.0,0.0,0.0,1.0
priorit,0.0,0.0,0.0,0.0,1.0,0.0,0.0,0.0,0.0,0.0,0.0
rideau,0.0,0.0,0.0,1.0,0.0,0.0,0.0,0.0,0.0,0.0,0.0
lénin,0.0,0.0,0.0,0.0,0.0,0.0,0.0,0.0,1.0,0.0,0.0
maison,1.0,0.0,0.0,0.0,0.0,0.0,0.0,0.0,0.0,0.0,0.0
bloc,0.0,0.0,0.0,0.341960118795215,0.0,0.0,0.0,0.658039881204785,0.0,0.0,0.0
cub,0.0,0.0,0.0,1.0,0.0,0.0,0.0,0.0,0.0,0.0,0.0
idé,0.0,0.0,0.0,0.0,0.0,0.0,0.0,0.0,0.0,0.0,1.0
circulent,0.0,0.0,1.0,0.0,0.0,0.0,0.0,0.0,0.0,0.0,0.0
déroulent,0.0,0.0,0.0,0.0,0.0,0.0,0.0,0.0,1.0,0.0,0.0
féminis,1.0,0.0,0.0,0.0,0.0,0.0,0.0,0.0,0.0,0.0,0.0
bin,0.0,0.0,0.0,1.0,0.0,0.0,0.0,0.0,0.0,0.0,0.0
régularis,1.0,0.0,0.0,0.0,0.0,0.0,0.0,0.0,0.0,0.0,0.0
irland,0.0,0.0,1.0,0.0,0.0,0.0,0.0,0.0,0.0,0.0,0.0
obligatoir,0.0,0.46486486486449174,0.0,0.0,0.0,0.0,0.5351351351355083,0.0,0.0,0.0,0.0
format,0.0,0.0,0.0,0.0,0.0,0.0,0.0,0.0,1.0,0.0,0.0
détruit,0.0,0.0,0.0,0.0,1.0,0.0,0.0,0.0,0.0,0.0,0.0
publiqu,0.0,0.0,0.0,0.0,0.0,0.0,0.0,0.0,0.0,0.0,1.0
sortent,0.0,1.0,0.0,0.0,0.0,0.0,0.0,0.0,0.0,0.0,0.0
term,0.0,0.0,0.0,0.0,0.0,0.0,0.0,0.0,0.0,1.0,0.0
munich,0.0,0.0,0.0,0.0,0.0,0.0,0.0,0.0,1.0,0.0,0.0
mot,0.0,0.0,0.0,0.0,0.0,0.0,0.0,0.0,0.0,0.42857142857107344,0.5714285714289264
modernis,0.0,1.0,0.0,0.0,0.0,0.0,0.0,0.0,0.0,0.0,0.0
liby,0.0,0.0,0.0,0.0,0.0,1.0,0.0,0.0,0.0,0.0,0.0
légitimite d,0.0,0.0,1.0,0.0,0.0,0.0,0.0,0.0,0.0,0.0,0.0
référent,0.0,0.0,0.0,0.0,0.0,0.0,0.0,1.0,0.0,0.0,0.0
élu,0.0,1.0,0.0,0.0,0.0,0.0,0.0,0.0,0.0,0.0,0.0
et industriel,0.0,0.0,0.0,0.0,0.0,0.0,0.0,0.0,0.0,1.0,0.0
caractéris,0.0,0.0,0.0,0.0,0.0,0.0,0.0,0.0,0.0,1.0,0.0
press,0.0,0.0,0.0,0.0,0.0,0.0,0.0,0.0,0.4466119096507708,0.0,0.5533880903492292
world,0.0,0.0,0.0,0.0,0.0,1.0,0.0,0.0,0.0,0.0,0.0
américain,0.0,0.0,0.0,1.0,0.0,0.0,0.0,0.0,0.0,0.0,0.0
cré,0.15119918119153022,0.0,0.0,0.0,0.20146269277691134,0.17961734054850276,0.14445968280499358,0.1849657477107157,0.13829535496734657,0.0,0.0
juif,0.0,0.0,0.0,0.0,0.0,0.0,0.27155463857909923,0.0,0.05199339276681612,0.6764519686540847,0.0
léon,0.0,0.0,0.0,0.0,0.0,0.0,0.0,0.0,1.0,0.0,0.0
faibl,0.0,0.0,0.0,0.0,1.0,0.0,0.0,0.0,0.0,0.0,0.0
quinquennat,0.0,1.0,0.0,0.0,0.0,0.0,0.0,0.0,0.0,0.0,0.0
spectacl,1.0,0.0,0.0,0.0,0.0,0.0,0.0,0.0,0.0,0.0,0.0
femm,0.89195704580324,0.0,0.0,0.0,0.10804295419676004,0.0,0.0,0.0,0.0,0.0,0.0
confront,0.0,0.0,0.5801937567278518,0.0,0.0,0.0,0.0,0.0,0.4198062432721483,0.0,0.0
kennedy,0.0,0.0,0.0,1.0,0.0,0.0,0.0,0.0,0.0,0.0,0.0
doctrin,0.0,0.0,0.0,1.0,0.0,0.0,0.0,0.0,0.0,0.0,0.0
mariag,1.0,0.0,0.0,0.0,0.0,0.0,0.0,0.0,0.0,0.0,0.0
indépendant,0.0,0.0,0.0,0.0,0.0,0.0,0.0,1.0,0.0,0.0,0.0
collect,0.0,0.0,0.0,1.0,0.0,0.0,0.0,0.0,0.0,0.0,0.0
arc,0.0,0.0,0.0,0.0,0.0,1.0,0.0,0.0,0.0,0.0,0.0
soldat,0.0,0.0,0.0,0.0,0.0,0.0,0.0,0.0,0.0,0.1304347826080378,0.8695652173919621
démantel,0.0,0.0,0.0,0.0,0.0,0.0,0.0,0.0,1.0,0.0,0.0
mohand,0.0,0.0,0.0,0.0,0.0,0.0,0.0,1.0,0.0,0.0,0.0
héros,0.0,0.0,0.0,0.0,0.0,0.0,0.0,0.0,1.0,0.0,0.0
en afghanistan,0.0,0.0,0.0,0.0,0.0,1.0,0.0,0.0,0.0,0.0,0.0
rescap,1.0,0.0,0.0,0.0,0.0,0.0,0.0,0.0,0.0,0.0,0.0
normand,0.0,0.0,0.0,0.0,0.6765734265733683,0.0,0.32342657342663184,0.0,0.0,0.0,0.0
cohabit,0.0,1.0,0.0,0.0,0.0,0.0,0.0,0.0,0.0,0.0,0.0
la liber,0.0,0.0,0.0,0.0,0.0,0.0,1.0,0.0,0.0,0.0,0.0
europe »,0.0,0.0,1.0,0.0,0.0,0.0,0.0,0.0,0.0,0.0,0.0
tentent,0.0,0.0,0.0,0.0,0.0,0.0,0.0,1.0,0.0,0.0,0.0
universel,0.0,1.0,0.0,0.0,0.0,0.0,0.0,0.0,0.0,0.0,0.0
gur,0.0,0.0,0.0,0.0,0.0,0.0,0.0,0.0,1.0,0.0,0.0
homm,0.7708596920944615,0.0,0.0,0.0,0.0,0.0,0.0,0.0,0.028202881499198123,0.026209229531129606,0.17472819687521077
intern,0.0,0.0,0.0,0.0,0.0,1.0,0.0,0.0,0.0,0.0,0.0
japon,0.0,0.0,0.0,0.0,0.0,0.2589285714287633,0.0,0.0,0.0,0.7410714285712366,0.0
abdel,0.0,0.0,0.0,0.0,0.0,0.0,0.0,1.0,0.0,0.0,0.0
nazism,0.0,0.0,0.0,0.0,0.0,0.0,0.0,0.0,1.0,0.0,0.0
manifest,1.0,0.0,0.0,0.0,0.0,0.0,0.0,0.0,0.0,0.0,0.0
fragil,0.0,0.0,0.0,0.0,0.0,0.0,0.0,1.0,0.0,0.0,0.0
qaid,0.0,0.0,0.0,0.0,0.0,1.0,0.0,0.0,0.0,0.0,0.0
march,0.0,0.0,0.873581847650004,0.0,0.0,0.0,0.0,0.0,0.126418152349996,0.0,0.0
ouvert,0.0,0.0,0.0,0.0,0.0,0.0,1.0,0.0,0.0,0.0,0.0
nuremberg ,0.0,0.0,0.0,0.0,0.0,0.0,0.0,0.0,1.0,0.0,0.0
ich,0.0,0.0,0.0,1.0,0.0,0.0,0.0,0.0,0.0,0.0,0.0
cnr,0.0,0.0,0.0,0.0,0.6765734265733683,0.0,0.32342657342663184,0.0,0.0,0.0,0.0
personnal,0.0,0.0,0.0,0.0,0.0,0.0,0.0,0.0,1.0,0.0,0.0
armement,0.0,0.0,0.0,1.0,0.0,0.0,0.0,0.0,0.0,0.0,0.0
gueul,0.0,0.0,0.0,0.0,0.0,0.0,0.0,0.0,0.0,0.0,1.0
colonial,0.0,0.0,0.0,0.0,0.0,0.0,0.0,1.0,0.0,0.0,0.0
exil,0.0,0.0,0.0,0.0,0.0,0.0,1.0,0.0,0.0,0.0,0.0
per,0.0,0.0,1.0,0.0,0.0,0.0,0.0,0.0,0.0,0.0,0.0
pes,0.0,0.0,0.0,0.0,0.0,0.0,0.0,1.0,0.0,0.0,0.0
évit,0.0,1.0,0.0,0.0,0.0,0.0,0.0,0.0,0.0,0.0,0.0
religion,0.0,0.0,0.0,0.0,0.0,0.0,0.0,0.0,0.0,0.42857142857107344,0.5714285714289264
victoir,0.0,0.0,0.0,0.0,0.39416150425751356,0.0,0.0,0.0,0.2705746875235022,0.0,0.33526380821898416
larg,0.2636250665719129,0.43759985797983253,0.0,0.0,0.0,0.0,0.0,0.0,0.0,0.0,0.2987750754482546
catastroph,0.0,0.0,0.0,0.0,0.0,0.0,0.0,0.0,0.0,1.0,0.0
sociale ,0.0,0.0,0.0,0.0,1.0,0.0,0.0,0.0,0.0,0.0,0.0
mont,0.2442947341994606,0.0,0.3088135998984284,0.0,0.0,0.0,0.0,0.0,0.44689166590211093,0.0,0.0
vivr,1.0,0.0,0.0,0.0,0.0,0.0,0.0,0.0,0.0,0.0,0.0
mur,0.0,0.0,0.13849987250953535,0.7313436207944572,0.0,0.13015650669600728,0.0,0.0,0.0,0.0,0.0
sépar,0.0,0.0,0.0,0.0,0.0,0.0,0.0,0.0,0.0,0.0,1.0
sarajevo,0.0,0.0,0.0,0.0,0.0,0.0,0.0,0.0,0.0,0.0,1.0
glasnost,0.0,0.0,0.0,1.0,0.0,0.0,0.0,0.0,0.0,0.0,0.0
encourag,0.0,0.40023835534815955,0.3047969013805215,0.0,0.0,0.0,0.0,0.29496474327131905,0.0,0.0,0.0
capitul,0.0,0.0,0.0,0.0,0.0,0.0,0.0,0.0,0.0,1.0,0.0
persécu,0.0,0.0,0.0,0.0,0.0,0.0,0.0,0.0,0.0,1.0,0.0
roudy,1.0,0.0,0.0,0.0,0.0,0.0,0.0,0.0,0.0,0.0,0.0
empêch,0.0,0.0,0.0,0.3377098665674644,0.0,0.0,0.3383643430522109,0.0,0.3239257903803246,0.0,0.0
acronym,0.0,0.0,0.0,0.0,0.0,1.0,0.0,0.0,0.0,0.0,0.0
tour,0.0,0.0,0.0,0.0,0.0,1.0,0.0,0.0,0.0,0.0,0.0
ration,0.0,0.0,0.0,0.0,0.0,0.0,0.0,0.0,0.0,0.0,1.0
usag,0.0,0.0,0.0,0.0,0.0,0.0,0.0,0.0,0.0,0.0,1.0
grav,0.0,0.0,0.0,0.4380434782613496,0.0,0.0,0.0,0.5619565217386504,0.0,0.0,0.0
sécur,0.0,0.0,0.0,0.0,1.0,0.0,0.0,0.0,0.0,0.0,0.0
logiqu,0.0,0.0,0.0,0.0,0.0,0.0,0.0,1.0,0.0,0.0,0.0
provisoir,0.0,0.0,0.0,0.0,0.8070907194998388,0.0,0.1929092805001612,0.0,0.0,0.0,0.0
einsatzgruppen,0.0,0.0,0.0,0.0,0.0,0.0,0.0,0.0,0.0,1.0,0.0
prestigi,0.0,0.0,0.0,0.0,0.0,0.0,1.0,0.0,0.0,0.0,0.0
concrètes »,0.0,0.0,1.0,0.0,0.0,0.0,0.0,0.0,0.0,0.0,0.0
jug,0.0,0.0,0.0,0.0,0.2589721853279572,0.0,0.0,0.0,0.3555462284657833,0.16520639408826007,0.22027519211799948
 désindustrialis,1.0,0.0,0.0,0.0,0.0,0.0,0.0,0.0,0.0,0.0,0.0
communaut,0.0,0.0,0.8992248062016954,0.0,0.0,0.0,0.0,0.0,0.0,0.10077519379830463,0.0
intervent,0.0,0.0,0.0,0.0,0.0,0.0,0.0,0.5190930787588576,0.0,0.0,0.48090692124114254
instabl,0.0,0.0,0.0,0.0,0.0,0.0,0.0,0.0,1.0,0.0,0.0
che,0.0,0.0,0.0,0.0,0.0,0.0,0.0,0.0,0.4466119096507708,0.0,0.5533880903492292
sfio dan,0.0,0.0,0.0,0.0,0.0,0.0,0.0,0.0,1.0,0.0,0.0
sub,0.0,0.0,0.0,0.0,0.0,0.0,0.0,0.0,0.0,0.0,1.0
censur,0.0,0.0,0.0,0.21903323262842106,0.0,0.0,0.0,0.0,0.0,0.0,0.780966767371579
choc,1.0,0.0,0.0,0.0,0.0,0.0,0.0,0.0,0.0,0.0,0.0
aci,0.0,0.0,1.0,0.0,0.0,0.0,0.0,0.0,0.0,0.0,0.0
combattr,0.0,0.0,0.0,0.0,0.0,0.0,0.4574132492111257,0.0,0.0,0.0,0.5425867507888744
chronolog,0.08016199569596229,0.13306351474116768,0.10133298430288923,0.07644074251099287,0.10681044291385622,0.09522858765835589,0.07658888348465914,0.09806417835758374,0.07332071220426042,0.0681376963414889,0.09085026178878361
totalitair,0.0,0.0,0.0,0.0,0.0,0.0,0.0,0.0,1.0,0.0,0.0
expans,0.0,0.0,0.0,1.0,0.0,0.0,0.0,0.0,0.0,0.0,0.0
nehru,0.0,0.0,0.0,0.0,0.0,0.0,0.0,1.0,0.0,0.0,0.0
regl,0.0,0.0,0.0,0.0,1.0,0.0,0.0,0.0,0.0,0.0,0.0
soudan,0.0,0.0,0.0,0.0,0.0,1.0,0.0,0.0,0.0,0.0,0.0
terr,0.0,0.0,0.0,0.0,0.0,0.0,0.0,0.0,0.0,0.0,1.0
il men,0.0,0.0,0.0,0.0,0.0,0.0,0.0,0.0,0.0,1.0,0.0
le,0.0,0.0,0.0,0.0,0.0,0.0,0.0,1.0,0.0,0.0,0.0
rassembl,0.0,0.0,0.0,0.0,0.0,0.0,0.0,0.4094151604882284,0.30611189179353393,0.28447294771823767,0.0
libert,0.0,0.0,0.0,0.510416666666543,0.0,0.0,0.0,0.0,0.489583333333457,0.0,0.0
rmation,0.0,0.0,0.0,0.0,0.0,0.4926650366744992,0.0,0.5073349633255008,0.0,0.0,0.0
désarm,0.0,0.0,0.0,1.0,0.0,0.0,0.0,0.0,0.0,0.0,0.0
tomb,0.0,0.0,0.0,1.0,0.0,0.0,0.0,0.0,0.0,0.0,0.0
assassin,0.0,0.0,0.0,0.4380434782613496,0.0,0.0,0.0,0.5619565217386504,0.0,0.0,0.0
perestroïka ,0.0,0.0,0.0,1.0,0.0,0.0,0.0,0.0,0.0,0.0,0.0
remport,0.0,0.0,0.0,0.0,0.0,0.0,0.0,0.0,1.0,0.0,0.0
« per,0.0,0.0,1.0,0.0,0.0,0.0,0.0,0.0,0.0,0.0,0.0
plan,0.0,0.0,0.0,0.7815800591468431,0.2184199408531568,0.0,0.0,0.0,0.0,0.0,0.0
commerc,0.0,0.0,0.0,0.0,0.0,1.0,0.0,0.0,0.0,0.0,0.0
politique d,0.0,1.0,0.0,0.0,0.0,0.0,0.0,0.0,0.0,0.0,0.0
fuir,0.0,0.0,0.0,0.0,0.0,0.0,1.0,0.0,0.0,0.0,0.0
maroc,0.0,0.0,0.0,0.0,0.0,0.0,0.0,1.0,0.0,0.0,0.0
débouch,0.0,0.0,0.0,1.0,0.0,0.0,0.0,0.0,0.0,0.0,0.0
civil,0.0,0.0,0.0,0.0,0.0,0.28016599588207414,0.0,0.09616946922323717,0.0,0.2672848006692077,0.3563797342254811
marshall,0.0,0.0,0.0,1.0,0.0,0.0,0.0,0.0,0.0,0.0,0.0
auschwitz,0.0,0.0,0.0,0.0,0.0,0.0,0.0,0.0,0.0,1.0,0.0
ferm,0.0,0.0,0.0,0.0,0.0,0.0,0.0,0.0,0.0,1.0,0.0
débarqu,0.0,0.0,0.0,0.0,0.410828025477344,0.0,0.5891719745226561,0.0,0.0,0.0,0.0
 american,0.0,0.0,0.0,1.0,0.0,0.0,0.0,0.0,0.0,0.0,0.0
surviv,0.0,0.0,0.0,0.0,0.0,0.0,0.0,0.0,0.0,1.0,0.0
champ,0.0,0.0,0.0,0.0,0.0,0.0,0.0,0.0,0.0,0.0,1.0
restent,0.0,0.0,0.0,0.0,0.0,1.0,0.0,0.0,0.0,0.0,0.0
»,0.0,0.0,0.0,0.2093824818055468,0.0,0.2608451640806014,0.1048941309045303,0.06715306643502271,0.0,0.23329901528748026,0.12442614148681849
révis,0.07504837248099354,0.12457524455592539,0.09486884008494115,0.07156450219169788,0.09999688549492795,0.08915384971822463,0.07170319308742325,0.091808554920869,0.0686435021022748,0.1275822332175965,0.08505482214512601
effort,0.0,0.0,0.0,0.0,0.0,0.0,0.0,0.5900305188202002,0.0,0.4099694811797998,0.0
pentagon,0.0,0.0,0.0,0.0,0.0,1.0,0.0,0.0,0.0,0.0,0.0
accroitr,0.0,0.0,1.0,0.0,0.0,0.0,0.0,0.0,0.0,0.0,0.0
sur l,1.0,0.0,0.0,0.0,0.0,0.0,0.0,0.0,0.0,0.0,0.0
allemagn,0.0,0.0,0.0,0.18011607216599457,0.08389190027899643,0.0,0.18046513432121247,0.0,0.2879406595850807,0.26758623364871575,0.0
intervention,0.0,1.0,0.0,0.0,0.0,0.0,0.0,0.0,0.0,0.0,0.0
janvi,0.0,0.0,0.0,0.0,0.0,0.0,0.0,0.0,1.0,0.0,0.0
allemand,0.0,0.0,0.0,0.28079823459664,0.0,0.0,0.46890402870283643,0.0,0.0,0.2502977367005236,0.0
aménag,0.0,1.0,0.0,0.0,0.0,0.0,0.0,0.0,0.0,0.0,0.0
perestroïk,0.0,0.0,0.0,1.0,0.0,0.0,0.0,0.0,0.0,0.0,0.0
log,0.0,0.0,0.0,0.0,1.0,0.0,0.0,0.0,0.0,0.0,0.0
citoyen,0.0,0.0,0.0,0.0,1.0,0.0,0.0,0.0,0.0,0.0,0.0
clandestin,0.0,0.0,0.0,0.0,0.0,0.0,1.0,0.0,0.0,0.0,0.0
extermin,0.0,0.0,0.0,0.0,0.0,0.0,0.0,0.0,0.0,1.0,0.0
*,0.0,0.0,0.0,0.3017169789445769,0.0,0.5638108847503597,0.0,0.0,0.0,0.13447213630506347,0.0
racism,1.0,0.0,0.0,0.0,0.0,0.0,0.0,0.0,0.0,0.0,0.0
long,0.0,0.0,0.0,0.0,0.0,0.0,0.0,0.0,0.0,0.0,1.0
 en,0.0,0.0,0.0,0.0,0.0,0.0,0.0,0.0,1.0,0.0,0.0
lor,0.0,0.0,0.0,0.0,0.0,0.0,0.0,0.0,1.0,0.0,0.0
reli,0.0,0.0,0.0,0.0,0.0,0.0,0.0,0.0,0.0,0.0,1.0
joseph,0.0,0.0,0.0,0.0,0.0,0.0,0.0,0.0,1.0,0.0,0.0
racist,0.0,0.0,0.0,0.0,0.0,0.0,0.0,0.0,1.0,0.0,0.0
 et,0.0,0.0,0.0,0.0,0.0,0.0,0.0,0.0,1.0,0.0,0.0
vichy,0.0,0.0,0.0,0.0,0.23658872077061097,0.0,0.7634112792293891,0.0,0.0,0.0,0.0
suit,0.0,0.0,0.0,0.0,0.0,0.0,0.4385201305765759,0.5614798694234241,0.0,0.0,0.0
smic,1.0,0.0,0.0,0.0,0.0,0.0,0.0,0.0,0.0,0.0,0.0
occident,1.0,0.0,0.0,0.0,0.0,0.0,0.0,0.0,0.0,0.0,0.0
berlin et ,0.0,0.0,0.0,1.0,0.0,0.0,0.0,0.0,0.0,0.0,0.0
élabor,0.0,0.0,0.0,0.0,0.0,0.0,0.0,0.0,1.0,0.0,0.0
repos,0.0,0.0,0.0,0.0,0.0,0.0,1.0,0.0,0.0,0.0,0.0
conseil,0.0,0.0,0.0,0.0,0.5024166542085844,0.0,0.2401733359912478,0.0,0.11496237604007657,0.0,0.14244763376009123
essentiel,0.0,0.0,0.0,0.0,1.0,0.0,0.0,0.0,0.0,0.0,0.0
mutil,0.0,0.0,0.0,0.0,0.0,0.0,0.0,0.0,0.0,0.0,1.0
épargn,0.0,0.0,0.0,0.0,0.0,0.0,0.0,0.0,0.0,1.0,0.0
form,0.0,0.0,0.0,0.0,0.0,0.0,0.0,1.0,0.0,0.0,0.0
nucléair,0.0,0.0,0.0,1.0,0.0,0.0,0.0,0.0,0.0,0.0,0.0
forc,0.0,0.0,0.0,0.0,0.0,0.0,0.4333478112207404,0.0,0.13828538688286132,0.2570200811379881,0.17134672075841026
écho,0.0,0.0,0.0,0.0,0.0,0.0,0.0,0.0,0.0,0.0,1.0
multipolair,0.0,0.0,0.0,0.0,0.0,1.0,0.0,0.0,0.0,0.0,0.0
but,0.0,0.0,0.0,0.28339357215368133,0.0,0.35304693205682103,0.0,0.36355949578949764,0.0,0.0,0.0
endet,0.0,0.0,0.0,0.0,0.0,0.0,0.0,0.0,0.0,0.0,1.0
monnet,0.0,0.0,0.48684210526318283,0.0,0.513157894736817,0.0,0.0,0.0,0.0,0.0,0.0
philipp,0.0,0.0,0.0,0.0,0.0,0.0,1.0,0.0,0.0,0.0,0.0
humain,0.0,0.0,0.0,0.0,0.4018475750579221,0.0,0.0,0.0,0.0,0.2563510392606781,0.3418013856813997
atom,0.0,0.0,0.0,0.0,0.0,0.0,0.0,0.0,0.0,1.0,0.0
la tchécoslovaqu,0.0,0.0,0.0,0.0,0.0,0.0,0.0,0.0,1.0,0.0,0.0
sdn,0.0,0.0,0.0,0.0,0.0,0.0,0.0,0.0,0.0,0.0,1.0
nicol,0.0,1.0,0.0,0.0,0.0,0.0,0.0,0.0,0.0,0.0,0.0
heinrich,0.0,0.0,0.0,0.0,0.0,0.0,0.0,0.0,0.0,1.0,0.0
fort,0.30013074880321444,0.0,0.0,0.0,0.1999519718374123,0.35654086544510455,0.1433764139142687,0.0,0.0,0.0,0.0
écol,0.0,0.0,0.0,0.0,0.0,0.0,0.0,0.0,0.0,0.0,1.0
nuremberg,0.0,0.0,0.0,0.0,0.0,0.0,0.0,0.0,0.5183199285077691,0.4816800714922308,0.0
 ,0.0,0.0,0.0,0.0,0.6623251547811387,0.1968355881680986,0.0,0.0,0.0,0.14083925705076264,0.0
gestapo,0.0,0.0,0.0,0.0,0.0,0.0,0.0,0.0,1.0,0.0,0.0
bric,0.0,0.0,0.0,0.0,0.0,1.0,0.0,0.0,0.0,0.0,0.0
général,0.0,0.4204712131822874,0.0,0.0,0.33751337923022956,0.0,0.24201540758748302,0.0,0.0,0.0,0.0
apparten,0.0,0.0,0.0,0.0,0.0,0.0,0.0,0.38149528612152395,0.0,0.26507344880484157,0.35343126507363454
chrono,0.08016199569596229,0.13306351474116768,0.10133298430288923,0.07644074251099287,0.10681044291385622,0.09522858765835589,0.07658888348465914,0.09806417835758374,0.07332071220426042,0.0681376963414889,0.09085026178878361
hauss,0.0,0.0,0.0,0.0,0.0,0.0,0.0,0.0,1.0,0.0,0.0
troubl,0.0,0.0,0.0,0.0,0.0,0.0,0.0,0.0,0.0,0.0,1.0
cil,0.0,0.0,0.0,0.0,0.0,0.0,0.0,0.0,1.0,0.0,0.0
antisémite naz,0.0,0.0,0.0,0.0,0.0,0.0,1.0,0.0,0.0,0.0,0.0
espagn,0.0,0.0,1.0,0.0,0.0,0.0,0.0,0.0,0.0,0.0,0.0
reven,0.0,1.0,0.0,0.0,0.0,0.0,0.0,0.0,0.0,0.0,0.0
volont,0.0,0.0,0.0,0.0,0.0,0.0,0.0,0.5900305188202002,0.0,0.4099694811797998,0.0
collectivisation de l,0.0,0.0,0.0,0.0,0.0,0.0,0.0,0.0,1.0,0.0,0.0
supérior,0.0,0.0,0.0,0.0,0.0,0.0,0.0,0.0,0.0,1.0,0.0
travailleur,0.0,0.0,0.0,0.0,0.0,0.0,1.0,0.0,0.0,0.0,0.0
russ,0.0,0.0,0.0,0.2911810960120033,0.0,0.36274849792295016,0.0,0.0,0.0,0.0,0.34607040606504663
ghettos,0.0,0.0,0.0,0.0,0.0,0.0,0.0,0.0,0.0,1.0,0.0
sein,0.0,0.0,0.0,0.2272121408306841,0.31748291029539377,0.0,0.4553049488739221,0.0,0.0,0.0,0.0
gprf,0.0,0.0,0.0,0.0,1.0,0.0,0.0,0.0,0.0,0.0,0.0
étend,0.0,0.0,0.0,0.0,0.0,0.5117647058829651,0.0,0.0,0.0,0.0,0.48823529411703487
goulag,0.0,0.0,0.0,0.0,0.0,0.0,0.0,0.0,1.0,0.0,0.0
otan,0.0,0.0,0.0,1.0,0.0,0.0,0.0,0.0,0.0,0.0,0.0
kilometr,0.0,0.0,0.0,0.0,0.0,0.0,0.0,0.0,0.0,0.0,1.0
utilis,0.0,0.0,0.0,0.0,0.0,0.0,0.0,0.0,0.0,0.42857142857107344,0.5714285714289264
durant la premi,0.0,0.0,0.0,0.0,0.0,0.0,0.0,0.0,0.0,0.0,1.0
al,0.0,0.0,0.0,0.0,0.0,1.0,0.0,0.0,0.0,0.0,0.0
bruxel,0.0,0.0,1.0,0.0,0.0,0.0,0.0,0.0,0.0,0.0,0.0
an,0.2830911956867435,0.46991232145944095,0.0,0.0,0.0,0.0,0.0,0.08657813863112988,0.0,0.0,0.1604183442226857
char,0.0,0.0,0.0,0.0,0.0,0.0,0.0,0.0,0.0,0.0,1.0
circul,0.0,0.0,1.0,0.0,0.0,0.0,0.0,0.0,0.0,0.0,0.0
cultur,1.0,0.0,0.0,0.0,0.0,0.0,0.0,0.0,0.0,0.0,0.0
réaction,0.0,0.0,0.0,0.0,0.0,0.0,1.0,0.0,0.0,0.0,0.0
mondiale et,0.0,0.0,0.0,0.0,0.0,1.0,0.0,0.0,0.0,0.0,0.0
assembl,0.0,0.5547226386806596,0.0,0.0,0.4452773613193403,0.0,0.0,0.0,0.0,0.0,0.0
atteindr,0.0,0.0,0.0,0.0,0.0,1.0,0.0,0.0,0.0,0.0,0.0
discutent,0.0,0.0,0.0,1.0,0.0,0.0,0.0,0.0,0.0,0.0,0.0
truman,0.0,0.0,0.0,1.0,0.0,0.0,0.0,0.0,0.0,0.0,0.0
%,0.7258064516131725,0.0,0.0,0.0,0.0,0.0,0.0,0.0,0.0,0.0,0.2741935483868274
livr,1.0,0.0,0.0,0.0,0.0,0.0,0.0,0.0,0.0,0.0,0.0
no,0.0,0.0,0.0,0.0,0.0,0.0,0.0,0.0,0.0,0.0,1.0
égard,1.0,0.0,0.0,0.0,0.0,0.0,0.0,0.0,0.0,0.0,0.0
vi,0.0,0.2818999823076442,0.0,0.32388508605605437,0.0,0.20174528854352503,0.0,0.0,0.0,0.0,0.19246964309277645
seul,0.0,0.0,0.0,0.0,0.0,0.7175907441108573,0.1442830226769904,0.0,0.13812623321215237,0.0,0.0
révolu,0.0,0.0,0.0,0.0,0.0,0.0,0.4574132492111257,0.0,0.0,0.0,0.5425867507888744
nal,0.0,0.0,0.0,0.0,0.0,0.0,0.0,0.0,0.0,1.0,0.0
acte,0.0,0.0,0.0,0.0,0.0,0.0,0.0,0.0,0.0,1.0,0.0
vercor,0.0,0.0,0.0,0.0,0.0,0.0,1.0,0.0,0.0,0.0,0.0
plusieurs kilometr,0.0,0.0,0.0,0.0,0.0,0.0,0.0,0.0,0.0,0.0,1.0
boom,1.0,0.0,0.0,0.0,0.0,0.0,0.0,0.0,0.0,0.0,0.0
creus,0.0,0.0,0.0,0.0,0.0,0.0,0.0,0.0,0.0,0.0,1.0
naz,0.0,0.0,0.0,0.0,0.0,0.0,0.1211741121057453,0.0,0.2320068343098586,0.6468190535843961,0.0
début,0.0,0.0,0.1604522617083351,0.0,0.0,0.0,0.3638161748040159,0.0,0.11609718379629408,0.21578062781493804,0.14385375187641677
déport,0.0,0.0,0.0,0.0,0.0,0.0,0.5751114460090537,0.0,0.2202282049283495,0.20466034906259686,0.0
hebdomadair,0.0,0.0,0.0,0.0,0.0,0.0,0.0,0.0,1.0,0.0,0.0
obus,0.0,0.0,0.0,0.0,0.0,0.0,0.0,0.0,0.0,0.0,1.0
clemenceau,0.0,0.0,0.0,0.0,0.0,0.0,0.0,0.0,0.0,0.0,1.0
réseau,0.0,0.0,0.0,0.0,0.0,0.0,0.5910326086959933,0.0,0.0,0.17527173913014332,0.2336956521738633
contracept,1.0,0.0,0.0,0.0,0.0,0.0,0.0,0.0,0.0,0.0,0.0
terroris,0.0,0.0,0.0,0.0,0.0,1.0,0.0,0.0,0.0,0.0,0.0
relat,0.0,0.0,0.0,0.44527896995686667,0.0,0.5547210300431333,0.0,0.0,0.0,0.0,0.0
ancré,0.0,1.0,0.0,0.0,0.0,0.0,0.0,0.0,0.0,0.0,0.0
détenu,0.0,0.0,0.0,0.0,1.0,0.0,0.0,0.0,0.0,0.0,0.0
handicap,0.0,0.0,0.0,0.0,0.0,0.0,0.0,0.0,0.0,1.0,0.0
gaull,0.0,0.6071128749140261,0.0,0.0,0.2658169884758709,0.0,0.12707013661010302,0.0,0.0,0.0,0.0
symbol,0.0,0.0,0.0,0.0,1.0,0.0,0.0,0.0,0.0,0.0,0.0
décembr,0.0,0.0,0.0,0.0,0.0,0.0,0.0,0.0,0.0,0.0,1.0
quarti,0.0,0.0,0.0,0.0,0.0,0.0,0.0,0.0,0.0,1.0,0.0
réun,0.0,0.0,0.0,0.0,0.0,0.0,0.0,0.0,1.0,0.0,0.0
veuv,0.0,0.0,0.0,0.0,0.0,0.0,0.0,0.0,0.0,0.0,1.0
armistic,0.0,0.0,0.0,0.0,0.0,0.0,0.7066276803122548,0.0,0.0,0.12573099415178665,0.1676413255359586
désign,0.0,0.0,0.0,0.0,0.0,0.5829145728640602,0.0,0.0,0.0,0.41708542713593977,0.0
bandung ,0.0,0.0,0.0,0.0,0.0,0.0,0.0,1.0,0.0,0.0,0.0
doubl,1.0,0.0,0.0,0.0,0.0,0.0,0.0,0.0,0.0,0.0,0.0
réform,0.0,0.3032258064513108,0.0,0.6967741935486893,0.0,0.0,0.0,0.0,0.0,0.0,0.0
veil,0.7067221891732756,0.2932778108267245,0.0,0.0,0.0,0.0,0.0,0.0,0.0,0.0,0.0
égyptien,0.0,0.0,0.0,0.0,0.0,0.0,0.0,1.0,0.0,0.0,0.0
lang,1.0,0.0,0.0,0.0,0.0,0.0,0.0,0.0,0.0,0.0,0.0
nass,0.0,0.0,0.0,0.0,0.0,0.0,0.0,1.0,0.0,0.0,0.0
asocial,0.0,0.0,0.0,0.0,0.0,0.0,0.0,0.0,0.0,1.0,0.0
e,0.0,0.0,0.0,1.0,0.0,0.0,0.0,0.0,0.0,0.0,0.0
lead,0.0,0.0,0.0,0.0,0.0,0.0,0.0,1.0,0.0,0.0,0.0
forment,0.0,0.0,0.0,0.0,0.0,0.0,0.0,0.0,0.0,0.0,1.0
hindou,0.0,0.0,0.0,0.0,0.0,0.0,0.0,1.0,0.0,0.0,0.0
util,0.0,0.0,1.0,0.0,0.0,0.0,0.0,0.0,0.0,0.0,0.0
xénophob,1.0,0.0,0.0,0.0,0.0,0.0,0.0,0.0,0.0,0.0,0.0
pologn,0.0,0.0,0.0,0.0,0.0,0.0,0.0,0.0,0.0,1.0,0.0
afrique af,0.0,0.0,0.0,0.0,0.0,0.0,0.0,1.0,0.0,0.0,0.0
actuel,0.0,0.0,0.0,0.0,0.0,1.0,0.0,0.0,0.0,0.0,0.0
coalit,0.0,0.0,0.0,0.0,0.0,1.0,0.0,0.0,0.0,0.0,0.0
équilibr,0.0,0.0,0.0,1.0,0.0,0.0,0.0,0.0,0.0,0.0,0.0
mass,0.4137931034474494,0.0,0.0,0.0,0.0,0.0,0.0,0.0,0.0,0.0,0.5862068965525508
gouverneur,0.0,0.0,0.0,0.0,0.0,0.0,1.0,0.0,0.0,0.0,0.0
affront,0.0,0.0,0.0,0.6917113893864542,0.0,0.0,0.0,0.0,0.0,0.3082886106135459,0.0
khrouchtchev,0.0,0.0,0.0,1.0,0.0,0.0,0.0,0.0,0.0,0.0,0.0
vacanc,1.0,0.0,0.0,0.0,0.0,0.0,0.0,0.0,0.0,0.0,0.0
cong,0.26709613478663063,0.0,0.0,0.0,0.0,0.0,0.0,0.0,0.7329038652133694,0.0,0.0
