mot,8318,8320,8315,8316,8317,8325,8324,8321,8319,8323,8322
demo,0.11793779265936677,0.0918766324837474,0.0,0.09153380922815793,0.05026856736306107,0.13704503281092678,0.12420790315522841,0.1517385208649253,0.05665372026131754,0.08888065533760757,0.0898573658356613
premi,0.0,0.0,1.0,0.0,0.0,0.0,0.0,0.0,0.0,0.0,0.0
gt,0.0,0.0,0.0,0.0,0.0,0.0,0.0,1.0,0.0,0.0,0.0
consider,0.0,0.2884743504331288,0.0,0.0,0.0,0.0,0.0,0.0,0.7115256495668711,0.0,0.0
chain,0.0,0.0,0.0,0.0,0.0,0.0,0.0,0.0,0.0,0.0,1.0
tourn,0.0,0.0,0.0,0.0,0.0,0.0,0.0,0.0,1.0,0.0,0.0
à ,0.0,0.0,0.0,0.0,0.0,0.0,0.0,1.0,0.0,0.0,0.0
montr,0.0,0.0,0.0,0.0,0.0,0.0,0.0,0.0,0.3892806770095901,0.6107193229904099,0.0
zinc,0.5473416365340843,0.0,0.0,0.1416008213917929,0.31105754207412295,0.0,0.0,0.0,0.0,0.0,0.0
const,0.0,0.0,0.0,0.0,0.0,0.0,0.0,0.33240583606251417,0.372325243626114,0.0,0.29526892031137186
dé,0.0,0.0,0.22683563670835133,0.1433240092639787,0.15742145279831685,0.0,0.0,0.03959879843578369,0.2217715616796717,0.0,0.21104854111389773
hz ,0.0,0.0,0.0,0.0,0.0,1.0,0.0,0.0,0.0,0.0,0.0
lourd,0.0,0.0,1.0,0.0,0.0,0.0,0.0,0.0,0.0,0.0,0.0
m ,0.0,0.0,0.0,0.0,0.0,1.0,0.0,0.0,0.0,0.0,0.0
estim,0.0,0.0,0.0,0.0,0.0,0.0,0.0,1.0,0.0,0.0,0.0
aut,0.0,0.0,0.4899598393575596,0.0,0.5100401606424403,0.0,0.0,0.0,0.0,0.0,0.0
référent,0.0,0.0,0.0,0.0,0.0,0.0,0.0,0.0,1.0,0.0,0.0
 il,0.0,0.0,0.0,0.0,1.0,0.0,0.0,0.0,0.0,0.0,0.0
néglige,0.0,1.0,0.0,0.0,0.0,0.0,0.0,0.0,0.0,0.0,0.0
valeur,0.2661403117870476,0.20733028034357148,0.0,0.0,0.17015528130665003,0.0,0.07007238588826195,0.05706926273365921,0.12784569249817757,0.0,0.10138678544263209
objet,0.04897012187751068,0.07629801760694618,0.0,0.0,0.0,0.0,0.0,0.5040388627067588,0.2587612906602467,0.0,0.11193170714853765
sourc,0.0,0.0,0.0,0.0,0.0,1.0,0.0,0.0,0.0,0.0,0.0
prendr,0.5100117785635127,0.0,0.0,0.0,0.0,0.0,0.0,0.0,0.4899882214364874,0.0,0.0
soum,0.0,1.0,0.0,0.0,0.0,0.0,0.0,0.0,0.0,0.0,0.0
ultraviolet,0.0,0.0,0.0,0.0,0.0,1.0,0.0,0.0,0.0,0.0,0.0
mouv,0.0,0.025348341886397195,0.026645697967225292,0.0,0.0,0.0,0.0,0.01395465419310879,0.85967759953941,0.0,0.07437370641385876
appar,0.0,0.0,0.0,1.0,0.0,0.0,0.0,0.0,0.0,0.0,0.0
voit,0.0,0.0,0.0,0.0,0.0,0.0,0.0,0.0,1.0,0.0,0.0
voir,0.0,0.0,0.0,0.0,1.0,0.0,0.0,0.0,0.0,0.0,0.0
quantit,0.0,0.0,0.0,0.0,0.6652949245546426,0.0,0.0,0.33470507544535744,0.0,0.0,0.0
analys,0.0,0.2449095022617185,0.0,0.0,0.0,0.0,0.0,0.0,0.7550904977382815,0.0,0.0
soud,0.0,0.0,0.0,1.0,0.0,0.0,0.0,0.0,0.0,0.0,0.0
récipient,1.0,0.0,0.0,0.0,0.0,0.0,0.0,0.0,0.0,0.0,0.0
yeux,0.0,0.0,0.0,0.0,0.0,1.0,0.0,0.0,0.0,0.0,0.0
neutr,0.0,0.0,0.33458862054845784,0.3171101105196897,0.3483012689318526,0.0,0.0,0.0,0.0,0.0,0.0
endommag,0.0,0.0,0.0,0.0,0.0,0.0,0.0,0.0,0.0,1.0,0.0
cinet,0.0,0.0,0.0,0.0,0.0,0.0,0.0,0.0,0.0,0.0,1.0
list,0.5630252100845651,0.0,0.0,0.436974789915435,0.0,0.0,0.0,0.0,0.0,0.0,0.0
form,0.06600398778632077,0.0,0.4324040774666148,0.25613487797648854,0.1125313890126266,0.0,0.06951306055458928,0.0,0.06341260720335982,0.0,0.0
dit,0.0,0.0,1.0,0.0,0.0,0.0,0.0,0.0,0.0,0.0,0.0
erlenmei,1.0,0.0,0.0,0.0,0.0,0.0,0.0,0.0,0.0,0.0,0.0
circulair,0.0,0.0,0.0,0.0,0.0,0.0,0.0,0.0,1.0,0.0,0.0
zn,0.0,0.0,0.0,0.5772870662457835,0.4227129337542166,0.0,0.0,0.0,0.0,0.0,0.0
natur,0.0,0.0,0.0,0.26489919425292335,0.09698495090145214,0.528811799326309,0.0,0.0,0.10930405551931564,0.0,0.0
réag,0.0,0.0,0.0,0.0,1.0,0.0,0.0,0.0,0.0,0.0,0.0
direct,0.0,0.9008172362557079,0.0,0.0,0.0,0.0,0.0,0.09918276374429211,0.0,0.0,0.0
sign,0.0,0.0,1.0,0.0,0.0,0.0,0.0,0.0,0.0,0.0,0.0
radiograph,0.0,0.0,0.0,0.0,0.0,1.0,0.0,0.0,0.0,0.0,0.0
second,0.0,0.0,0.0,0.0,0.0,0.0,0.5802337938365636,0.0,0.0,0.0,0.4197662061634365
droit,0.0,0.0,0.0,0.0,0.0,0.25312090956485755,0.0,0.0,0.418555591796937,0.3283234986382054,0.0
géometr,0.0,0.0,0.0,0.0,0.0,0.0,0.0,0.0,1.0,0.0,0.0
pass,0.0,0.0,0.0,0.0,0.0,0.0,0.20944342601979155,0.0,0.1910627096484842,0.5994938643317242,0.0
acid,0.0,0.0,0.0,0.0,1.0,0.0,0.0,0.0,0.0,0.0,0.0
fonction,0.12726402217344795,0.0,0.0,0.0987720769105224,0.0,0.0,0.2680599150585537,0.0,0.12226751321951271,0.38363647263796335,0.0
lettr,0.0,0.0,0.0,1.0,0.0,0.0,0.0,0.0,0.0,0.0,0.0
sub,0.0,0.0,0.0,0.0,0.0,0.0,0.0,0.0,0.0,1.0,0.0
compar,0.0,0.0,0.0,0.0,0.0,1.0,0.0,0.0,0.0,0.0,0.0
essent,0.0,1.0,0.0,0.0,0.0,0.0,0.0,0.0,0.0,0.0,0.0
décrir,0.0,0.0,0.0,0.0,0.0,0.0,0.0,0.0,1.0,0.0,0.0
altitud,0.0,0.0,0.0,0.0,0.0,0.0,0.0,0.0,0.0,0.0,1.0
décrit,0.0,0.0,0.0,0.0,0.0,0.5474083438690188,0.0,0.0,0.4525916561309811,0.0,0.0
communiqu,0.0,0.0,0.0,0.0,0.0,1.0,0.0,0.0,0.0,0.0,0.0
univer,0.0,0.0,1.0,0.0,0.0,0.0,0.0,0.0,0.0,0.0,0.0
chaleur,0.0,0.0,0.0,0.0,1.0,0.0,0.0,0.0,0.0,0.0,0.0
présenc,0.0,0.0,0.0,1.0,0.0,0.0,0.0,0.0,0.0,0.0,0.0
mutuel,0.0,0.0,0.0,0.0,0.0,0.0,0.0,1.0,0.0,0.0,0.0
lâch,0.0,0.0,0.0,0.0,0.0,0.0,0.0,1.0,0.0,0.0,0.0
vibrat,0.0,0.0,0.0,0.0,0.0,1.0,0.0,0.0,0.0,0.0,0.0
dessinent,0.0,0.0,0.0,0.0,0.0,0.0,0.0,0.0,1.0,0.0,0.0
émetteur,0.0,0.0,0.0,0.0,0.0,1.0,0.0,0.0,0.0,0.0,0.0
met,0.0,0.0,0.0,0.0,0.0,1.0,0.0,0.0,0.0,0.0,0.0
ascenseur,0.0,0.0,0.0,0.0,0.0,0.0,0.0,0.0,1.0,0.0,0.0
aid,0.135749392987687,0.0,0.22232971449940328,0.21071547568192472,0.11572079402217024,0.3154846228088148,0.0,0.0,0.0,0.0,0.0
inaudibl,0.0,0.0,0.0,0.0,0.0,1.0,0.0,0.0,0.0,0.0,0.0
ver,0.10347281115714235,0.0,0.0,0.0,0.0,0.12023656268539688,0.21794779463948377,0.08875193699224285,0.0,0.31191803942954627,0.15767285509618795
aigu,0.0,0.0,0.0,0.0,0.0,1.0,0.0,0.0,0.0,0.0,0.0
réorganis,1.0,0.0,0.0,0.0,0.0,0.0,0.0,0.0,0.0,0.0,0.0
interpret,0.0,0.0,0.0,0.0,1.0,0.0,0.0,0.0,0.0,0.0,0.0
convert,0.0,0.0,0.0,0.0,0.0,0.11695045046968011,0.3709845935144017,0.1294894678396623,0.0,0.07584829939888785,0.306727188777368
consomm,0.0,0.0,0.0,0.0,0.44733861834670907,0.0,0.5526613816532909,0.0,0.0,0.0,0.0
rectilign,0.0,0.0,0.0,0.0,0.0,0.0,0.0,0.3086243763361851,0.691375623663815,0.0,0.0
convers,0.0,0.0,0.0,0.0,0.0,0.0,0.0,0.0,0.0,0.4972677595632915,0.5027322404367085
mécan,0.06403185295254622,0.29929495312656806,0.0,0.0,0.0,0.14881145714084962,0.0,0.0,0.0,0.0,0.48786173678003614
résistor,0.0,0.0,0.0,0.0,0.0,0.0,0.0,0.0,0.0,1.0,0.0
bor,0.0,0.0,0.0,1.0,0.0,0.0,0.0,0.0,0.0,0.0,0.0
reper,0.0,0.0,0.0,0.44685242518055657,0.0,0.0,0.0,0.0,0.5531475748194434,0.0,0.0
bon,0.0,0.0,0.0,0.0,1.0,0.0,0.0,0.0,0.0,0.0,0.0
action,0.0,1.0,0.0,0.0,0.0,0.0,0.0,0.0,0.0,0.0,0.0
voitur,0.0,0.0,0.0,0.0,0.0,0.0,0.0,0.0,1.0,0.0,0.0
diminu,0.0,0.0,0.0,0.0,0.2195070791820751,0.0,0.0,0.0,0.0,0.388113966090139,0.3923789547277859
dynamometr,0.20105203179104283,0.6264992151681025,0.0,0.0,0.0,0.0,0.0,0.17244875304085472,0.0,0.0,0.0
vid,0.0,0.0,0.0,0.0,0.0,1.0,0.0,0.0,0.0,0.0,0.0
propag,0.0,0.0,0.0,0.0,0.0,1.0,0.0,0.0,0.0,0.0,0.0
réguli,0.0,0.0,0.0,0.28770764119597847,0.0,0.0,0.0,0.0,0.7122923588040215,0.0,0.0
approxim,0.0,1.0,0.0,0.0,0.0,0.0,0.0,0.0,0.0,0.0,0.0
volt,0.0,0.0,0.0,0.0,0.0,0.0,0.4113263785396095,0.0,0.0,0.5886736214603905,0.0
assemblag,0.0,0.0,0.6784810126585856,0.32151898734141443,0.0,0.0,0.0,0.0,0.0,0.0,0.0
échauff,0.0,0.0,0.0,0.0,0.0,0.0,0.0,0.0,0.0,1.0,0.0
intensite ,0.0,0.0,0.0,0.0,0.0,0.0,1.0,0.0,0.0,0.0,0.0
vit,0.0,0.0,0.0,0.0,0.0,1.0,0.0,0.0,0.0,0.0,0.0
visibl,0.0,0.0,0.0,0.0,0.0,1.0,0.0,0.0,0.0,0.0,0.0
noyau,0.0,0.0,1.0,0.0,0.0,0.0,0.0,0.0,0.0,0.0,0.0
total,0.0,0.0,0.0,0.0,0.0,0.0,0.0,0.0,0.2401801638113934,0.1884021937145962,0.5714176424740105
mobil,0.0,0.0,0.0,0.0,0.0,0.0,0.0,0.0,1.0,0.0,0.0
 pour,0.0,0.0,0.0,0.0,0.0,0.0,1.0,0.0,0.0,0.0,0.0
léger,0.0,0.0,1.0,0.0,0.0,0.0,0.0,0.0,0.0,0.0,0.0
précipit,0.0,0.0,0.0,1.0,0.0,0.0,0.0,0.0,0.0,0.0,0.0
perd,0.0,0.0,0.0,0.33745364647723064,0.0,0.0,0.0,0.0,0.0,0.0,0.6625463535227694
perm,0.0,0.0,1.0,0.0,0.0,0.0,0.0,0.0,0.0,0.0,0.0
percept,0.0,0.0,0.0,0.0,0.0,1.0,0.0,0.0,0.0,0.0,0.0
formul,0.15807472227370742,0.0,0.08629801111013029,0.3271596242075787,0.0,0.0,0.0,0.22597623527749014,0.2024914071310935,0.0,0.0
fer,0.0,0.0,0.0,0.0,1.0,0.0,0.0,0.0,0.0,0.0,0.0
centr,0.0,0.4377256317697653,0.0,0.0,0.0,0.0,0.0,0.5622743682302347,0.0,0.0,0.0
m=,0.0,0.0,0.0,0.0,0.0,0.0,0.0,1.0,0.0,0.0,0.0
canet,0.0,0.0,0.0,0.0,1.0,0.0,0.0,0.0,0.0,0.0,0.0
playbox,0.0,0.0,0.0,0.0,0.0,0.0,1.0,0.0,0.0,0.0,0.0
initial,0.0,0.0,0.0,0.0,0.4984583761567329,0.0,0.0,0.5015416238432671,0.0,0.0,0.0
relat,0.0,0.0,0.0,0.0,0.0,0.0,0.3141894292734858,0.2558862362126889,0.42992433451382533,0.0,0.0
majuscul,0.0,0.0,0.0,1.0,0.0,0.0,0.0,0.0,0.0,0.0,0.0
appel,0.06483832693182444,0.20204302624416742,0.2123838110518952,0.0,0.0,0.15068572069045377,0.0,0.11122781032420932,0.06229271132467734,0.09772733334643982,0.09880126008633273
indic,0.0,0.0,0.0,1.0,0.0,0.0,0.0,0.0,0.0,0.0,0.0
m^,0.0,0.0,0.0,0.0,0.0,0.0,0.0,1.0,0.0,0.0,0.0
grill,0.0,0.0,0.0,0.0,0.0,0.0,0.0,0.0,0.0,1.0,0.0
lessentiel,0.09543243841722161,0.0,0.1562987967777305,0.07406696712962396,0.0,0.11089355972504186,0.10050606172530811,0.0818554523328683,0.09168566831751776,0.14384019703453782,0.1454208585401501
augment,0.0,0.0,0.0,0.0,0.41721153149334744,0.0,0.0,0.20989611068900424,0.0,0.0,0.37289235781764823
mb,0.0,0.0,0.0,0.0,0.0,0.0,0.0,1.0,0.0,0.0,0.0
cas,0.0,0.09798776241903892,0.0,0.0,0.0,0.0,0.3311738299478513,0.0,0.0,0.3791700371870116,0.19166837044609827
ml,1.0,0.0,0.0,0.0,0.0,0.0,0.0,0.0,0.0,0.0,0.0
pouv,0.0,0.0,0.0,0.0,0.0,1.0,0.0,0.0,0.0,0.0,0.0
mn,0.0,0.0,0.0,0.0,0.0,0.0,0.0,1.0,0.0,0.0,0.0
«+»,0.0,0.0,0.0,1.0,0.0,0.0,0.0,0.0,0.0,0.0,0.0
kg^,0.0,0.0,0.0,0.0,0.0,0.0,0.0,1.0,0.0,0.0,0.0
associent,0.0,0.0,0.0,1.0,0.0,0.0,0.0,0.0,0.0,0.0,0.0
mt,0.0,0.0,0.0,0.0,0.0,0.0,0.0,1.0,0.0,0.0,0.0
différenci,0.0,0.0,0.0,0.625436757512389,0.0,0.374563242487611,0.0,0.0,0.0,0.0,0.0
del,0.0,0.0,0.0,0.0,0.0,0.0,1.0,0.0,0.0,0.0,0.0
install,0.0,0.0,0.0,0.0,0.0,0.0,1.0,0.0,0.0,0.0,0.0
ultrason,0.0,0.0,0.0,0.0,0.0,1.0,0.0,0.0,0.0,0.0,0.0
gravitent,0.0,0.0,1.0,0.0,0.0,0.0,0.0,0.0,0.0,0.0,0.0
enfant,0.0,0.0,0.0,0.0,0.0,0.0,0.0,0.0,1.0,0.0,0.0
pierr,0.0,0.0,0.0,0.0,0.0,0.0,0.0,0.0,1.0,0.0,0.0
×mb,0.0,0.0,0.0,0.0,0.0,0.0,0.0,1.0,0.0,0.0,0.0
tar,1.0,0.0,0.0,0.0,0.0,0.0,0.0,0.0,0.0,0.0,0.0
modélis,0.0,0.9526175687666566,0.0,0.0,0.04738243123334346,0.0,0.0,0.0,0.0,0.0,0.0
servent,0.0,0.0,1.0,0.0,0.0,0.0,0.0,0.0,0.0,0.0,0.0
construir,0.0,0.0,0.0,0.0,0.0,0.0,0.0,0.0,0.0,0.0,1.0
attirent,0.0,0.0,0.4884189325277326,0.0,0.0,0.0,0.0,0.5115810674722675,0.0,0.0,0.0
accept,0.0,0.0,0.0,0.0,0.0,0.0,0.0,0.0,1.0,0.0,0.0
cation,0.0,0.0,0.0,1.0,0.0,0.0,0.0,0.0,0.0,0.0,0.0
verr,0.0,0.0,0.0,0.0,0.0,1.0,0.0,0.0,0.0,0.0,0.0
chim,0.32192339038341916,0.0,0.0,0.0,0.0,0.0,0.6780766096165808,0.0,0.0,0.0,0.0
ho^,0.0,0.0,0.0,0.0,1.0,0.0,0.0,0.0,0.0,0.0,0.0
quotidien,0.0,0.0,0.0,0.6885531667632832,0.0,0.0,0.31144683323671674,0.0,0.0,0.0,0.0
rayon,0.0,0.0,0.0,0.0,0.0,0.5753262158953433,0.0,0.4246737841046566,0.0,0.0,0.0
hydrogen,0.0,0.0,0.2425447316107323,0.0,0.7574552683892676,0.0,0.0,0.0,0.0,0.0,0.0
disparit,0.0,0.0,0.0,0.0,1.0,0.0,0.0,0.0,0.0,0.0,0.0
occup,0.0,0.0,0.0,0.0,0.0,0.0,0.0,0.0,1.0,0.0,0.0
surfac,0.0,0.0,0.0,0.0,0.0,0.0,0.0,1.0,0.0,0.0,0.0
cours,0.0,0.0,0.0,0.0,0.0,0.0,0.0,0.0,0.1736641221374921,0.0,0.8263358778625078
multipl,0.0,0.0,0.0,0.0,0.0,0.0,0.0,0.0,0.0,1.0,0.0
cœur,0.0,0.0,1.0,0.0,0.0,0.0,0.0,0.0,0.0,0.0,0.0
attract,0.0,0.0,0.0,0.0,0.0,0.0,0.0,1.0,0.0,0.0,0.0
tableau,0.0,0.0,0.3401955057057318,0.0,0.17706897223198964,0.4827355220622786,0.0,0.0,0.0,0.0,0.0
rapport,0.10899247147851873,0.1698159855243152,0.0,0.0,0.0929116150307718,0.0,0.0,0.0,0.6282799279663943,0.0,0.0
divis,1.0,0.0,0.0,0.0,0.0,0.0,0.0,0.0,0.0,0.0,0.0
courb,0.0,0.0,0.0,0.0,0.0,0.0,0.0,0.0,0.0,1.0,0.0
dissolu,0.0,0.0,0.0,1.0,0.0,0.0,0.0,0.0,0.0,0.0,0.0
consist,0.0,0.0,0.0,0.0,0.4701411509231465,0.0,0.0,0.0,0.5298588490768534,0.0,0.0
»,0.0,0.0,0.3092436795641053,0.14654457949487626,0.0,0.0,0.0,0.0,0.5442117409410184,0.0,0.0
aiguill,0.0,0.0,0.0,0.0,0.0,0.0,0.0,0.0,1.0,0.0,0.0
simpl,0.0,0.46215860948226495,0.0,0.0,0.2528613703521135,0.0,0.0,0.0,0.2849800201656216,0.0,0.0
souvent,1.0,0.0,0.0,0.0,0.0,0.0,0.0,0.0,0.0,0.0,0.0
vibr,0.0,0.0,0.0,0.0,0.0,1.0,0.0,0.0,0.0,0.0,0.0
tension,0.0,0.0,0.0,0.0,0.0,0.0,0.5117428924592731,0.0,0.0,0.48825710754072693,0.0
kilowatt,0.0,0.0,0.0,0.0,0.0,0.0,1.0,0.0,0.0,0.0,0.0
circuit,0.0,0.0,0.0,0.0,0.0,0.0,0.0,0.0,0.0,1.0,0.0
échograph,0.0,0.0,0.0,0.0,0.0,1.0,0.0,0.0,0.0,0.0,0.0
attent,0.5398230088498159,0.0,0.0,0.0,0.4601769911501842,0.0,0.0,0.0,0.0,0.0,0.0
vient,0.0,0.0,0.0,0.0,0.0,1.0,0.0,0.0,0.0,0.0,0.0
expérimental,1.0,0.0,0.0,0.0,0.0,0.0,0.0,0.0,0.0,0.0,0.0
associ,0.0,0.6198734853021454,0.0,0.0,0.0,0.0,0.20950154503247206,0.17062496966538268,0.0,0.0,0.0
permet,0.06174176910871983,0.28859074100261334,0.0,0.04791898497979845,0.05263232776475561,0.07174462555650268,0.0,0.05295788855494397,0.23727090946121326,0.09306005778698152,0.09408269578447132
liquid,0.0,0.0,0.0,1.0,0.0,0.0,0.0,0.0,0.0,0.0,0.0
typ,1.0,0.0,0.0,0.0,0.0,0.0,0.0,0.0,0.0,0.0,0.0
correspond,0.27747508072354515,0.0,0.15148245876784097,0.0,0.0,0.0,0.2922269204581231,0.0,0.0,0.2788155400504908,0.0
remplac,1.0,0.0,0.0,0.0,0.0,0.0,0.0,0.0,0.0,0.0,0.0
issu,0.0,0.0,0.0,1.0,0.0,0.0,0.0,0.0,0.0,0.0,0.0
inform,0.0,0.20704676239224856,0.0,0.10313709992294459,0.226563465404755,0.46325267228005174,0.0,0.0,0.0,0.0,0.0
parcourt,0.0,0.0,0.0,0.0,0.0,0.0,1.0,0.0,0.0,0.0,0.0
parcouru,0.0,0.0,0.0,0.0,0.0,0.0,0.0,0.0,1.0,0.0,0.0
so,0.0,0.0,0.0,1.0,0.0,0.0,0.0,0.0,0.0,0.0,0.0
ensembl,0.0,0.3756724088008099,0.0,0.18713532304059338,0.2055420761267836,0.0,0.0,0.0,0.23165019203181317,0.0,0.0
volum,1.0,0.0,0.0,0.0,0.0,0.0,0.0,0.0,0.0,0.0,0.0
bas,0.0781687648988049,0.12179103444888187,0.0,0.0,0.7329923528217935,0.0,0.0,0.06704784783051965,0.0,0.0,0.0
constitu,0.0,0.0,0.5207547169812019,0.0,0.0,0.0,0.0,0.0,0.0,0.47924528301879804,0.0
radios,0.0,0.0,0.0,0.0,0.0,1.0,0.0,0.0,0.0,0.0,0.0
matérial,1.0,0.0,0.0,0.0,0.0,0.0,0.0,0.0,0.0,0.0,0.0
appareil,0.0,0.0,0.0,0.0,0.0,0.0,0.8074110190147699,0.0,0.0,0.1925889809852301,0.0
représent,0.0,0.5194961007799465,0.0,0.0,0.0,0.0,0.0,0.0,0.48050389922005365,0.0,0.0
monoatom,0.0,0.0,0.0,1.0,0.0,0.0,0.0,0.0,0.0,0.0,0.0
er,0.11952270424414219,0.09311132016027718,0.0,0.04638194493055893,0.05094410344837588,0.06944335889059716,0.125877075862233,0.05125922161393034,0.17224519041189706,0.18015016291868904,0.09106491751929907
nombr,0.0,0.0,0.2570763618065487,0.6091174990563358,0.13380613913711545,0.0,0.0,0.0,0.0,0.0,0.0
decr,0.0,0.0,0.0,0.0,0.0,0.0,0.0,0.0,1.0,0.0,0.0
dissout,0.0,0.0,0.0,0.0,1.0,0.0,0.0,0.0,0.0,0.0,0.0
group,0.0,0.0,0.0,1.0,0.0,0.0,0.0,0.0,0.0,0.0,0.0
état,1.0,0.0,0.0,0.0,0.0,0.0,0.0,0.0,0.0,0.0,0.0
sodium,0.0,0.0,0.0,1.0,0.0,0.0,0.0,0.0,0.0,0.0,0.0
δ,0.0,0.0,0.0,0.0,0.0,0.0,0.3540474243663787,0.0,0.6459525756336214,0.0,0.0
extérieur,0.0,0.0,0.0,0.0,0.0,0.0,0.0,0.0,0.38668555240807667,0.0,0.6133144475919233
li,0.0,0.0,0.0,0.0,0.0,0.0,0.0,0.1762671780309622,0.1974355227369782,0.0,0.6262972992320595
évolu,0.0,0.0,0.0,0.0,0.17840902059064664,0.0,0.0,0.0,0.5026766861924356,0.0,0.3189142932169179
proportionnal,0.4581924230183594,0.0,0.0,0.0,0.0,0.0,0.0,0.1965031422427248,0.0,0.34530443473891576,0.0
nom,0.0,0.0,0.0,1.0,0.0,0.0,0.0,0.0,0.0,0.0,0.0
proch,0.0,0.0,0.0,0.0,1.0,0.0,0.0,0.0,0.0,0.0,0.0
supérieur,0.0,0.0,0.0,0.16152127927092205,0.35481723643160323,0.48366148429747474,0.0,0.0,0.0,0.0,0.0
référentiel,0.0,0.0,0.0,0.0,0.0,0.0,0.0,0.0,1.0,0.0,0.0
appliqu,0.07540585530380284,0.5874313821410566,0.0,0.0,0.0,0.0,0.1588295483864742,0.0646780119717211,0.0,0.11365520219694525,0.0
bang,0.0,0.0,1.0,0.0,0.0,0.0,0.0,0.0,0.0,0.0,0.0
effectu,1.0,0.0,0.0,0.0,0.0,0.0,0.0,0.0,0.0,0.0,0.0
laiss,0.0,0.0,0.0,0.0,0.0,0.0,1.0,0.0,0.0,0.0,0.0
not,0.31086514995055303,0.0,0.2545667369677791,0.12063423729423481,0.0,0.18061438879846597,0.0,0.13331948698896715,0.0,0.0,0.0
perdu,0.0,0.0,0.0,1.0,0.0,0.0,0.0,0.0,0.0,0.0,0.0
prévoir,0.0,0.6463576158939164,0.0,0.0,0.35364238410608373,0.0,0.0,0.0,0.0,0.0,0.0
parcour,0.0,0.0,0.0,0.0,0.0,0.5474083438690188,0.0,0.0,0.4525916561309811,0.0,0.0
contrair,0.0,0.0,0.0,0.0,0.0,0.43533123028411325,0.0,0.0,0.0,0.5646687697158868,0.0
introduct,0.0,0.0,0.0,0.0,1.0,0.0,0.0,0.0,0.0,0.0,0.0
anion,0.0,0.0,0.0,1.0,0.0,0.0,0.0,0.0,0.0,0.0,0.0
connaiss,0.0,0.0,0.0,0.0,0.0,0.0,0.0,0.0,1.0,0.0,0.0
trac,0.0,0.6739926739925026,0.0,0.0,0.0,0.0,0.0,0.0,0.0,0.3260073260074974,0.0
caractérist,0.09015654298334388,0.5618744851072909,0.0,0.06997224231527994,0.0,0.1047629102823235,0.0,0.0,0.17323381931176177,0.0,0.0
espec,0.0,0.0,0.0,0.8452655889139358,0.1547344110860642,0.0,0.0,0.0,0.0,0.0,0.0
chois,0.0,1.0,0.0,0.0,0.0,0.0,0.0,0.0,0.0,0.0,0.0
neutron,0.0,0.0,1.0,0.0,0.0,0.0,0.0,0.0,0.0,0.0,0.0
compris,0.0,0.0,0.0,0.0,0.0,1.0,0.0,0.0,0.0,0.0,0.0
exempl,0.0,0.0,0.0,0.28106521858796196,0.10290365926456035,0.28054181967077535,0.0,0.10354017674433402,0.2319491257323683,0.0,0.0
terr,0.0,0.0,0.0,0.0,0.0,0.0,0.0,1.0,0.0,0.0,0.0
em,0.0,0.0,0.0,0.0,0.0,0.0,0.0,0.0,0.0,0.0,1.0
espac,0.5100117785635127,0.0,0.0,0.0,0.0,0.0,0.0,0.0,0.4899882214364874,0.0,0.0
transform,0.0,0.0,0.0,0.0,1.0,0.0,0.0,0.0,0.0,0.0,0.0
conclu,0.0,0.0,0.0,0.0,1.0,0.0,0.0,0.0,0.0,0.0,0.0
lign,0.0,0.0,0.0,0.0,0.0,1.0,0.0,0.0,0.0,0.0,0.0
adjoindr,0.0,1.0,0.0,0.0,0.0,0.0,0.0,0.0,0.0,0.0,0.0
ec,0.0,0.0,0.0,0.0,0.0,0.0,0.0,0.0,0.0,0.0,1.0
gradu,1.0,0.0,0.0,0.0,0.0,0.0,0.0,0.0,0.0,0.0,0.0
ex,0.0,0.0,1.0,0.0,0.0,0.0,0.0,0.0,0.0,0.0,0.0
récepteur,0.0,0.0,0.0,0.0,0.0,1.0,0.0,0.0,0.0,0.0,0.0
proteg,0.0,0.0,0.0,0.0,1.0,0.0,0.0,0.0,0.0,0.0,0.0
dispos,0.0,0.0,0.0,0.0,0.0,0.0,0.0,1.0,0.0,0.0,0.0
ep,0.0,0.0,0.0,0.0,0.0,0.0,0.0,0.0,0.0,0.0,1.0
détect,0.0,0.0,0.0,0.6670807453411308,0.0,0.33291925465886923,0.0,0.0,0.0,0.0,0.0
rt,0.0,0.0,0.0,0.0,0.0,0.0,0.0,1.0,0.0,0.0,0.0
etap,0.11621625825587113,0.1293364457852051,0.0,0.09019769297457195,0.05661119840109575,0.11575250622778523,0.13987982187225848,0.12816308421500017,0.04785149795561515,0.10009516239036723,0.07589633192222975
miss,0.0,0.0,0.0,0.0,0.0,0.0,0.0,1.0,0.0,0.0,0.0
ciment,0.0,0.0,1.0,0.0,0.0,0.0,0.0,0.0,0.0,0.0,0.0
possèdent,0.0,0.0,0.7924836601309344,0.0,0.0,0.0,0.0,0.2075163398690656,0.0,0.0,0.0
nominal,0.0,0.0,0.0,0.0,0.0,0.0,1.0,0.0,0.0,0.0,0.0
adapt,0.0,0.0,0.0,0.0,0.0,1.0,0.0,0.0,0.0,0.0,0.0
rel,1.0,0.0,0.0,0.0,0.0,0.0,0.0,0.0,0.0,0.0,0.0
kg,0.1390159011805483,0.0,0.0,0.0,0.0,0.0,0.0,0.5961919060947355,0.0,0.0,0.2647921927247162
écrit,0.0,0.0,0.0,1.0,0.0,0.0,0.0,0.0,0.0,0.0,0.0
audibil,0.0,0.0,0.0,0.0,0.0,1.0,0.0,0.0,0.0,0.0,0.0
écrir,0.19938617592713487,0.0,0.0,0.15474747982371073,0.0,0.0,0.0,0.34203979045621496,0.0,0.0,0.30382655379293944
mati,0.0,0.0,0.6730940695778513,0.0,0.0,0.23877918110662488,0.0,0.08812674931552371,0.0,0.0,0.0
apparit,0.0,0.0,0.0,0.0,1.0,0.0,0.0,0.0,0.0,0.0,0.0
bass,0.0,0.0,0.0,0.0,0.0,1.0,0.0,0.0,0.0,0.0,0.0
coef,0.6998556998559141,0.0,0.0,0.0,0.0,0.0,0.0,0.30014430014408583,0.0,0.0,0.0
carr,0.0,0.0,0.0,0.0,0.0,0.0,0.0,0.0,0.0,0.0,1.0
domest,0.0,0.0,0.0,0.0,0.2124798278645537,0.0,0.7875201721354463,0.0,0.0,0.0,0.0
situat,0.0,0.5055555555558106,0.0,0.0,0.0,0.0,0.0,0.0,0.0,0.0,0.4944444444441895
schem,0.08307945820705952,0.12944215211307714,0.13606714414957144,0.06447957950393664,0.0,0.09653925869872662,0.08749634079525552,0.07125990642089365,0.07981767809264644,0.1252212123701342,0.126597269648699
g,0.31803278688591824,0.0,0.0,0.0,0.0,0.0,0.0,0.6819672131140817,0.0,0.0,0.0
infrason,0.0,0.0,0.0,0.0,0.0,1.0,0.0,0.0,0.0,0.0,0.0
surintens,0.0,0.0,0.0,0.0,0.0,0.0,1.0,0.0,0.0,0.0,0.0
nition,0.0,0.0,0.2616517927213057,0.16532227699363247,0.18158348456698004,0.0,0.0,0.04567667034458954,0.10232418067967906,0.0,0.24344159469381327
compensent,0.0,1.0,0.0,0.0,0.0,0.0,0.0,0.0,0.0,0.0,0.0
contient,0.0,0.0,0.0,0.31282051282027207,0.687179487179728,0.0,0.0,0.0,0.0,0.0,0.0
dégag,0.0,0.0,0.0,0.0,1.0,0.0,0.0,0.0,0.0,0.0,0.0
propriet,0.17085699495983445,0.12286345704998974,0.19372761633218255,0.05100208804773789,0.06722242424642054,0.09163280176609795,0.05536631735417674,0.04509215537082994,0.06313422446577649,0.09904753331012818,0.04005438709682562
négat,0.0,0.0,0.6784810126574774,0.32151898734252254,0.0,0.0,0.0,0.0,0.0,0.0,0.0
khz ,0.0,0.0,0.0,0.0,0.0,1.0,0.0,0.0,0.0,0.0,0.0
ion,0.0,0.0,0.0,0.726190476190407,0.27380952380959295,0.0,0.0,0.0,0.0,0.0,0.0
iss,0.0,0.0,0.0,0.0,0.0,0.0,0.0,1.0,0.0,0.0,0.0
r=,0.0,0.0,0.0,0.0,0.0,0.0,0.0,0.0,0.0,1.0,0.0
jeu,0.0,0.5966767371601498,0.0,0.0,0.0,0.0,0.40332326283985026,0.0,0.0,0.0,0.0
équivalent,0.0,0.0,0.0,0.0,0.0,0.0,1.0,0.0,0.0,0.0,0.0
ohmmetr,0.0,0.0,0.0,0.0,0.0,0.0,0.0,0.0,0.0,1.0,0.0
organis,1.0,0.0,0.0,0.0,0.0,0.0,0.0,0.0,0.0,0.0,0.0
amper,0.0,0.0,0.0,0.0,0.0,0.0,0.4113263785396095,0.0,0.0,0.5886736214603905,0.0
faudr,0.5100117785635127,0.0,0.0,0.0,0.0,0.0,0.0,0.0,0.4899882214364874,0.0,0.0
expérient,0.0,0.0,0.0,0.0,1.0,0.0,0.0,0.0,0.0,0.0,0.0
origin,0.0,0.0,0.7415412685845318,0.08785050476675513,0.0,0.0,0.0,0.0,0.0,0.170608226648713,0.0
vitess,0.0,0.0,0.0,0.0,0.0,0.19360462999268094,0.0,0.035727039967728684,0.5802549851570074,0.0,0.19041334488258305
poudr,0.0,0.0,0.0,0.0,1.0,0.0,0.0,0.0,0.0,0.0,0.0
sonor,0.0,0.0,0.0,0.0,0.0,1.0,0.0,0.0,0.0,0.0,0.0
réalis,0.0,0.0,0.0,0.0,1.0,0.0,0.0,0.0,0.0,0.0,0.0
protègent,0.0,0.0,0.0,0.0,0.0,0.0,1.0,0.0,0.0,0.0,0.0
lumi,0.0,0.0,0.0,0.0,0.0,1.0,0.0,0.0,0.0,0.0,0.0
sach,0.25789978700215194,0.0,0.0,0.0,0.0,0.2996824340583725,0.0,0.4424177789394755,0.0,0.0,0.0
xe,0.0,0.0,0.0,0.0,0.0,0.0,0.0,0.0,1.0,0.0,0.0
suspens,0.0,0.0,0.0,1.0,0.0,0.0,0.0,0.0,0.0,0.0,0.0
éprouvet,1.0,0.0,0.0,0.0,0.0,0.0,0.0,0.0,0.0,0.0,0.0
apparus,0.0,0.0,1.0,0.0,0.0,0.0,0.0,0.0,0.0,0.0,0.0
oppos,0.0,0.0,0.8129602356408837,0.0,0.0,0.0,0.0,0.0,0.0,0.1870397643591163,0.0
×,0.05376218049566771,0.0,0.0,0.0,0.0,0.031236127215425607,0.19817148051024114,0.3227947826870612,0.02582571257066949,0.04051642588084492,0.32769329064008995
é,1.0,0.0,0.0,0.0,0.0,0.0,0.0,0.0,0.0,0.0,0.0
long,0.0,0.0,0.0,0.0,0.0,0.0,0.0,1.0,0.0,0.0,0.0
capac,0.0,0.0,0.0,0.0,0.0,0.0,0.0,0.0,0.0,1.0,0.0
boit,0.0,0.0,0.0,0.0,0.0,0.0,1.0,0.0,0.0,0.0,0.0
dihydrogen,0.0,0.0,0.0,0.0,1.0,0.0,0.0,0.0,0.0,0.0,0.0
provoqu,0.0,0.0,0.0,0.0,0.24977776148540248,0.0,0.30858619646783786,0.0,0.0,0.44163604204675966,0.0
interact,0.0,0.7969675446626866,0.0,0.0,0.0,0.0,0.0,0.07312382626262375,0.0,0.0,0.12990862907468959
system,0.0,0.4692837275987766,0.0,0.0,0.03209496805042454,0.0,0.03965150483189073,0.0,0.0,0.0,0.45896979951890815
charge ,0.0,0.0,0.0,1.0,0.0,0.0,0.0,0.0,0.0,0.0,0.0
contien,0.0,0.0,0.0,0.0,1.0,0.0,0.0,0.0,0.0,0.0,0.0
extrêm,0.0,0.0,1.0,0.0,0.0,0.0,0.0,0.0,0.0,0.0,0.0
mégaohm,0.0,0.0,0.0,0.0,0.0,0.0,0.0,0.0,0.0,1.0,0.0
échel,0.0,0.8005974607917281,0.0,0.19940253920827183,0.0,0.0,0.0,0.0,0.0,0.0,0.0
inférieur,0.0,0.0,0.0,0.0,0.5946843853818042,0.40531561461819565,0.0,0.0,0.0,0.0,0.0
résultat,0.19931334044300633,0.0,0.0,0.0,0.0,0.0,0.6297292376517698,0.17095742190522392,0.0,0.0,0.0
cabin,0.0,0.0,0.0,0.0,0.0,0.0,0.0,0.0,1.0,0.0,0.0
hélium,0.0,0.0,1.0,0.0,0.0,0.0,0.0,0.0,0.0,0.0,0.0
grâc,0.6325088339217734,0.0,0.0,0.0,0.0,0.3674911660782266,0.0,0.0,0.0,0.0,0.0
terrestr,0.0,0.0,0.0,0.0,0.0,0.0,0.0,1.0,0.0,0.0,0.0
recouvr,0.0,0.0,0.0,0.0,1.0,0.0,0.0,0.0,0.0,0.0,0.0
parl,0.0,0.0,0.0,0.0,0.0,0.0,0.0,0.0,1.0,0.0,0.0
recherch,0.7204301075268978,0.0,0.0,0.27956989247310216,0.0,0.0,0.0,0.0,0.0,0.0,0.0
part,0.0,0.0,0.29511210085419215,0.2796957970777682,0.1536034295428808,0.0,0.0,0.0,0.0,0.27158867252515884,0.0
prend,0.0,0.0,0.0,0.0,0.0,0.0,0.0,0.0,1.0,0.0,0.0
conserv,0.0,0.0,0.0,0.0,0.0,0.0,0.0,0.0,0.0,0.0,1.0
détermin,0.0,0.0,0.0,0.3951217776090255,0.21699310737569147,0.0,0.0,0.0,0.0,0.0,0.38788511501528294
énerget,0.0,0.0,0.0,0.0,0.0,0.0,0.0,0.0,0.0,0.0,1.0
plein,0.0,0.0,0.0,0.0,0.0,0.0,0.0,0.0,0.0,0.0,1.0
wattheur,0.0,0.0,0.0,0.0,0.0,0.0,1.0,0.0,0.0,0.0,0.0
perçoivent,0.0,0.0,0.0,0.0,0.0,0.0,0.0,0.0,1.0,0.0,0.0
structur,0.549783549783478,0.0,0.45021645021652207,0.0,0.0,0.0,0.0,0.0,0.0,0.0,0.0
élément,0.0,0.0,0.8084464555057296,0.1915535444942703,0.0,0.0,0.0,0.0,0.0,0.0,0.0
balanc,1.0,0.0,0.0,0.0,0.0,0.0,0.0,0.0,0.0,0.0,0.0
posit,0.0,0.0,0.24221023915774254,0.11477873273486487,0.0,0.0,0.0,0.0,0.24864307460828675,0.0,0.3943679534991058
jongl,0.0,0.0,0.0,0.0,0.0,0.0,0.41132637853927534,0.0,0.0,0.5886736214607247,0.0
minut,0.0,0.0,0.0,0.0,0.0,0.0,1.0,0.0,0.0,0.0,0.0
rajout,0.0,0.0,0.0,0.0,1.0,0.0,0.0,0.0,0.0,0.0,0.0
rend,0.0,0.0,0.0,1.0,0.0,0.0,0.0,0.0,0.0,0.0,0.0
divisionnair,0.0,0.0,0.0,0.0,0.0,0.0,1.0,0.0,0.0,0.0,0.0
chlorur,0.0,0.0,0.0,1.0,0.0,0.0,0.0,0.0,0.0,0.0,0.0
réarrang,1.0,0.0,0.0,0.0,0.0,0.0,0.0,0.0,0.0,0.0,0.0
exerc,0.0,0.9008172362557079,0.0,0.0,0.0,0.0,0.0,0.09918276374429211,0.0,0.0,0.0
chlor,0.0,0.0,0.0,1.0,0.0,0.0,0.0,0.0,0.0,0.0,0.0
âge,0.0,0.0,0.0,0.0,0.0,0.4326465927106273,0.0,0.0,0.0,0.0,0.5673534072893728
faut,0.3747533351194441,0.11677706922104192,0.0,0.05817066694403005,0.1277847437788321,0.0,0.0,0.0642875824370532,0.1440160622725423,0.0,0.11421054022705637
provient,0.0,0.0,1.0,0.0,0.0,0.0,0.0,0.0,0.0,0.0,0.0
faux,0.0,0.0,0.0,0.0,0.0,0.0,1.0,0.0,0.0,0.0,0.0
consol,0.0,0.0,0.0,0.0,0.0,0.0,1.0,0.0,0.0,0.0,0.0
frott,0.0,0.0,0.0,0.0,0.0,0.0,0.0,1.0,0.0,0.0,0.0
null,0.0,0.0,0.0,1.0,0.0,0.0,0.0,0.0,0.0,0.0,0.0
magnésium,0.0,0.0,0.0,0.0,1.0,0.0,0.0,0.0,0.0,0.0,0.0
min,0.0,0.0,0.0,0.0,0.0,0.0,1.0,0.0,0.0,0.0,0.0
mesur,0.4100219667381883,0.1474236284904005,0.0,0.02447892338734082,0.13443343171685804,0.0,0.06643393891453526,0.027052995743509986,0.0,0.19015511500916701,0.0
physiqu,0.4870530209616806,0.0,0.0,0.0,0.0,0.0,0.5129469790383193,0.0,0.0,0.0,0.0
zon,0.0,0.5727999999996085,0.0,0.0,0.0,0.42720000000039154,0.0,0.0,0.0,0.0,0.0
couch,0.0,0.0,0.0,0.0,1.0,0.0,0.0,0.0,0.0,0.0,0.0
=m×g,0.0,0.0,0.0,0.0,0.0,0.0,0.0,1.0,0.0,0.0,0.0
maison,0.0,0.0,0.0,0.0,0.0,0.0,1.0,0.0,0.0,0.0,0.0
lir,0.0,0.0,0.0,0.0,0.0,0.0,1.0,0.0,0.0,0.0,0.0
ioniqu,0.0,0.0,0.0,1.0,0.0,0.0,0.0,0.0,0.0,0.0,0.0
propriétair,0.0,1.0,0.0,0.0,0.0,0.0,0.0,0.0,0.0,0.0,0.0
joul,0.0,0.0,0.0,0.0,0.0,0.0,0.2365200031078563,0.0,0.0,0.5923712034352534,0.17110879345689042
=,0.04076607642873828,0.015878921155771164,0.0,0.01581967144995687,0.03475140941469828,0.11842659074295207,0.20393358740063527,0.23602297445770298,0.00979139018149922,0.13825017223676764,0.18635920653127808
inventair,0.0,1.0,0.0,0.0,0.0,0.0,0.0,0.0,0.0,0.0,0.0
transmis,0.0,0.0,0.0,0.0,0.0,0.0,0.0,0.0,0.0,1.0,0.0
cl,0.0,0.0,0.0,1.0,0.0,0.0,0.0,0.0,0.0,0.0,0.0
pain,0.0,0.0,0.0,0.0,0.0,0.0,0.0,0.0,0.0,1.0,0.0
normal,0.0,0.0,0.0,0.0,0.0,1.0,0.0,0.0,0.0,0.0,0.0
plat,0.0,0.0,0.0,0.0,0.0,0.0,0.0,0.0,0.0,0.0,1.0
assoc,0.0,0.0,0.0,0.0,0.0,0.0,0.0,0.0,0.0,0.0,1.0
r×i,0.0,0.0,0.0,0.0,0.0,0.0,0.0,0.0,0.0,1.0,0.0
compt,0.0,0.0,0.0,0.18385325210397901,0.0,0.0,0.0,0.0,0.4551747950473418,0.0,0.3609719528486791
repoussent,0.0,0.0,1.0,0.0,0.0,0.0,0.0,0.0,0.0,0.0,0.0
néglig,0.0,0.0,0.0,0.0,0.0,0.0,0.0,1.0,0.0,0.0,0.0
class,0.0,0.0,0.0,0.40044742729254146,0.0,0.5995525727074585,0.0,0.0,0.0,0.0,0.0
charg,0.0,0.0,0.8084464555054941,0.19155354449450587,0.0,0.0,0.0,0.0,0.0,0.0,0.0
homogen,0.0,0.0,0.0,0.0,0.0,1.0,0.0,0.0,0.0,0.0,0.0
deuxiem,0.0,0.0,0.0,0.0,1.0,0.0,0.0,0.0,0.0,0.0,0.0
doi,0.0,1.0,0.0,0.0,0.0,0.0,0.0,0.0,0.0,0.0,0.0
pesanteur,0.0,0.0,0.0,0.0,0.0,0.0,0.0,1.0,0.0,0.0,0.0
agissent,0.0,1.0,0.0,0.0,0.0,0.0,0.0,0.0,0.0,0.0,0.0
entrain,0.0,0.0,0.0,0.0,0.44733861834670907,0.0,0.5526613816532909,0.0,0.0,0.0,0.0
réécrir,0.0,0.0,0.0,1.0,0.0,0.0,0.0,0.0,0.0,0.0,0.0
m,0.0,0.0,0.0,0.0,0.0,1.0,0.0,0.0,0.0,0.0,0.0
km,0.0,0.0,0.0,0.0,0.0,0.0,0.0,0.3254520166897372,0.0,0.0,0.6745479833102628
kw,0.0,0.0,0.0,0.0,0.0,0.0,1.0,0.0,0.0,0.0,0.0
kz,0.0,0.0,0.0,0.0,0.0,1.0,0.0,0.0,0.0,0.0,0.0
gramm,1.0,0.0,0.0,0.0,0.0,0.0,0.0,0.0,0.0,0.0,0.0
alliag,1.0,0.0,0.0,0.0,0.0,0.0,0.0,0.0,0.0,0.0,0.0
+,0.0,0.0,0.0,0.3212049287529575,0.6241825916874459,0.0,0.0,0.05461247955959649,0.0,0.0,0.0
re,0.0,0.0,0.0,0.0,0.0,0.0,0.0,1.0,0.0,0.0,0.0
=u,0.0,0.0,0.0,0.0,0.0,0.0,1.0,0.0,0.0,0.0,0.0
engendr,0.0,0.0,0.0,0.0,0.0,0.0,1.0,0.0,0.0,0.0,0.0
=p,0.0,0.0,0.0,0.0,0.0,0.0,1.0,0.0,0.0,0.0,0.0
différent,0.39181286549759076,0.0,0.0,0.6081871345024094,0.0,0.0,0.0,0.0,0.0,0.0,0.0
ohmiqu,0.0,0.0,0.0,0.0,0.0,0.0,0.0,0.0,0.0,1.0,0.0
présent,0.0,0.0,0.4787265638999909,0.22685922990774757,0.12458662626095172,0.16982757993130973,0.0,0.0,0.0,0.0,0.0
ajout,0.0,0.0,0.0,1.0,0.0,0.0,0.0,0.0,0.0,0.0,0.0
dioxygen,0.0,0.0,1.0,0.0,0.0,0.0,0.0,0.0,0.0,0.0,0.0
indispens,0.0,0.0,0.0,0.0,0.0,0.0,1.0,0.0,0.0,0.0,0.0
ferriqu,0.0,0.0,0.0,1.0,0.0,0.0,0.0,0.0,0.0,0.0,0.0
différenc,0.0,0.0,0.0,1.0,0.0,0.0,0.0,0.0,0.0,0.0,0.0
distanc,0.0,0.0,0.0,0.0,0.0,0.0,0.0,0.641006661731795,0.3589933382682051,0.0,0.0
uniform,0.0,0.0,0.0,0.0,0.0,0.0,0.0,0.0,1.0,0.0,0.0
principal,1.0,0.0,0.0,0.0,0.0,0.0,0.0,0.0,0.0,0.0,0.0
onde,0.0,0.0,0.0,0.0,0.0,1.0,0.0,0.0,0.0,0.0,0.0
ampoul,0.0,0.0,0.0,0.0,0.0,0.0,1.0,0.0,0.0,0.0,0.0
eau,0.44586667353846576,0.0,0.18255958286642826,0.08651144411939689,0.285062299475709,0.0,0.0,0.0,0.0,0.0,0.0
solut,0.0,0.0,0.0,0.23282442748107254,0.7671755725189274,0.0,0.0,0.0,0.0,0.0,0.0
ρ,1.0,0.0,0.0,0.0,0.0,0.0,0.0,0.0,0.0,0.0,0.0
dispers,0.0,0.0,0.0,0.0,1.0,0.0,0.0,0.0,0.0,0.0,0.0
renferm,0.0,0.0,0.0,0.0,0.0,0.0,0.0,1.0,0.0,0.0,0.0
connaitr,0.19123825426109856,0.0,0.0,0.0,0.0,0.22222098819167205,0.40281070264547725,0.0,0.18373005490175215,0.0,0.0
rendr,0.0,0.0,0.0,0.0,0.0,0.0,0.0,0.0,0.0,0.0,1.0
local,0.0,0.0,0.0,0.0,0.0,0.0,1.0,0.0,0.0,0.0,0.0
rapproch,0.0,0.0,0.0,0.0,1.0,0.0,0.0,0.0,0.0,0.0,0.0
périod,0.0,0.0,0.6784810126585856,0.32151898734141443,0.0,0.0,0.0,0.0,0.0,0.0,0.0
molécules et,0.0,0.0,0.0,1.0,0.0,0.0,0.0,0.0,0.0,0.0,0.0
express,0.10238659034659885,0.0,0.0,0.0,0.0,0.0793162413113013,0.2516031654755523,0.20491391827407904,0.0,0.20576242311212614,0.15601766148034227
intérieur,0.0,0.0,0.0,0.0,0.0,0.5474083438690188,0.0,0.0,0.4525916561309811,0.0,0.0
plastiqu,0.0,0.0,0.0,0.0,1.0,0.0,0.0,0.0,0.0,0.0,0.0
mieux,0.0,0.0,0.0,0.0,0.0,0.0,1.0,0.0,0.0,0.0,0.0
international,0.4870530209622003,0.0,0.0,0.0,0.0,0.0,0.5129469790377997,0.0,0.0,0.0,0.0
 ,0.09537393610750726,0.0,0.0,0.14804312470387063,0.0,0.6649534763233932,0.0,0.0,0.0916294628652288,0.0,0.0
dt,0.0,0.0,0.0,0.0,0.0,0.0,0.0,1.0,0.0,0.0,0.0
du,0.0,0.0,0.0,0.0,0.0,0.0,0.0,1.0,0.0,0.0,0.0
poid,0.0,0.05217297762478734,0.0,0.0,0.0,0.0,0.0,0.9478270223752127,0.0,0.0,0.0
allong,0.0,1.0,0.0,0.0,0.0,0.0,0.0,0.0,0.0,0.0,0.0
nouveau,0.0,0.0,0.0,0.0,1.0,0.0,0.0,0.0,0.0,0.0,0.0
concerne ,0.0,0.0,0.0,1.0,0.0,0.0,0.0,0.0,0.0,0.0,0.0
organ,0.0,0.0,0.0,0.0,0.0,1.0,0.0,0.0,0.0,0.0,0.0
électron,0.0,0.0,0.33791830586586863,0.6176555814581317,0.0,0.0,0.0,0.0,0.0,0.04442611267599957,0.0
synthes,0.0,0.0,0.0,0.0,1.0,0.0,0.0,0.0,0.0,0.0,0.0
grav,0.0,0.0,0.0,0.0,0.0,1.0,0.0,0.0,0.0,0.0,0.0
mettr,1.0,0.0,0.0,0.0,0.0,0.0,0.0,0.0,0.0,0.0,0.0
rappel,0.2346235785054516,0.12185194589044819,0.0,0.0,0.06666899498517877,0.09087840657207184,0.08236574570315383,0.13416276104238808,0.15027468615582598,0.0,0.11917388114548162
intrinsequ,0.0,0.0,0.0,0.0,0.0,0.0,0.0,1.0,0.0,0.0,0.0
dirig,0.0,0.0,0.0,0.0,0.0,0.0,0.0,1.0,0.0,0.0,0.0
fair,0.11652106266098826,0.3630918506883486,0.0,0.0,0.09932943046500145,0.0,0.24543170666779096,0.0,0.0,0.1756259495178708,0.0
cercl,0.0,0.0,0.0,0.0,0.0,0.0,0.0,0.0,1.0,0.0,0.0
arc,0.0,0.0,0.0,0.0,0.0,0.0,0.0,0.0,1.0,0.0,0.0
distill,0.0,0.0,0.0,0.0,1.0,0.0,0.0,0.0,0.0,0.0,0.0
sen,0.0,0.8107481019296006,0.0,0.0,0.0,0.0,0.0,0.0892658734906698,0.09998602457972959,0.0,0.0
«,0.0,0.0,0.3092436795641053,0.14654457949487626,0.0,0.0,0.0,0.0,0.5442117409410184,0.0,0.0
paul,0.0,0.0,0.0,0.0,0.0,0.0,0.0,0.0,1.0,0.0,0.0
mélang,0.16353887399500286,0.0,0.0,0.0,0.8364611260049971,0.0,0.0,0.0,0.0,0.0,0.0
infraroug,0.0,0.0,0.0,0.0,0.0,1.0,0.0,0.0,0.0,0.0,0.0
×t,0.0,0.0,0.0,0.0,0.0,0.0,1.0,0.0,0.0,0.0,0.0
effervescent,0.0,0.0,0.0,0.0,1.0,0.0,0.0,0.0,0.0,0.0,0.0
×i,0.0,0.0,0.0,0.0,0.0,0.0,1.0,0.0,0.0,0.0,0.0
heur,0.0,0.0,0.0,0.0,0.0,0.0,1.0,0.0,0.0,0.0,0.0
sait,0.0,0.0,0.0,0.0,0.0,0.0,0.0,0.0,1.0,0.0,0.0
sais,0.0,0.0,0.0,0.0,0.0,1.0,0.0,0.0,0.0,0.0,0.0
matériau,0.5702479338839839,0.0,0.0,0.0,0.0,0.0,0.0,0.0,0.0,0.4297520661160162,0.0
trajectoir,0.0,0.0,0.0,0.0,0.0,0.0,0.0,0.0,1.0,0.0,0.0
import,0.0,0.0,0.0,0.0,0.0,0.0,0.40868263473075644,0.0,0.0,0.0,0.5913173652692436
gagn,0.0,0.0,0.0,0.604428044280548,0.0,0.0,0.0,0.0,0.0,0.0,0.395571955719452
énerg,0.0,0.0,0.0,0.0,0.0,0.0,0.2205029806007926,0.0,0.0,0.03506387976537633,0.7444331396338311
hauteur,0.0,0.0,0.0,0.0,0.0,1.0,0.0,0.0,0.0,0.0,0.0
lun,0.0,0.0,0.0,0.0,0.0,0.0,0.0,1.0,0.0,0.0,0.0
vaut,0.0,0.0,0.0,0.0,0.0,0.0,0.55113636363671,0.44886363636329,0.0,0.0,0.0
jou,0.0,0.0,0.0,0.0,0.0,0.0,1.0,0.0,0.0,0.0,0.0
vertical,0.0,0.644946808510431,0.0,0.0,0.0,0.0,0.0,0.35505319148956893,0.0,0.0,0.0
effet,0.0,0.13919400584911729,0.07315905425542069,0.0,0.0,0.0,0.047044050078113735,0.0,0.0,0.7406028898173483,0.0
numer,0.21675162832148331,0.0,0.0,0.0,0.0,0.0,0.45655026522320896,0.0,0.0,0.3266981064553077,0.0
sontexprimesenk,0.0,0.0,0.0,0.0,0.0,0.0,0.0,1.0,0.0,0.0,0.0
intéresse égal,1.0,0.0,0.0,0.0,0.0,0.0,0.0,0.0,0.0,0.0,0.0
ressort,0.0,1.0,0.0,0.0,0.0,0.0,0.0,0.0,0.0,0.0,0.0
dang,0.0,0.0,0.0,0.0,1.0,0.0,0.0,0.0,0.0,0.0,0.0
solv,0.0,0.0,0.0,1.0,0.0,0.0,0.0,0.0,0.0,0.0,0.0
bech,1.0,0.0,0.0,0.0,0.0,0.0,0.0,0.0,0.0,0.0,0.0
alor,0.2675787202474543,0.0,0.1460797212900754,0.20767303660980396,0.0,0.20728630842252949,0.0,0.0,0.1713822134301368,0.0,0.0
tour,0.0,0.0,0.0,0.0,0.0,0.0,0.0,0.0,1.0,0.0,0.0
audibl,0.0,0.0,0.0,0.0,0.0,1.0,0.0,0.0,0.0,0.0,0.0
passag,0.0,0.0,0.0,0.0,0.0,0.0,0.0,0.0,0.0,1.0,0.0
cherch,0.0,0.0,0.0,0.0,0.0,0.0,0.582893347412664,0.0,0.0,0.4171066525873361,0.0
mani,0.0,0.0,0.0,0.0,0.0,0.0,0.0,0.0,1.0,0.0,0.0
 la,0.0,0.0,0.0,1.0,0.0,0.0,0.0,0.0,0.0,0.0,0.0
con,0.0,0.0,0.0,1.0,0.0,0.0,0.0,0.0,0.0,0.0,0.0
autour,0.0,0.0,1.0,0.0,0.0,0.0,0.0,0.0,0.0,0.0,0.0
co,0.0,0.0,0.0,1.0,0.0,0.0,0.0,0.0,0.0,0.0,0.0
cm,0.6160590678351072,0.38394093216489267,0.0,0.0,0.0,0.0,0.0,0.0,0.0,0.0,0.0
réduit,0.0,0.0,0.0,0.0,0.0,1.0,0.0,0.0,0.0,0.0,0.0
=g×,0.0,0.0,0.0,0.0,0.0,0.0,0.0,1.0,0.0,0.0,0.0
reçu,0.0,0.0,0.0,0.0,0.0,0.0,0.0,0.0,0.0,0.0,1.0
nœud,0.0,0.0,0.0,0.0,0.0,0.0,1.0,0.0,0.0,0.0,0.0
proton,0.0,0.0,1.0,0.0,0.0,0.0,0.0,0.0,0.0,0.0,0.0
exploit,0.1012905216294947,0.0,0.0,0.0,0.0,0.11770071787118117,0.2133511746732609,0.2606403525638772,0.0,0.15266977173139704,0.15434746153078902
éloign,0.0,0.0,0.0,0.0,0.0,1.0,0.0,0.0,0.0,0.0,0.0
besoin,0.09062401053352492,0.0,0.0,0.0,0.0,0.21061222559709297,0.1908839918069989,0.2331933301972605,0.0,0.13659271152868194,0.13809373033644085
commenc,0.0,1.0,0.0,0.0,0.0,0.0,0.0,0.0,0.0,0.0,0.0
respect,0.0,0.0,0.0,1.0,0.0,0.0,0.0,0.0,0.0,0.0,0.0
début,0.0,0.0,1.0,0.0,0.0,0.0,0.0,0.0,0.0,0.0,0.0
lorsqu,0.0,0.0,0.4723847262572761,0.22385395609916298,0.0,0.0,0.3037613176435609,0.0,0.0,0.0,0.0
téléphon,0.0,0.0,0.0,0.0,0.0,0.0,0.0,0.0,0.0,1.0,0.0
dégrad,0.0,0.0,0.0,0.0,1.0,0.0,0.0,0.0,0.0,0.0,0.0
compos,0.0,0.15962776165583673,0.5033930593929575,0.2385482035191251,0.0,0.0,0.0,0.0,0.09843097543208065,0.0,0.0
milieu,0.0,0.0,0.0,0.0,0.0,0.4326465927106273,0.0,0.0,0.0,0.0,0.5673534072893728
dessin,0.0,0.44777662874880875,0.0,0.0,0.0,0.0,0.0,0.0,0.5522233712511913,0.0,0.0
cient,0.6998556998559141,0.0,0.0,0.0,0.0,0.0,0.0,0.30014430014408583,0.0,0.0,0.0
fusibl,0.0,0.0,0.0,0.0,0.0,0.0,1.0,0.0,0.0,0.0,0.0
destin,0.0,0.0,0.0,0.0,1.0,0.0,0.0,0.0,0.0,0.0,0.0
dur,0.0,0.0,0.0,0.0,0.0,0.0,0.6218286261369759,0.0,0.3781713738630242,0.0,0.0
cuivr,0.0,0.0,0.0,1.0,0.0,0.0,0.0,0.0,0.0,0.0,0.0
regroup,0.0,0.0,0.0,1.0,0.0,0.0,0.0,0.0,0.0,0.0,0.0
imag,0.0,0.0,0.0,0.0,0.0,0.7075163398693265,0.0,0.0,0.2924836601306734,0.0,0.0
milliard,0.0,0.0,1.0,0.0,0.0,0.0,0.0,0.0,0.0,0.0,0.0
gazeux,0.0,0.0,0.0,0.0,1.0,0.0,0.0,0.0,0.0,0.0,0.0
chut,0.0,0.0,0.0,0.0,0.0,0.0,0.0,0.3601583113458106,0.0,0.0,0.6398416886541893
kilogramm,0.0,0.0,0.0,0.0,0.0,0.0,0.0,0.6280674846628376,0.0,0.0,0.37193251533716254
linéair,0.0,0.0,0.0,0.0,0.0,0.0,0.0,0.0,0.0,1.0,0.0
résist,0.0,0.0,0.0,0.0,0.0,0.0,0.0,0.0,0.0,1.0,0.0
molécul,0.0,0.0,0.48397291196475817,0.516027088035242,0.0,0.0,0.0,0.0,0.0,0.0,0.0
^,0.0,0.0,0.0,0.0,0.0,0.0,0.0,1.0,0.0,0.0,0.0
vsolid,1.0,0.0,0.0,0.0,0.0,0.0,0.0,0.0,0.0,0.0,0.0
ident,0.35346077463843695,0.0,0.0,0.1371638826955019,0.0,0.0,0.0,0.0,0.5093753426660612,0.0,0.0
solid,0.35575221239008425,0.0,0.0,0.6442477876099157,0.0,0.0,0.0,0.0,0.0,0.0,0.0
abon,0.0,0.0,0.0,0.0,0.0,0.0,1.0,0.0,0.0,0.0,0.0
air,0.0,0.0,0.0,0.0,0.0,0.802537231108965,0.0,0.197462768891035,0.0,0.0,0.0
élev,0.0,0.0,0.0,0.1805837655309668,0.19834610312439882,0.2703712243709755,0.0,0.0,0.0,0.3506989069736589,0.0
maneg,0.0,0.0,0.0,0.0,0.0,0.0,0.0,0.0,1.0,0.0,0.0
calcul,0.18658180478502817,0.0,0.0,0.11584780715033875,0.0,0.04336202837480233,0.07860053750963308,0.2560594830207142,0.035851284429903076,0.05624494984842937,0.2274521048811511
égal,0.0,0.3262602380358663,0.0,0.0,0.17850713843365437,0.0,0.0,0.17961130629988428,0.0,0.3156213172305951,0.0
indiqu,0.0,0.0,0.0,0.0,0.38601717520336415,0.0,0.15896741054777838,0.0,0.0,0.4550154142488574,0.0
kiloohm,0.0,0.0,0.0,0.0,0.0,0.0,0.0,0.0,0.0,1.0,0.0
étud,0.0,0.6185714285715254,0.0,0.0,0.0,0.0,0.0,0.0,0.3814285714284747,0.0,0.0
puissanc,0.0,0.0,0.0,0.0,0.0,0.0,1.0,0.0,0.0,0.0,0.0
observ,0.0,0.0,0.0,0.0,0.402490621182676,0.0,0.0,0.0,0.4536152959324902,0.0,0.14389408288483369
chargeur,0.0,0.0,0.0,0.0,0.0,0.0,0.0,0.0,0.0,1.0,0.0
aluminium,0.0,0.0,0.0,0.0,1.0,0.0,0.0,0.0,0.0,0.0,0.0
énonc,0.2864030178304619,0.0,0.0,0.22228293921122166,0.0,0.0,0.0,0.4913140429583165,0.0,0.0,0.0
conten,0.0,0.0,0.0,0.0,1.0,0.0,0.0,0.0,0.0,0.0,0.0
électr,0.012152526203913057,0.0,0.31845360005188017,0.05659086829252441,0.0,0.0,0.4479513456422109,0.0,0.0,0.16485165980947136,0.0
comport,0.0,0.0,0.0,1.0,0.0,0.0,0.0,0.0,0.0,0.0,0.0
δt,0.0,0.0,0.0,0.0,0.0,0.0,0.0,0.0,1.0,0.0,0.0
ii,0.0,0.0,0.0,1.0,0.0,0.0,0.0,0.0,0.0,0.0,0.0
réaction,0.0,0.0,0.09644268774722263,0.0,0.9035573122527774,0.0,0.0,0.0,0.0,0.0,0.0
situ,0.0,0.0,0.0,0.0,0.0,0.0,0.0,0.3086243763361851,0.691375623663815,0.0,0.0
lesmassesdesdeuxobjet,0.0,0.0,0.0,0.0,0.0,0.0,0.0,1.0,0.0,0.0,0.0
risqu,0.0,0.0,0.0,0.0,0.0,0.0,1.0,0.0,0.0,0.0,0.0
marqu,0.0,0.0,1.0,0.0,0.0,0.0,0.0,0.0,0.0,0.0,0.0
surchauff,0.0,0.0,0.0,0.0,0.0,0.0,1.0,0.0,0.0,0.0,0.0
dilut,0.0,0.0,0.0,0.0,1.0,0.0,0.0,0.0,0.0,0.0,0.0
mont,0.0,0.0,0.0,0.0,0.0,0.0,0.0,0.0,1.0,0.0,0.0
côt,0.0,1.0,0.0,0.0,0.0,0.0,0.0,0.0,0.0,0.0,0.0
isol,0.0,0.0,0.0,0.0,0.0,0.0,0.0,0.0,0.0,1.0,0.0
établ,0.0,0.0,0.0,1.0,0.0,0.0,0.0,0.0,0.0,0.0,0.0
grand,0.0,0.0,0.0,0.3257992104649355,0.35784503444549387,0.0,0.0,0.0,0.0,0.31635575508957053,0.0
grandeur,0.09067082652377757,0.0,0.0,0.0,0.0,0.0,0.4774565042256626,0.1555425312736743,0.0,0.0,0.2763301379768856
complet,0.0,0.4361210826136874,0.0,0.0,0.23861542839737176,0.3252634889889409,0.0,0.0,0.0,0.0,0.0
i=,0.0,0.0,0.0,0.0,0.0,0.0,1.0,0.0,0.0,0.0,0.0
est environ,0.0,0.0,0.0,0.0,0.0,0.0,0.0,1.0,0.0,0.0,0.0
effect,0.0,0.0,0.0,0.0,0.0,0.0,1.0,0.0,0.0,0.0,0.0
deven,0.0,0.0,0.0,1.0,0.0,0.0,0.0,0.0,0.0,0.0,0.0
capabl,0.0,0.0,0.0,0.0,0.0,0.6881533101045146,0.3118466898954854,0.0,0.0,0.0,0.0
nir,0.0,0.0,0.0,0.0,0.0,0.0,0.0,0.0,1.0,0.0,0.0
moyen,0.0,0.0,0.0,0.0,0.0,0.0,0.0,0.0,0.23968393327466486,0.0,0.7603160667253351
v=,0.0,0.0,0.0,0.0,0.0,0.7839468919735842,0.0,0.0,0.21605310802641567,0.0,0.0
travers,0.0,0.0,0.0,0.0,0.0,0.0,0.14870689655161018,0.0,0.0,0.8512931034483897,0.0
correspondent,0.34353677452957987,0.0,0.0,0.0,0.0,0.0,0.3618007549469931,0.2946624705234272,0.0,0.0,0.0
particul,0.0,0.0,0.7014106583073468,0.0,0.0,0.2985893416926531,0.0,0.0,0.0,0.0,0.0
possed,0.05432939976015201,0.0846480535587548,0.08898043425280112,0.42166101306295556,0.0,0.0,0.05721779822831599,0.046600062474542625,0.0,0.1637755818853186,0.08278765677715925
équat,0.0,0.0,0.0,0.0,1.0,0.0,0.0,0.0,0.0,0.0,0.0
guépard,0.0,0.0,0.0,0.0,0.0,0.0,0.0,0.0,0.0,0.0,1.0
propos,0.0,0.0,0.0,0.0,1.0,0.0,0.0,0.0,0.0,0.0,0.0
coup,0.0,0.0,0.0,0.0,0.0,0.0,1.0,0.0,0.0,0.0,0.0
cour,0.0,0.0,0.0,0.0,0.0,0.0,0.398434374416411,0.0,0.14538713893250504,0.45617848665108407,0.0
protocol,1.0,0.0,0.0,0.0,0.0,0.0,0.0,0.0,0.0,0.0,0.0
just,0.0,0.0,0.0,0.0,1.0,0.0,0.0,0.0,0.0,0.0,0.0
couleur,0.0,0.0,0.0,1.0,0.0,0.0,0.0,0.0,0.0,0.0,0.0
newton,0.0,0.4759568204122455,0.0,0.0,0.0,0.0,0.0,0.5240431795877545,0.0,0.0,0.0
intervall,0.0,0.0,0.0,0.0,0.0,0.0,0.0,0.0,1.0,0.0,0.0
rest,0.0,0.0,0.0,0.0,0.25545612302477766,0.0,0.0,0.0,0.2879043603602149,0.0,0.4566395166150074
fer ,0.0,0.0,0.0,1.0,0.0,0.0,0.0,0.0,0.0,0.0,0.0
kilowattheur,0.0,0.0,0.0,0.0,0.0,0.0,1.0,0.0,0.0,0.0,0.0
amusent,0.0,0.0,0.0,0.0,0.0,0.0,0.0,0.0,1.0,0.0,0.0
simultan,0.0,0.0,0.0,0.0,0.0,0.0,1.0,0.0,0.0,0.0,0.0
devient,0.0,0.0,0.0,0.0,1.0,0.0,0.0,0.0,0.0,0.0,0.0
rapid,0.0,0.0,1.0,0.0,0.0,0.0,0.0,0.0,0.0,0.0,0.0
chronophotograph,0.0,0.0,0.0,0.0,0.0,0.0,0.0,0.0,1.0,0.0,0.0
point,0.0,0.8371535861214912,0.0,0.0,0.0,0.0,0.0,0.0768109991387287,0.08603541473978008,0.0,0.0
transparent,0.0,0.0,0.0,0.0,0.0,1.0,0.0,0.0,0.0,0.0,0.0
n,0.0,0.0,0.0,0.1678476603958848,0.0,0.5026052847610578,0.0,0.0,0.0,0.0,0.32954705484305746
départ,0.0,0.0,0.0,0.31282051282027207,0.687179487179728,0.0,0.0,0.0,0.0,0.0,0.0
=r×i,0.0,0.0,0.0,0.0,0.0,0.0,0.0,0.0,0.0,1.0,0.0
chlorhydr,0.0,0.0,0.0,0.0,1.0,0.0,0.0,0.0,0.0,0.0,0.0
métall,0.0,0.0,0.0,1.0,0.0,0.0,0.0,0.0,0.0,0.0,0.0
branch,0.0,0.0,0.0,0.0,0.0,0.0,1.0,0.0,0.0,0.0,0.0
format,0.0,0.0,0.0,1.0,0.0,0.0,0.0,0.0,0.0,0.0,0.0
big,0.0,0.0,1.0,0.0,0.0,0.0,0.0,0.0,0.0,0.0,0.0
haut,0.0,0.29935994962124657,0.0,0.0,0.0,0.22326566075139867,0.0,0.0,0.18459377955852208,0.0,0.29278061006883266
fusion,0.0,0.0,1.0,0.0,0.0,0.0,0.0,0.0,0.0,0.0,0.0
réciproqu,0.0,1.0,0.0,0.0,0.0,0.0,0.0,0.0,0.0,0.0,0.0
assis,0.0,0.0,0.0,0.0,0.0,0.0,0.0,0.0,1.0,0.0,0.0
caractéris,1.0,0.0,0.0,0.0,0.0,0.0,0.0,0.0,0.0,0.0,0.0
libr,0.14093959731575104,0.0,0.0,0.0,0.0,0.0,0.0,0.0,0.0,0.0,0.859060402684249
circul,0.0,0.0,0.0,0.0,0.0,0.0,1.0,0.0,0.0,0.0,0.0
électromagnet,0.0,0.0,0.0,0.0,0.0,1.0,0.0,0.0,0.0,0.0,0.0
faibl,0.0,0.18952410783996784,0.0,0.09440846416649638,0.10369454260921873,0.14134898545629157,0.0,0.10433595215091648,0.0,0.36668794777710906,0.0
insert,1.0,0.0,0.0,0.0,0.0,0.0,0.0,0.0,0.0,0.0,0.0
success,0.0,0.0,0.0,0.0,0.0,0.0,0.0,0.0,1.0,0.0,0.0
signal,0.0,0.0,0.0,0.0,0.0,1.0,0.0,0.0,0.0,0.0,0.0
chimiqu,0.0,0.0,0.11344112136588165,0.5913330095072911,0.2952258691268273,0.0,0.0,0.0,0.0,0.0,0.0
cu,0.0,0.0,0.0,1.0,0.0,0.0,0.0,0.0,0.0,0.0,0.0
parfois,0.0,0.0,0.0,0.0,0.0,0.0,0.0,0.0,0.0,0.0,1.0
mhz,0.0,0.0,0.0,0.0,0.0,1.0,0.0,0.0,0.0,0.0,0.0
obtenu,0.4587465940051532,0.0,0.0,0.0,0.1955313351499408,0.0,0.0,0.0,0.0,0.34572207084490586,0.0
somm,0.0,0.0,0.0,0.0,0.0,0.0,0.0,0.0,0.0,0.0,1.0
universel,0.0,0.0,0.0,0.0,0.0,0.0,0.0,1.0,0.0,0.0,0.0
substitu,1.0,0.0,0.0,0.0,0.0,0.0,0.0,0.0,0.0,0.0,0.0
born,0.0,0.0,0.0,0.0,0.0,0.0,0.317789291882361,0.0,0.0,0.682210708117639,0.0
transportent,0.0,0.0,0.0,0.0,0.0,1.0,0.0,0.0,0.0,0.0,0.0
incend,0.0,0.0,0.0,0.0,0.0,0.0,1.0,0.0,0.0,0.0,0.0
diff,1.0,0.0,0.0,0.0,0.0,0.0,0.0,0.0,0.0,0.0,0.0
ici,0.20142436952077294,0.10460990976357722,0.0,0.15632936141898646,0.2289413598925426,0.0,0.0,0.11517874600783667,0.19351625339628403,0.0,0.0
o+,0.0,0.0,0.0,1.0,0.0,0.0,0.0,0.0,0.0,0.0,0.0
èche,0.0,1.0,0.0,0.0,0.0,0.0,0.0,0.0,0.0,0.0,0.0
dériv,0.0,0.0,0.0,0.0,0.0,0.0,1.0,0.0,0.0,0.0,0.0
pes,0.0,0.0,0.0,0.0,0.0,0.0,0.0,0.0,0.0,0.0,1.0
δt=,0.0,0.0,0.0,0.0,0.0,0.0,0.0,0.0,1.0,0.0,0.0
unit,0.15059112708783584,0.0,0.0,0.03895889855005676,0.0,0.11665904817228251,0.4229259670456966,0.04305560746971297,0.0,0.1513186204552899,0.0764907312191254
condit,0.0,0.0,1.0,0.0,0.0,0.0,0.0,0.0,0.0,0.0,0.0
 lorsqu,0.0,0.0,0.0,0.0,0.0,0.0,1.0,0.0,0.0,0.0,0.0
trouv,0.28000726827470707,0.10906650150031498,0.11464864527801168,0.10865953694241495,0.0,0.0,0.14744686531939546,0.24017118268515583,0.0,0.0,0.0
sépar,0.0,0.0,0.0,0.0,0.0,0.0,0.0,0.0,1.0,0.0,0.0
lessent,0.0,1.0,0.0,0.0,0.0,0.0,0.0,0.0,0.0,0.0,0.0
numéro,0.0,0.0,1.0,0.0,0.0,0.0,0.0,0.0,0.0,0.0,0.0
fois,0.0,0.0,0.0,0.26773173975346,0.0,0.4008497556094061,0.0,0.0,0.33141850463713385,0.0,0.0
corp,0.7748917748914086,0.0,0.0,0.0,0.0,0.22510822510859144,0.0,0.0,0.0,0.0,0.0
savoir,0.7011494252871383,0.0,0.0,0.0,0.2988505747128616,0.0,0.0,0.0,0.0,0.0,0.0
boisson,0.0,0.0,0.0,0.0,1.0,0.0,0.0,0.0,0.0,0.0,0.0
contenu,1.0,0.0,0.0,0.0,0.0,0.0,0.0,0.0,0.0,0.0,0.0
dipôl,0.0,0.0,0.0,0.0,0.0,0.0,0.0,0.0,0.0,1.0,0.0
neutralisent,0.0,0.0,0.0,0.0,1.0,0.0,0.0,0.0,0.0,0.0,0.0
thermiqu,0.0,0.0,0.0,0.0,0.0,0.0,0.0,0.0,0.0,1.0,0.0
cristallin,1.0,0.0,0.0,0.0,0.0,0.0,0.0,0.0,0.0,0.0,0.0
coexist,0.0,0.0,0.0,1.0,0.0,0.0,0.0,0.0,0.0,0.0,0.0
permettr,0.0,0.0,0.0,0.0,1.0,0.0,0.0,0.0,0.0,0.0,0.0
o,0.0,0.0,0.0,0.0,0.0,0.0,0.30811016100630423,0.25093507958210265,0.0,0.4409547594115932,0.0
gravit,0.0,0.0965366242037054,0.0,0.0,0.0,0.0,0.0,0.9034633757962945,0.0,0.0,0.0
aqueux,0.0,0.0,0.0,0.0,1.0,0.0,0.0,0.0,0.0,0.0,0.0
permettent,0.0,0.0,0.0,0.44685242518055657,0.0,0.0,0.0,0.0,0.5531475748194434,0.0,0.0
obéiss,0.0,0.0,0.0,0.0,0.0,0.0,0.0,0.0,0.0,1.0,0.0
or,0.7228977564656393,0.0,0.0,0.09350916252769166,0.0,0.0,0.0,0.0,0.0,0.0,0.18359308100666916
vi,0.0,0.0,0.0,0.0,0.0,0.0,1.0,0.0,0.0,0.0,0.0
metr,0.0,0.0,0.0,0.0,0.20833693923062477,0.0,0.0,0.4192512426580701,0.0,0.0,0.3724118181113051
rho,1.0,0.0,0.0,0.0,0.0,0.0,0.0,0.0,0.0,0.0,0.0
fréquenc,0.0,0.0,0.0,0.0,0.0,1.0,0.0,0.0,0.0,0.0,0.0
lien,0.39092240117167926,0.6090775988283208,0.0,0.0,0.0,0.0,0.0,0.0,0.0,0.0,0.0
sol,0.0,0.5647212259520807,0.0,0.0,0.0,0.0,0.0,0.0,0.4352787740479192,0.0,0.0
erre,0.0,0.0,0.0,0.0,0.0,0.0,0.0,1.0,0.0,0.0,0.0
son,0.0,0.0,0.0,0.0,0.0,1.0,0.0,0.0,0.0,0.0,0.0
watt,0.0,0.0,0.0,0.0,0.0,0.0,1.0,0.0,0.0,0.0,0.0
basiqu,0.0,0.0,0.0,0.0,1.0,0.0,0.0,0.0,0.0,0.0,0.0
dépend,0.0,0.0,0.0,0.0,0.0,0.0,0.19715447154493704,0.802845528455063,0.0,0.0,0.0
prec,0.0,0.0,0.0,0.0,0.0,0.0,1.0,0.0,0.0,0.0,0.0
lieu,0.0,0.0,0.6562922868747363,0.0,0.0,0.0,0.0,0.34370771312526377,0.0,0.0,0.0
chang,0.0,0.0,0.0,0.0,1.0,0.0,0.0,0.0,0.0,0.0,0.0
étoil,0.0,0.0,1.0,0.0,0.0,0.0,0.0,0.0,0.0,0.0,0.0
obten,0.0,0.0,0.0,0.0,0.0,1.0,0.0,0.0,0.0,0.0,0.0
exprim,0.06500265438755914,0.20255508782907777,0.0,0.0,0.0,0.0,0.0,0.44603883257964166,0.18735176137531728,0.0,0.09905166382840404
ète,0.0,0.0,0.0,0.0,0.0,0.0,0.0,1.0,0.0,0.0,0.0
remarqu,0.0,0.0,0.0,0.0,0.0,0.2554687225391699,0.5788468523356279,0.0,0.0,0.16568442512520207,0.0
transfer,0.0,0.0,0.0,0.0,0.0,0.0,0.0,0.0,0.0,0.0,1.0
loi,0.0,0.0,0.0,0.0,0.0,0.0,0.047094419279610854,0.0767104973833623,0.0,0.8761950833370268,0.0
proportionnel,0.0,0.420609683275939,0.0,0.0,0.0,0.0,0.14215542460083827,0.23155213491706672,0.0,0.0,0.20568275720615598
hertz,0.0,0.0,0.0,0.0,0.0,1.0,0.0,0.0,0.0,0.0,0.0
hydroxyd,0.0,0.0,0.0,0.3777089783279101,0.6222910216720898,0.0,0.0,0.0,0.0,0.0,0.0
lor,0.0,0.0,0.0,0.0,0.23975742354004972,0.0,0.09873554657170214,0.0,0.09007053324667676,0.0,0.5714364966415714
strict,0.0,0.0,0.0,0.0,1.0,0.0,0.0,0.0,0.0,0.0,0.0
reli,1.0,0.0,0.0,0.0,0.0,0.0,0.0,0.0,0.0,0.0,0.0
matériel,1.0,0.0,0.0,0.0,0.0,0.0,0.0,0.0,0.0,0.0,0.0
suiv,0.0,0.0,0.23853347895030474,0.0,0.4966188824044746,0.0,0.0,0.12492268794478574,0.13992495070043498,0.0,0.0
fraction,0.0,0.0,0.0,0.0,0.0,0.0,1.0,0.0,0.0,0.0,0.0
suit,0.39092240117167926,0.6090775988283208,0.0,0.0,0.0,0.0,0.0,0.0,0.0,0.0,0.0
var,0.0,0.0,0.0,0.15296411109206667,0.16800976136360568,0.0,0.0,0.0,0.3787009863527098,0.0,0.30032514119161785
échantillon,1.0,0.0,0.0,0.0,0.0,0.0,0.0,0.0,0.0,0.0,0.0
précédent,0.0,0.3857434433288445,0.0,0.19215205106108535,0.4221045056100701,0.0,0.0,0.0,0.0,0.0,0.0
hz,0.0,0.0,0.0,0.0,0.0,1.0,0.0,0.0,0.0,0.0,0.0
essentiel,0.09543243841722161,0.0,0.1562987967777305,0.07406696712962396,0.0,0.11089355972504186,0.10050606172530811,0.0818554523328683,0.09168566831751776,0.14384019703453782,0.1454208585401501
conducteur,0.0,0.0,0.0,0.0,0.0,0.0,0.0,0.0,0.0,1.0,0.0
nucléair,0.0,0.0,1.0,0.0,0.0,0.0,0.0,0.0,0.0,0.0,0.0
forc,0.0,0.8518997873716733,0.0,0.0,0.0,0.0,0.0,0.14810021262832676,0.0,0.0,0.0
regard,0.0,0.0,0.0,1.0,0.0,0.0,0.0,0.0,0.0,0.0,0.0
jul,0.0,0.0,0.0,0.0,1.0,0.0,0.0,0.0,0.0,0.0,0.0
inchang,0.0,0.0,0.0,0.0,1.0,0.0,0.0,0.0,0.0,0.0,0.0
humain,0.0,0.0,0.0,0.0,0.0,1.0,0.0,0.0,0.0,0.0,0.0
atom,0.07502843656251869,0.0,0.6144060946817518,0.3105654687557295,0.0,0.0,0.0,0.0,0.0,0.0,0.0
don,0.0637549306101093,0.0,0.0,0.0,0.0,0.0740839417145419,0.13428886650005256,0.4374771321026515,0.0,0.09609438816588498,0.1943007409067598
astre,0.0,0.0,0.0,0.0,0.0,0.0,0.0,1.0,0.0,0.0,0.0
azot,0.0,0.0,0.0,1.0,0.0,0.0,0.0,0.0,0.0,0.0,0.0
ph,0.0,0.0,0.0,0.1280436607893704,0.8719563392106296,0.0,0.0,0.0,0.0,0.0,0.0
fort,0.0,0.0,0.0,0.0,0.0,0.0,0.0,0.0,0.0,1.0,0.0
transmettr,0.0,0.0,0.0,0.0,0.0,1.0,0.0,0.0,0.0,0.0,0.0
squelet,0.0,0.0,0.0,0.0,0.0,1.0,0.0,0.0,0.0,0.0,0.0
h^,0.0,0.0,0.0,0.0,1.0,0.0,0.0,0.0,0.0,0.0,0.0
factur,0.0,0.0,0.0,0.0,0.0,0.0,1.0,0.0,0.0,0.0,0.0
temp,0.0,0.0,0.3623430962346492,0.0,0.0,0.0,0.0,0.0,0.6376569037653507,0.0,0.0
possibl,0.2470588235296415,0.0,0.0,0.0,0.0,0.0,0.0,0.0,0.0,0.0,0.7529411764703586
lient,0.0,0.0,1.0,0.0,0.0,0.0,0.0,0.0,0.0,0.0,0.0
oubli,1.0,0.0,0.0,0.0,0.0,0.0,0.0,0.0,0.0,0.0,0.0
limit,0.0,0.0,0.0,0.0,0.0,0.0,0.41132637853927534,0.0,0.0,0.5886736214607247,0.0
remis,1.0,0.0,0.0,0.0,0.0,0.0,0.0,0.0,0.0,0.0,0.0
problem,0.0,0.0,0.0,0.0,0.0,0.0,0.0,0.0,0.0,1.0,0.0
sein,0.0,0.0,0.2975241663282496,0.0,0.15485888985109858,0.0,0.0,0.0,0.0,0.5476169438206518,0.0
entendr,0.0,0.0,0.0,0.0,0.0,1.0,0.0,0.0,0.0,0.0,0.0
ohm,0.0,0.0,0.0,0.0,0.0,0.0,0.0,0.0,0.0,1.0,0.0
khz,0.0,0.0,0.0,0.0,0.0,1.0,0.0,0.0,0.0,0.0,0.0
immobil,0.0,0.0,0.0,0.0,0.0,0.0,0.0,0.0,1.0,0.0,0.0
anné,0.0,0.0,1.0,0.0,0.0,0.0,0.0,0.0,0.0,0.0,0.0
descript,0.0,0.0,0.0,0.0,0.0,0.0,0.0,0.0,1.0,0.0,0.0
utilis,0.15720232832940534,0.0,0.0,0.0,0.044669514060830126,0.12178057464619657,0.49667976140559145,0.0,0.10068694162431589,0.07898087993366062,0.0
nouvel,1.0,0.0,0.0,0.0,0.0,0.0,0.0,0.0,0.0,0.0,0.0
repren,0.0,1.0,0.0,0.0,0.0,0.0,0.0,0.0,0.0,0.0,0.0
lingot,1.0,0.0,0.0,0.0,0.0,0.0,0.0,0.0,0.0,0.0,0.0
exist,0.21439069459238352,0.3340319436340473,0.0,0.0,0.0,0.0,0.4515773617735692,0.0,0.0,0.0,0.0
déjà,0.0,0.0,0.0,0.0,0.0,0.0,0.0,0.0,0.0,0.0,1.0
dilu,0.0,0.0,0.0,0.0,1.0,0.0,0.0,0.0,0.0,0.0,0.0
précip,0.0,0.0,0.0,1.0,0.0,0.0,0.0,0.0,0.0,0.0,0.0
précis,0.0,0.0,0.0,0.0,0.0,0.0,0.0,0.0,1.0,0.0,0.0
proport,0.0,0.0,0.0,0.47656249999972056,0.5234375000002793,0.0,0.0,0.0,0.0,0.0,0.0
chauffag,0.0,0.0,0.0,0.0,0.0,0.0,0.0,0.0,0.0,1.0,0.0
assembl,0.0,0.0,0.0,1.0,0.0,0.0,0.0,0.0,0.0,0.0,0.0
ni,0.0,0.0,0.0,0.0,0.0,0.0,0.0,0.0,1.0,0.0,0.0
valis,0.0,1.0,0.0,0.0,0.0,0.0,0.0,0.0,0.0,0.0,0.0
seul,0.0,0.33621462150368664,0.0,0.33496008933370247,0.0,0.0,0.0,0.0,0.0,0.0,0.3288252891626109
ne,0.0,0.0,0.0,0.0,1.0,0.0,0.0,0.0,0.0,0.0,0.0
nal,0.0,0.0,0.0,0.0,1.0,0.0,0.0,0.0,0.0,0.0,0.0
disjoncteur,0.0,0.0,0.0,0.0,0.0,0.0,1.0,0.0,0.0,0.0,0.0
radiateur,0.0,0.0,0.0,0.0,0.0,0.0,0.0,0.0,0.0,1.0,0.0
comprendr,0.0,0.0,0.0,0.0,0.0,0.0,0.582893347412664,0.0,0.0,0.4171066525873361,0.0
test,0.0,0.0,0.0,1.0,0.0,0.0,0.0,0.0,0.0,0.0,0.0
mass,0.7096310140041172,0.0,0.0,0.0,0.0,0.0,0.0,0.22676060378821447,0.0,0.0,0.06360838220766818
métal,0.4897413024079136,0.0,0.0,0.0,0.5102586975920864,0.0,0.0,0.0,0.0,0.0,0.0
agit,0.0,1.0,0.0,0.0,0.0,0.0,0.0,0.0,0.0,0.0,0.0
annulent,0.0,0.2407582938395974,0.7592417061604027,0.0,0.0,0.0,0.0,0.0,0.0,0.0,0.0
reproduir,0.0,0.0,0.0,0.0,1.0,0.0,0.0,0.0,0.0,0.0,0.0
chacun,0.0,0.0,0.0,0.0,0.0,1.0,0.0,0.0,0.0,0.0,0.0
introduit,0.0,0.0,0.0,0.0,1.0,0.0,0.0,0.0,0.0,0.0,0.0
symbol,0.2712220457001828,0.0,0.0,0.21050069218476183,0.0,0.0,0.2856414455976816,0.23263581651737375,0.0,0.0,0.0
souhait,0.0,0.0,0.0,0.0,0.0,0.0,0.0,0.0,0.0,1.0,0.0
ρ=,1.0,0.0,0.0,0.0,0.0,0.0,0.0,0.0,0.0,0.0,0.0
longueur,0.0,1.0,0.0,0.0,0.0,0.0,0.0,0.0,0.0,0.0,0.0
intens,0.0,0.4141076079524884,0.0,0.0,0.0,0.0,0.1507238791160746,0.15782721362536212,0.0,0.277341299306075,0.0
transfert,0.0,0.0,0.0,0.0,0.0,0.0,0.0,0.0,0.0,0.0,1.0
forment,0.0,0.0,1.0,0.0,0.0,0.0,0.0,0.0,0.0,0.0,0.0
observon,0.0,0.0,0.0,0.0,0.0,0.0,0.0,0.0,1.0,0.0,0.0
ton,0.0,0.0,0.0,0.0,0.0,0.0,0.0,1.0,0.0,0.0,0.0
souscrit,0.0,0.0,0.0,0.0,0.0,0.0,1.0,0.0,0.0,0.0,0.0
notion,0.07401058320484719,0.11531236933818675,0.14545702022032644,0.06892925958171937,0.08832738454644987,0.08600112461797459,0.07794532307162574,0.05078499400129715,0.11376776947196265,0.08924174670527502,0.09022242524033541
équilibr,0.0,1.0,0.0,0.0,0.0,0.0,0.0,0.0,0.0,0.0,0.0
inser,1.0,0.0,0.0,0.0,0.0,0.0,0.0,0.0,0.0,0.0,0.0
composent,0.0,0.0,0.0,0.0,0.0,1.0,0.0,0.0,0.0,0.0,0.0
chiffr,0.0,0.0,0.0,1.0,0.0,0.0,0.0,0.0,0.0,0.0,0.0
adult,0.0,0.0,0.0,0.0,0.0,0.0,0.0,0.0,0.0,0.0,1.0
